graph TD;
    start(Start on Youtube homepage);
    list[List recommended videos];
    for_each[for each];
    pick["Pick one video<br>at random"];
    load[Load video page];
    load2[Load video page];
    add[add video data<br>to graph];
    repeat[repeat n times];

    start-->list;
    list-->for_each;
    for_each-->load;
    load-->add;
    add-->for_each;
    list-->pick;

    pick-->load2;
    load2-->repeat;
    repeat-->list;


    %% add-->|"repeat n times"|list

 classDef basic text-align:center, fill:#FFF,stroke:#333,stroke-width:1px,font-family:Tuner;

 class list,pick,load,load2,add,for_each,repeat basic;

 style start fill:#FFF, text:#F00, stroke-width:1px, stroke:#f00, font-family:Tuner;
