graph TD;
start(Start on Youtube homepage);
list[List recommended videos];
list2[List recommended videos];
for_each[for each];

load[Load video page];

add[add video data<br>to graph];


subgraph Repeat for n levels;

for_each2[for each];
add2[add video data<br>to graph];
load2[Load video page];
end

start-->list;
list-->for_each;
for_each-->load;
load-->add;
add-->list2;
list2-->for_each2;
for_each2-->load2;
load2-->add2;
add2-->for_each2;
list2-->for_each;


    %% add-->|"repeat n times"|list

 classDef basic text-align:center, fill:#FFF,stroke:#333,stroke-width:1px,font-family:Tuner;

 class list,list2,pick,load,load2,add,add2,for_each,for_each2,repeat basic;

 style start fill:#FFF, text:#F00, stroke-width:1px, stroke:#f00, font-family:Tuner;
