graph TD;
  start(Start on Youtube homepage);

1[List recommended videos];
  start-->1;

  2["Pick one video<br>at random"]
  1-->2;

  3[Load video page]
  2-->3;

  4[add video data<br>to graph]
  3-->4;
  5[repeat n times];
4-->5
5-->1

 classDef basic text-align:center, fill:#FFF,stroke:#333,stroke-width:1px,font-family:Tuner;

 class 1,2,3,4,5 basic;

 style start fill:#FFF, text:#F00, stroke-width:1px, stroke:#f00, font-family:Tuner;
