{
  "nodes": [
    {
      "id": 82,
      "properties": {
        "YT_id": "home",
        "title": "Youtube homepage"
      },
      "text": "Youtube homepage"
    },
    {
      "id": 8316,
      "properties": {
        "date": "17 Jan 2019",
        "YT_id": "M7XM597XO94",
        "by": "Lionsgate Movies",
        "last_visited": "2019-01-21 12:14:58",
        "title": "John Wick: Chapter 3 - Parabellum (2019 Movie) Official Trailer – Keanu Reeves, Halle Berry",
        "views": 18326255
      },
      "text": "John Wick: Chapter 3 - Parabellum (2019 Movie) Official Trailer – Keanu Reeves, Halle Berry"
    },
    {
      "id": 8638,
      "properties": {
        "date": "23 Dec 2018",
        "YT_id": "g7o1jL1863Q",
        "by": "Top Things",
        "last_visited": "2019-01-21 12:14:58",
        "title": "Top 10 People getting OWNED! 🔥",
        "views": 15997252
      },
      "text": "Top 10 People getting OWNED! 🔥"
    },
    {
      "id": 8926,
      "properties": {
        "date": "16 Mar 2017",
        "YT_id": "yrsZQaKiBhs",
        "by": "Indicrat",
        "last_visited": "2019-01-21 12:14:58",
        "title": "MILO Yiannopoulos Effortlessly Takes Apart Black Feminist NAACP President At WCU",
        "views": 1418341
      },
      "text": "MILO Yiannopoulos Effortlessly Takes Apart Black Feminist NAACP President At WCU"
    },
    {
      "id": 8927,
      "properties": {
        "date": "30 Oct 2018",
        "YT_id": "Hw8NYWlRSC4",
        "by": "Informative",
        "last_visited": "2019-01-21 12:14:58",
        "title": "\"You Are Overly Privileged Americans\" Candice Owens DESTROYS Rude Black students",
        "views": 680818
      },
      "text": "\"You Are Overly Privileged Americans\" Candice Owens DESTROYS Rude Black students"
    },
    {
      "id": 8928,
      "properties": {
        "date": "1 Dec 2018",
        "YT_id": "IBuCm0afn54",
        "by": "Informative",
        "last_visited": "2019-01-21 12:14:58",
        "title": "Ben Shapiro Brilliantly EDUCATES College Professors In Thrilling Q and A",
        "views": 901014
      },
      "text": "Ben Shapiro Brilliantly EDUCATES College Professors In Thrilling Q and A"
    },
    {
      "id": 8929,
      "properties": {
        "date": "15 Nov 2018",
        "YT_id": "EymDXH-u8Y0",
        "by": "The Free Speech Club",
        "last_visited": "2019-01-21 12:14:58",
        "title": "Ben Shapiro Invades Canada! | UBC Free Speech Club Talk",
        "views": 758816
      },
      "text": "Ben Shapiro Invades Canada! | UBC Free Speech Club Talk"
    },
    {
      "id": 8930,
      "properties": {
        "date": "8 Oct 2018",
        "YT_id": "kqjJ3gl_m0g",
        "by": "YAFTV",
        "last_visited": "2019-01-21 12:14:58",
        "title": "Ben Shapiro LIVE at University at Buffalo",
        "views": 357500
      },
      "text": "Ben Shapiro LIVE at University at Buffalo"
    },
    {
      "id": 8931,
      "properties": {
        "date": "26 Nov 2018",
        "YT_id": "EOh1Gflu7Uw",
        "by": "Trigger Happy Media",
        "last_visited": "2019-01-21 12:14:58",
        "title": "Jordan Peterson's Most Savage Comebacks (Highlights/Compilation) - NEW 2018!",
        "views": 1651288
      },
      "text": "Jordan Peterson's Most Savage Comebacks (Highlights/Compilation) - NEW 2018!"
    },
    {
      "id": 8932,
      "properties": {
        "date": "20 May 2018",
        "YT_id": "ZpbPCGdRkWY",
        "by": "SJWCentral",
        "last_visited": "2019-01-21 12:14:58",
        "title": "WOW! \"YOU'RE A MEAN MAD WHITE MAN\" Jordan Peterson  SJW FAILS AND CRINGE #56",
        "views": 547299
      },
      "text": "WOW! \"YOU'RE A MEAN MAD WHITE MAN\" Jordan Peterson  SJW FAILS AND CRINGE #56"
    },
    {
      "id": 8933,
      "properties": {
        "date": "20 Dec 2018",
        "YT_id": "MDiRRF4TPMI",
        "by": "Voice Liberty",
        "last_visited": "2019-01-21 12:14:58",
        "title": "Jordan Peterson vs Ben Shapiro Heated Abortion Arguments",
        "views": 60125
      },
      "text": "Jordan Peterson vs Ben Shapiro Heated Abortion Arguments"
    },
    {
      "id": 8934,
      "properties": {
        "date": "4 Oct 2018",
        "YT_id": "4KwbKRKCP5U",
        "by": "Informative",
        "last_visited": "2019-01-21 12:14:58",
        "title": "Top 12 Most Legendary Moments Ben Shapiro TRIGGERED SJWs",
        "views": 22296
      },
      "text": "Top 12 Most Legendary Moments Ben Shapiro TRIGGERED SJWs"
    },
    {
      "id": 8935,
      "properties": {
        "date": "19 Nov 2018",
        "YT_id": "0ZBt2vjclgk",
        "by": "Informative",
        "last_visited": "2019-01-21 12:14:58",
        "title": "Smart Student Tries To BAIT Ben Shapiro On TRUMP, Gets SCHOOLED Instead",
        "views": 210231
      },
      "text": "Smart Student Tries To BAIT Ben Shapiro On TRUMP, Gets SCHOOLED Instead"
    },
    {
      "id": 8936,
      "properties": {
        "date": "28 May 2018",
        "YT_id": "1F2ukbrVb1M",
        "by": "SJWCentral",
        "last_visited": "2019-01-21 12:14:58",
        "title": "\"You are not oppressed!\"  - SJWS OWNED #50",
        "views": 373960
      },
      "text": "\"You are not oppressed!\"  - SJWS OWNED #50"
    },
    {
      "id": 8937,
      "properties": {
        "date": "11 Dec 2017",
        "YT_id": "tl8zUx2CmJg",
        "by": "SJWCentral",
        "last_visited": "2019-01-21 12:14:58",
        "title": "SJW FAILS AND CRINGE #53 - SJW Triggered in the wild",
        "views": 407010
      },
      "text": "SJW FAILS AND CRINGE #53 - SJW Triggered in the wild"
    }
  ],
  "links": [
    {
      "id": 12307,
      "source": 0,
      "target": 1,
      "properties": {
        "sesh_ip": "196.52.84.18",
        "sesh_loc": "England",
        "sesh_type": "simple_digger",
        "sesh_id": "2019-01-21 12:14:58",
        "sesh_isp": "UK-2 Limited"
      },
      "type": "CLICKED"
    },
    {
      "id": 13112,
      "source": 1,
      "target": 2,
      "properties": {
        "sesh_ip": "196.52.84.18",
        "sesh_loc": "England",
        "sesh_id": "2019-01-21 12:14:58",
        "sesh_type": "simple_digger",
        "sesh_isp": "UK-2 Limited"
      },
      "type": "CLICKED"
    },
    {
      "id": 13113,
      "source": 2,
      "target": 3,
      "properties": {
        "sesh_ip": "196.52.84.18",
        "sesh_loc": "England",
        "sesh_id": "2019-01-21 12:14:58",
        "sesh_type": "simple_digger",
        "sesh_isp": "UK-2 Limited"
      },
      "type": "CLICKED"
    },
    {
      "id": 13114,
      "source": 3,
      "target": 4,
      "properties": {
        "sesh_ip": "196.52.84.18",
        "sesh_loc": "England",
        "sesh_id": "2019-01-21 12:14:58",
        "sesh_type": "simple_digger",
        "sesh_isp": "UK-2 Limited"
      },
      "type": "CLICKED"
    },
    {
      "id": 13115,
      "source": 4,
      "target": 5,
      "properties": {
        "sesh_ip": "196.52.84.18",
        "sesh_loc": "England",
        "sesh_id": "2019-01-21 12:14:58",
        "sesh_type": "simple_digger",
        "sesh_isp": "UK-2 Limited"
      },
      "type": "CLICKED"
    },
    {
      "id": 13116,
      "source": 5,
      "target": 6,
      "properties": {
        "sesh_ip": "196.52.84.18",
        "sesh_loc": "England",
        "sesh_id": "2019-01-21 12:14:58",
        "sesh_type": "simple_digger",
        "sesh_isp": "UK-2 Limited"
      },
      "type": "CLICKED"
    },
    {
      "id": 13117,
      "source": 6,
      "target": 5,
      "properties": {
        "sesh_ip": "196.52.84.18",
        "sesh_loc": "England",
        "sesh_id": "2019-01-21 12:14:58",
        "sesh_type": "simple_digger",
        "sesh_isp": "UK-2 Limited"
      },
      "type": "CLICKED"
    },
    {
      "id": 13118,
      "source": 5,
      "target": 7,
      "properties": {
        "sesh_ip": "196.52.84.18",
        "sesh_loc": "England",
        "sesh_id": "2019-01-21 12:14:58",
        "sesh_type": "simple_digger",
        "sesh_isp": "UK-2 Limited"
      },
      "type": "CLICKED"
    },
    {
      "id": 13119,
      "source": 7,
      "target": 8,
      "properties": {
        "sesh_ip": "196.52.84.18",
        "sesh_loc": "England",
        "sesh_id": "2019-01-21 12:14:58",
        "sesh_type": "simple_digger",
        "sesh_isp": "UK-2 Limited"
      },
      "type": "CLICKED"
    },
    {
      "id": 13120,
      "source": 8,
      "target": 9,
      "properties": {
        "sesh_ip": "196.52.84.18",
        "sesh_loc": "England",
        "sesh_id": "2019-01-21 12:14:58",
        "sesh_type": "simple_digger",
        "sesh_isp": "UK-2 Limited"
      },
      "type": "CLICKED"
    },
    {
      "id": 13121,
      "source": 9,
      "target": 10,
      "properties": {
        "sesh_ip": "196.52.84.18",
        "sesh_loc": "England",
        "sesh_id": "2019-01-21 12:14:58",
        "sesh_type": "simple_digger",
        "sesh_isp": "UK-2 Limited"
      },
      "type": "CLICKED"
    },
    {
      "id": 13122,
      "source": 10,
      "target": 11,
      "properties": {
        "sesh_ip": "196.52.84.18",
        "sesh_loc": "England",
        "sesh_id": "2019-01-21 12:14:58",
        "sesh_type": "simple_digger",
        "sesh_isp": "UK-2 Limited"
      },
      "type": "CLICKED"
    },
    {
      "id": 13123,
      "source": 11,
      "target": 12,
      "properties": {
        "sesh_ip": "196.52.84.18",
        "sesh_loc": "England",
        "sesh_id": "2019-01-21 12:14:58",
        "sesh_type": "simple_digger",
        "sesh_isp": "UK-2 Limited"
      },
      "type": "CLICKED"
    },
    {
      "id": 13124,
      "source": 12,
      "target": 9,
      "properties": {
        "sesh_ip": "196.52.84.18",
        "sesh_loc": "England",
        "sesh_id": "2019-01-21 12:14:58",
        "sesh_type": "simple_digger",
        "sesh_isp": "UK-2 Limited"
      },
      "type": "CLICKED"
    },
    {
      "id": 13125,
      "source": 9,
      "target": 13,
      "properties": {
        "sesh_ip": "196.52.84.18",
        "sesh_loc": "England",
        "sesh_id": "2019-01-21 12:14:58",
        "sesh_type": "simple_digger",
        "sesh_isp": "UK-2 Limited"
      },
      "type": "CLICKED"
    },
    {
      "id": 13126,
      "source": 13,
      "target": 14,
      "properties": {
        "sesh_ip": "196.52.84.18",
        "sesh_loc": "England",
        "sesh_id": "2019-01-21 12:14:58",
        "sesh_type": "simple_digger",
        "sesh_isp": "UK-2 Limited"
      },
      "type": "CLICKED"
    }
  ]
}
