graph LR
start["Youtube homepage"]-->KXanlLjOFh0["Jax Jones, Mabel - Ring Ring (Official Video) ft. Rich The Kid"]
KXanlLjOFh0["Jax Jones, Mabel - Ring Ring (Official Video) ft. Rich The Kid"]-->aJOTlE1K90k["Maroon 5 - Girls Like You ft. Cardi B"]
KXanlLjOFh0["Jax Jones, Mabel - Ring Ring (Official Video) ft. Rich The Kid"]-->2uxtfgx5S2s["Funniest Auditions Ever On Got Talent Around The World | Vol. 1"]
KXanlLjOFh0["Jax Jones, Mabel - Ring Ring (Official Video) ft. Rich The Kid"]-->qJOcJSIBOnk["40 CLEVER GIRLS' HACKS EVERYONE SHOULD KNOW"]
KXanlLjOFh0["Jax Jones, Mabel - Ring Ring (Official Video) ft. Rich The Kid"]-->uGhKqb2Ow3E["Jax Jones - Breathe (Official Video) ft. Ina Wroldsen"]
KXanlLjOFh0["Jax Jones, Mabel - Ring Ring (Official Video) ft. Rich The Kid"]-->8YqGTUusjQE["All the Performances of Piff the magic dragon on American's Got Talent 2015"]
KXanlLjOFh0["Jax Jones, Mabel - Ring Ring (Official Video) ft. Rich The Kid"]-->QXq73-OCin0["100 Fortnite Tips and Tricks - LEARN EVERYTHING!"]
KXanlLjOFh0["Jax Jones, Mabel - Ring Ring (Official Video) ft. Rich The Kid"]-->btrzs54s1Rc["Jonas Blue - Rise ft. Jack & Jack"]
KXanlLjOFh0["Jax Jones, Mabel - Ring Ring (Official Video) ft. Rich The Kid"]-->Lk5e8u0eORU["Rajpal Yadav best comedy scene of movie dhol by bollywood company"]
KXanlLjOFh0["Jax Jones, Mabel - Ring Ring (Official Video) ft. Rich The Kid"]-->V15BYnSr0P8["Live It Up (Official Video) - Nicky Jam feat. Will Smith & Era Istrefi (2018 FIFA World Cup Russia)"]
KXanlLjOFh0["Jax Jones, Mabel - Ring Ring (Official Video) ft. Rich The Kid"]-->ffxKSjUwKdU["Ariana Grande - no tears left to cry"]
KXanlLjOFh0["Jax Jones, Mabel - Ring Ring (Official Video) ft. Rich The Kid"]-->wjypPpHVI9o["Sir, open the door please"]
KXanlLjOFh0["Jax Jones, Mabel - Ring Ring (Official Video) ft. Rich The Kid"]-->wH6T8tNtb40["Beyoncé OTR II - Ring The Alarm/Don't Hurt Yourself (03.07.18 Cologne) HD"]
KXanlLjOFh0["Jax Jones, Mabel - Ring Ring (Official Video) ft. Rich The Kid"]-->n08zdJBSktQ["Felix Thompson Smooth Voice Performs 'Can We Talk' | THE FOUR S2E4"]
KXanlLjOFh0["Jax Jones, Mabel - Ring Ring (Official Video) ft. Rich The Kid"]-->OGl5V5ZNya0["Rudy Mancuso - Mama (Official Music Video)"]
KXanlLjOFh0["Jax Jones, Mabel - Ring Ring (Official Video) ft. Rich The Kid"]-->2sfVySwOAtc["'Ant-Man and the Wasp' Cast Answer the Web's Most Searched Questions | WIRED"]
KXanlLjOFh0["Jax Jones, Mabel - Ring Ring (Official Video) ft. Rich The Kid"]-->YlaWGd1cUms["Tape Face Auditions & Performances | America's Got Talent 2016 Finalist"]
KXanlLjOFh0["Jax Jones, Mabel - Ring Ring (Official Video) ft. Rich The Kid"]-->RecY5iZn6B0["Chaka Khan - Like Sugar (Official Video)"]
KXanlLjOFh0["Jax Jones, Mabel - Ring Ring (Official Video) ft. Rich The Kid"]-->izIyhdEHSPo["Khalid & Normani - Love Lies (Audio)"]
KXanlLjOFh0["Jax Jones, Mabel - Ring Ring (Official Video) ft. Rich The Kid"]-->7T7mg6JZZzg["A Tetris Expert Plays TETRIS EFFECT for the First Time"]
start["Youtube homepage"]-->OsAcF2APchM["Ana Guerra, Juan Magan - Ni La Hora"]
OsAcF2APchM["Ana Guerra, Juan Magan - Ni La Hora"]-->Eg4LUvUjUWI["Alvaro Soler - La Cintura"]
OsAcF2APchM["Ana Guerra, Juan Magan - Ni La Hora"]-->RgULjdsjiLQ["Shakira, Maluma - Clandestino (Audio)"]
OsAcF2APchM["Ana Guerra, Juan Magan - Ni La Hora"]-->V15BYnSr0P8["Live It Up (Official Video) - Nicky Jam feat. Will Smith & Era Istrefi (2018 FIFA World Cup Russia)"]
OsAcF2APchM["Ana Guerra, Juan Magan - Ni La Hora"]-->h8r5rbUmBzs["X Remix - Nicky Jam x J Balvin x Ozuna x Maluma"]
OsAcF2APchM["Ana Guerra, Juan Magan - Ni La Hora"]-->Rsgts5a9KkQ["35 TRUCOS DE VERANO QUE NO TE PUEDES PERDER"]
OsAcF2APchM["Ana Guerra, Juan Magan - Ni La Hora"]-->GhlKpeSSQiM["El ultimátum de la Infanta Cristina a la Reina Letizia | Arde Casa Real"]
OsAcF2APchM["Ana Guerra, Juan Magan - Ni La Hora"]-->bx-fuY7LpSU["Vaina Loca - Ozuna x Manuel Turizo ( Video Oficial )"]
OsAcF2APchM["Ana Guerra, Juan Magan - Ni La Hora"]-->GMr3j4YVBlg["Roi: 'Cantar tu propia canción delante del Bernabéu hace que estés más nervioso' | mtmad"]
OsAcF2APchM["Ana Guerra, Juan Magan - Ni La Hora"]-->R8hnYOYyVR8["LLÉVAME EN LA MALETA - Ariann ft Dalas Review (con Lizy_p y César Abril)"]
OsAcF2APchM["Ana Guerra, Juan Magan - Ni La Hora"]-->mG0b8IAJvts["Natti Natasha - Quien Sabe ❤ [Official Video]"]
OsAcF2APchM["Ana Guerra, Juan Magan - Ni La Hora"]-->hVVcppnDixY["Nil Moliner - Sin Tu Piel (Audio Oficial)"]
OsAcF2APchM["Ana Guerra, Juan Magan - Ni La Hora"]-->lu8x4as7kvQ["10 Fáciles Trucos que DEBES Saber | Hacks y trucos Increíbles para Mujeres"]
OsAcF2APchM["Ana Guerra, Juan Magan - Ni La Hora"]-->qYXCsZunjRM["Aitana, Ana Guerra - Lo Malo"]
OsAcF2APchM["Ana Guerra, Juan Magan - Ni La Hora"]-->kUO_xvCWCEk["BLOQUEO  (roast yourself challenge) - LUISA FERNANDA W prod. dejota2021"]
OsAcF2APchM["Ana Guerra, Juan Magan - Ni La Hora"]-->8Ti1N9ECSXk["06. IZAL - Pequeña Gran Revolución (audio)"]
OsAcF2APchM["Ana Guerra, Juan Magan - Ni La Hora"]-->dcQs2zHak0U["Antonio José, Juan Magan - Se Vive Mejor"]
OsAcF2APchM["Ana Guerra, Juan Magan - Ni La Hora"]-->pK-TLFNtYas["AITANA Y CEPEDA 'No puedo vivir sin ti' - Operación Triunfo Bernabeu (OT) | 29/06/2018 | @Jejuu14"]
OsAcF2APchM["Ana Guerra, Juan Magan - Ni La Hora"]-->Xfp-S7iRWMQ["COSTA ft. BEBE, MYGAL X - FICCIÓN"]
OsAcF2APchM["Ana Guerra, Juan Magan - Ni La Hora"]-->GfRJRpj7YBI["有趣的婴儿偷从妈妈的芯片与Johny Johny学习颜色是爸爸的歌儿歌的童谣"]
start["Youtube homepage"]-->EQnk-h-LCpQ["Charlie Puth - The Way I Am [Official Video]"]
EQnk-h-LCpQ["Charlie Puth - The Way I Am [Official Video]"]-->nfs8NYg7yQM["Charlie Puth - Attention [Official Video]"]
EQnk-h-LCpQ["Charlie Puth - The Way I Am [Official Video]"]-->DIMIZPbnfNs["Best Fight Scenes: Louis Fan"]
EQnk-h-LCpQ["Charlie Puth - The Way I Am [Official Video]"]-->n8t9yJIKkvM["Spill Your Guts or Fill Your Guts w/ Charlie Puth, Josh Gad, Michelle Dockery & Rachel Bloom"]
EQnk-h-LCpQ["Charlie Puth - The Way I Am [Official Video]"]-->pQh9i-MiS50["Top 3 Drop The Mic FULL BATTLE"]
EQnk-h-LCpQ["Charlie Puth - The Way I Am [Official Video]"]-->aJOTlE1K90k["Maroon 5 - Girls Like You ft. Cardi B"]
EQnk-h-LCpQ["Charlie Puth - The Way I Am [Official Video]"]-->8JnfIa84TnU["Clean Bandit - Solo feat. Demi Lovato [Official Video]"]
EQnk-h-LCpQ["Charlie Puth - The Way I Am [Official Video]"]-->TdyllLZeviY["Charlie Puth - Done For Me (feat. Kehlani) [Official Video]"]
EQnk-h-LCpQ["Charlie Puth - The Way I Am [Official Video]"]-->BAJLKhMIbA8["Fortnite - Perfect Timing Compilation (Fortnite Battle Royale)"]
EQnk-h-LCpQ["Charlie Puth - The Way I Am [Official Video]"]-->3AtDnEC4zak["Charlie Puth - We Don't Talk Anymore (feat. Selena Gomez) [Official Video]"]
EQnk-h-LCpQ["Charlie Puth - The Way I Am [Official Video]"]-->9zynAx11NkU["Charlie Puth Greats Hits 2018 || Charlie Puth the Best Song 2018"]
EQnk-h-LCpQ["Charlie Puth - The Way I Am [Official Video]"]-->dUMgYDlMOJw["Uncle Sam (1996) KILL COUNT"]
EQnk-h-LCpQ["Charlie Puth - The Way I Am [Official Video]"]-->Mgfe5tIwOj0["Dua Lipa - IDGAF (Official Music Video)"]
EQnk-h-LCpQ["Charlie Puth - The Way I Am [Official Video]"]-->CwfoyVa980U["Charlie Puth - 'How Long' [Official Video]"]
EQnk-h-LCpQ["Charlie Puth - The Way I Am [Official Video]"]-->lY2yjAdbvdQ["Shawn Mendes - Treat You Better"]
EQnk-h-LCpQ["Charlie Puth - The Way I Am [Official Video]"]-->LbHP_o0AuQs["Charlie Puth Special Olympics Performance in Seattle | LIVE 7-1-18"]
EQnk-h-LCpQ["Charlie Puth - The Way I Am [Official Video]"]-->igNVdlXhKcI["Charlie Puth - Marvin Gaye ft. Meghan Trainor [Official Video]"]
EQnk-h-LCpQ["Charlie Puth - The Way I Am [Official Video]"]-->Y15MOr9saxE["Talk - Why Don't We [Official Music Video]"]
EQnk-h-LCpQ["Charlie Puth - The Way I Am [Official Video]"]-->jzD_yyEcp0M["Marshmello & Anne-Marie - FRIENDS (Music Video) *OFFICIAL FRIENDZONE ANTHEM*"]
EQnk-h-LCpQ["Charlie Puth - The Way I Am [Official Video]"]-->BxuY9FET9Y4["Charlie Puth - One Call Away [Official Video]"]
start["Youtube homepage"]-->_RZkNUPoIcM["Pehli Baar | Dhadak | Ishaan & Janhvi | Ajay Gogavale | Ajay-Atul | Amitabh Bhattacharya"]
_RZkNUPoIcM["Pehli Baar | Dhadak | Ishaan & Janhvi | Ajay Gogavale | Ajay-Atul | Amitabh Bhattacharya"]-->qWnzMwT6SKo["Dhadak - Title Track | Dhadak | Ishaan & Janhvi | Ajay Gogavale & Shreya Ghoshal | Ajay-Atul"]
_RZkNUPoIcM["Pehli Baar | Dhadak | Ishaan & Janhvi | Ajay Gogavale | Ajay-Atul | Amitabh Bhattacharya"]-->4AhqahtZKYs["Gali Mein Aaj Chand Nikla | HD"]
_RZkNUPoIcM["Pehli Baar | Dhadak | Ishaan & Janhvi | Ajay Gogavale | Ajay-Atul | Amitabh Bhattacharya"]-->sRBuse8yIRU["FilterCopy | If Salary Were A Person | Ft. Wamiqa Gabbi and Veer Rajwant Singh"]
_RZkNUPoIcM["Pehli Baar | Dhadak | Ishaan & Janhvi | Ajay Gogavale | Ajay-Atul | Amitabh Bhattacharya"]-->b4Q93ohQPKg["The Love Mashup - Atif Aslam & Arijit Singh 2018 | By DJ RHN ROHAN | Is this love or pain ?"]
_RZkNUPoIcM["Pehli Baar | Dhadak | Ishaan & Janhvi | Ajay Gogavale | Ajay-Atul | Amitabh Bhattacharya"]-->8uP0F3-tiP0["Yad Lagla | Official Full Video Song (2016) Nagraj Popatrao Manjule"]
_RZkNUPoIcM["Pehli Baar | Dhadak | Ishaan & Janhvi | Ajay Gogavale | Ajay-Atul | Amitabh Bhattacharya"]-->ozPsJZtnXM4["SANJU: Ranbir Kapoor to Sanjay Dutt - The Transformation | Rajkumar Hirani | In Cinemas Now"]
_RZkNUPoIcM["Pehli Baar | Dhadak | Ishaan & Janhvi | Ajay Gogavale | Ajay-Atul | Amitabh Bhattacharya"]-->knIiRy5aC2A["Ishq Di Baajiyaan - Lyric Video |Soorma |Diljit | Taapsee |Shankar Ehsaan Loy | Gulzar"]
_RZkNUPoIcM["Pehli Baar | Dhadak | Ishaan & Janhvi | Ajay Gogavale | Ajay-Atul | Amitabh Bhattacharya"]-->wO5W6B8PiZM["Kavi Kumar Azaad aka Dr. Haathi FUNERAL Full Video"]
_RZkNUPoIcM["Pehli Baar | Dhadak | Ishaan & Janhvi | Ajay Gogavale | Ajay-Atul | Amitabh Bhattacharya"]-->_iktURk0X-A["Phir Bhi Tumko Chaahunga - Full Video | Half Girlfriend| Arjun K,Shraddha K | Arijit Singh| Mithoon"]
_RZkNUPoIcM["Pehli Baar | Dhadak | Ishaan & Janhvi | Ajay Gogavale | Ajay-Atul | Amitabh Bhattacharya"]-->kWGU9POrbHE["Dhadak | Official Trailer | Janhvi Kapoor | Ishaan Khatter | Shashank Khaitan | 20 July"]
_RZkNUPoIcM["Pehli Baar | Dhadak | Ishaan & Janhvi | Ajay Gogavale | Ajay-Atul | Amitabh Bhattacharya"]-->ZtFjx3-gRkY["Koi Vi Nahi (Full Video) | Shirley Setia | Gurnazar | Rajat Nagpal Latest Songs 2018 | Speed Records"]
_RZkNUPoIcM["Pehli Baar | Dhadak | Ishaan & Janhvi | Ajay Gogavale | Ajay-Atul | Amitabh Bhattacharya"]-->vHjUc0DFJ0Y["💕LØVELY💕 HEART TOUCHING 2018 ❤️ JUKEBOX 2018 💕 | BEST ROMANTIC JUKEBOX ❤️ | BOLLYWOOD ROMANTIC 💕"]
_RZkNUPoIcM["Pehli Baar | Dhadak | Ishaan & Janhvi | Ajay Gogavale | Ajay-Atul | Amitabh Bhattacharya"]-->xYxffljCjdU["Raghav Juyal and Shakti dance performance in Dance Plus 3"]
_RZkNUPoIcM["Pehli Baar | Dhadak | Ishaan & Janhvi | Ajay Gogavale | Ajay-Atul | Amitabh Bhattacharya"]-->uPjt6gZeqE0["kar har maidaan fateh re bandeya full lyrical video song | Ranbir Kapoor | Shreya Ghoshal"]
_RZkNUPoIcM["Pehli Baar | Dhadak | Ishaan & Janhvi | Ajay Gogavale | Ajay-Atul | Amitabh Bhattacharya"]-->2kWFC7uvyEM["| Halwai Prank | By Nadir Ali In | P4 Pakao | 2018"]
_RZkNUPoIcM["Pehli Baar | Dhadak | Ishaan & Janhvi | Ajay Gogavale | Ajay-Atul | Amitabh Bhattacharya"]-->YKcgwUg39yY["Dhadak - Title Track | Lyrical | Dhadak | Ishaan & Janhvi |Ajay Gogavale & Shreya Ghoshal |Ajay-Atul"]
_RZkNUPoIcM["Pehli Baar | Dhadak | Ishaan & Janhvi | Ajay Gogavale | Ajay-Atul | Amitabh Bhattacharya"]-->1EOxGE2cj6Y["MARQUESE SCOTT | SHAKTI MOHAN DJ SNAKE MAGENTA RIDDIM (EXTENDED VERSION)"]
_RZkNUPoIcM["Pehli Baar | Dhadak | Ishaan & Janhvi | Ajay Gogavale | Ajay-Atul | Amitabh Bhattacharya"]-->eK0IIyBlYew["Tera Zikr - Darshan Raval | Official Video - Latest New Hit Song"]
_RZkNUPoIcM["Pehli Baar | Dhadak | Ishaan & Janhvi | Ajay Gogavale | Ajay-Atul | Amitabh Bhattacharya"]-->9W3UiDZ7S_Y["#1 Best of Armaan Malik 2018 |  Top 10 Songs | Armaan Malik Latest Songs | Romantic Hindi | Top Hits"]
start["Youtube homepage"]-->OGl5V5ZNya0["Rudy Mancuso - Mama (Official Music Video)"]
OGl5V5ZNya0["Rudy Mancuso - Mama (Official Music Video)"]-->k8vIFiLPbHo["Everything is Alright | Rudy Mancuso"]
OGl5V5ZNya0["Rudy Mancuso - Mama (Official Music Video)"]-->3k6RD9zVvpE["Musical Fiction | Rudy Mancuso"]
OGl5V5ZNya0["Rudy Mancuso - Mama (Official Music Video)"]-->aJOTlE1K90k["Maroon 5 - Girls Like You ft. Cardi B"]
OGl5V5ZNya0["Rudy Mancuso - Mama (Official Music Video)"]-->nsZvmFUXkrI["Racist Superman | Rudy Mancuso, Alesso & King Bach"]
OGl5V5ZNya0["Rudy Mancuso - Mama (Official Music Video)"]-->g9_DMwbPzxw["I'm a Baby? | Lele Pons"]
OGl5V5ZNya0["Rudy Mancuso - Mama (Official Music Video)"]-->YlaWGd1cUms["Tape Face Auditions & Performances | America's Got Talent 2016 Finalist"]
OGl5V5ZNya0["Rudy Mancuso - Mama (Official Music Video)"]-->TLdK0cjb8JU["Señor Grinch | Rudy Mancuso, Lele Pons & King Bach"]
OGl5V5ZNya0["Rudy Mancuso - Mama (Official Music Video)"]-->DTa58WM5OFE["Make Your Own Lipstick Balm & Eyeshadow Makeup DIY Craft Do It Yourself"]
OGl5V5ZNya0["Rudy Mancuso - Mama (Official Music Video)"]-->KyB0zVHm2P0["Shawn Mendes Destroys James In a Cover Battle #LateLateShawn"]
OGl5V5ZNya0["Rudy Mancuso - Mama (Official Music Video)"]-->okrV0QiKjQE["Funny Musical Barber | Rudy Mancuso"]
OGl5V5ZNya0["Rudy Mancuso - Mama (Official Music Video)"]-->Dtm5nMlqq1Q["Talking Tom Shorts – Ultra Marathon (All Episodes)"]
OGl5V5ZNya0["Rudy Mancuso - Mama (Official Music Video)"]-->hahi5hfIVX0["Secret Santa | Lele Pons"]
OGl5V5ZNya0["Rudy Mancuso - Mama (Official Music Video)"]-->2YvG0NbYJpE["HRVY - Personal (Official Video)"]
OGl5V5ZNya0["Rudy Mancuso - Mama (Official Music Video)"]-->qSQXhcxHUso["BEST Thomas Sanders Vines with Titles! - Hilarious Thomas Sanders Vine Compilation"]
OGl5V5ZNya0["Rudy Mancuso - Mama (Official Music Video)"]-->zlFiWk5WFgk["Domino | Rudy Mancuso"]
OGl5V5ZNya0["Rudy Mancuso - Mama (Official Music Video)"]-->z8eFzkfto2w["Circle Of Love | Rudy Mancuso"]
OGl5V5ZNya0["Rudy Mancuso - Mama (Official Music Video)"]-->DHCMxVbhSks["cool kids don't cry music video"]
OGl5V5ZNya0["Rudy Mancuso - Mama (Official Music Video)"]-->RHRPK2O9R4w["New Hair, New Me | Anwar Jibawi & Rudy Mancuso"]
OGl5V5ZNya0["Rudy Mancuso - Mama (Official Music Video)"]-->pT20g6lTZ-k["Logan Paul - Help Me Help You ft. Why Don't We [Official Video]"]
start["Youtube homepage"]-->L08uxunfLi4["Rudimental & Major Lazer - Let Me Live (feat. Anne-Marie & Mr Eazi) [Official Video]"]
L08uxunfLi4["Rudimental & Major Lazer - Let Me Live (feat. Anne-Marie & Mr Eazi) [Official Video]"]-->8JnfIa84TnU["Clean Bandit - Solo feat. Demi Lovato [Official Video]"]
L08uxunfLi4["Rudimental & Major Lazer - Let Me Live (feat. Anne-Marie & Mr Eazi) [Official Video]"]-->_TX8dExPIWc["Top 15 Most Shocking Reactions To Red Card in Football"]
L08uxunfLi4["Rudimental & Major Lazer - Let Me Live (feat. Anne-Marie & Mr Eazi) [Official Video]"]-->o_zg-JLjs5I["Rudimental - Toast To Our Differences (feat. Shungudzo, Protoje & Hak Baker) (Official Video)"]
L08uxunfLi4["Rudimental & Major Lazer - Let Me Live (feat. Anne-Marie & Mr Eazi) [Official Video]"]-->Hr4r0smKFTQ["30 THINGS YOU KEEP DOING WRONG"]
L08uxunfLi4["Rudimental & Major Lazer - Let Me Live (feat. Anne-Marie & Mr Eazi) [Official Video]"]-->aJOTlE1K90k["Maroon 5 - Girls Like You ft. Cardi B"]
L08uxunfLi4["Rudimental & Major Lazer - Let Me Live (feat. Anne-Marie & Mr Eazi) [Official Video]"]-->53nsgJIGDBY["Wiz Khalifa Takes a Lie Detector Test | Vanity Fair"]
L08uxunfLi4["Rudimental & Major Lazer - Let Me Live (feat. Anne-Marie & Mr Eazi) [Official Video]"]-->Il-an3K9pjg["Anne-Marie - 2002 [Official Video]"]
L08uxunfLi4["Rudimental & Major Lazer - Let Me Live (feat. Anne-Marie & Mr Eazi) [Official Video]"]-->y-2VKeDBPkw["OneRepublic - Start Again ft. Logic"]
L08uxunfLi4["Rudimental & Major Lazer - Let Me Live (feat. Anne-Marie & Mr Eazi) [Official Video]"]-->pjTj-_55WZ8["Rudimental - These Days feat. Jess Glynne, Macklemore & Dan Caplen [Official Video]"]
L08uxunfLi4["Rudimental & Major Lazer - Let Me Live (feat. Anne-Marie & Mr Eazi) [Official Video]"]-->kbMqWXnpXcA["APES**T - THE CARTERS"]
L08uxunfLi4["Rudimental & Major Lazer - Let Me Live (feat. Anne-Marie & Mr Eazi) [Official Video]"]-->xTlNMmZKwpA["Cardi B, Bad Bunny & J Balvin - I Like It [Official Music Video]"]
L08uxunfLi4["Rudimental & Major Lazer - Let Me Live (feat. Anne-Marie & Mr Eazi) [Official Video]"]-->jzD_yyEcp0M["Marshmello & Anne-Marie - FRIENDS (Music Video) *OFFICIAL FRIENDZONE ANTHEM*"]
L08uxunfLi4["Rudimental & Major Lazer - Let Me Live (feat. Anne-Marie & Mr Eazi) [Official Video]"]-->J9-Lwpgfd1E["Rudimental - Not Giving In ft. John Newman & Alex Clare [Official Video]"]
L08uxunfLi4["Rudimental & Major Lazer - Let Me Live (feat. Anne-Marie & Mr Eazi) [Official Video]"]-->Jti7CQkxHEM["THE TOP SEXIEST BLIND AUDITION || THE VOICE GLOBAL 2017 [HD]"]
L08uxunfLi4["Rudimental & Major Lazer - Let Me Live (feat. Anne-Marie & Mr Eazi) [Official Video]"]-->VYOjWnS4cMY["Childish Gambino - This Is America (Official Video)"]
L08uxunfLi4["Rudimental & Major Lazer - Let Me Live (feat. Anne-Marie & Mr Eazi) [Official Video]"]-->DkeiKbqa02g["Calvin Harris, Dua Lipa - One Kiss (Official Video)"]
L08uxunfLi4["Rudimental & Major Lazer - Let Me Live (feat. Anne-Marie & Mr Eazi) [Official Video]"]-->Sgp0WDMH88g["Major Lazer - Know No Better (feat. Travis Scott, Camila Cabello & Quavo)(Official Music Video)"]
L08uxunfLi4["Rudimental & Major Lazer - Let Me Live (feat. Anne-Marie & Mr Eazi) [Official Video]"]-->qJOcJSIBOnk["40 CLEVER GIRLS' HACKS EVERYONE SHOULD KNOW"]
L08uxunfLi4["Rudimental & Major Lazer - Let Me Live (feat. Anne-Marie & Mr Eazi) [Official Video]"]-->btrzs54s1Rc["Jonas Blue - Rise ft. Jack & Jack"]
start["Youtube homepage"]-->-5uebIQorsg["‘Fresh' Lasagne is Actually FROZEN then Microwaved! | Kitchen Nightmares"]
-5uebIQorsg["‘Fresh' Lasagne is Actually FROZEN then Microwaved! | Kitchen Nightmares"]-->uTihFldg2fM["Kitchen Nightmares US S02E08 Sabatiello's"]
-5uebIQorsg["‘Fresh' Lasagne is Actually FROZEN then Microwaved! | Kitchen Nightmares"]-->cY4GDgjYChg["Gordon Ramsay’s Hideous Lunch | Kitchen Nightmares"]
-5uebIQorsg["‘Fresh' Lasagne is Actually FROZEN then Microwaved! | Kitchen Nightmares"]-->shyCmvnpMZY["The ANGRIEST Owner Of All Time? | Kitchen Nightmares"]
-5uebIQorsg["‘Fresh' Lasagne is Actually FROZEN then Microwaved! | Kitchen Nightmares"]-->-u6l9WkkdZ0["Gordon is Served Risotto That's STUCK TO THE PLATE! | Kitchen Nightmares"]
-5uebIQorsg["‘Fresh' Lasagne is Actually FROZEN then Microwaved! | Kitchen Nightmares"]-->5rA95A3yH2c["Failing Restaurant Serves Everything Out Of Plastic Bags! | Kitchen Nightmares"]
-5uebIQorsg["‘Fresh' Lasagne is Actually FROZEN then Microwaved! | Kitchen Nightmares"]-->PgDxhR0IXxU["Chef Ramsay’s Criticisms Reduce Staff To Tears - Kitchen Nightmares"]
-5uebIQorsg["‘Fresh' Lasagne is Actually FROZEN then Microwaved! | Kitchen Nightmares"]-->mkpINSUnDpA["Ramsay Shuts Down Restaurant After Finding RAW Chicken Next to Cooked Chicken! | Kitchen Nightmares"]
-5uebIQorsg["‘Fresh' Lasagne is Actually FROZEN then Microwaved! | Kitchen Nightmares"]-->ET3CSjw_KoA["Chef Finds Hell at Greasy Greek Restaurant - Kitchen Nightmares"]
-5uebIQorsg["‘Fresh' Lasagne is Actually FROZEN then Microwaved! | Kitchen Nightmares"]-->Un8b0JDw0Bc["Owner CANNOT Handle Gordon's Criticism | Kitchen Nightmares"]
-5uebIQorsg["‘Fresh' Lasagne is Actually FROZEN then Microwaved! | Kitchen Nightmares"]-->Gz2jiVCakJY["Delusional Owners Can't Recognise Their OWN FOOD | Kitchen Nightmares"]
-5uebIQorsg["‘Fresh' Lasagne is Actually FROZEN then Microwaved! | Kitchen Nightmares"]-->vetECANafvs["No One Knows What 4 Cheeses Are In The 4 Cheese Ravioli | Kitchen Nightmares"]
-5uebIQorsg["‘Fresh' Lasagne is Actually FROZEN then Microwaved! | Kitchen Nightmares"]-->7aDnr65MnjQ["Lying Chef Threatens Gordon Ramsay - Kitchen Nightmares"]
-5uebIQorsg["‘Fresh' Lasagne is Actually FROZEN then Microwaved! | Kitchen Nightmares"]-->fHBe3XiS99Q["Honest Waiter Warns Ramsay of the Terrible Food | Kitchen Nightmares"]
-5uebIQorsg["‘Fresh' Lasagne is Actually FROZEN then Microwaved! | Kitchen Nightmares"]-->KcZJt6oO3xc["‘Steakhouse’ Only Has 2 Steaks on the Menu! | Kitchen Nightmares"]
-5uebIQorsg["‘Fresh' Lasagne is Actually FROZEN then Microwaved! | Kitchen Nightmares"]-->XVMxZMxkAgM["6 Times Gordon Ramsay Actually LIKED THE FOOD! | Kitchen Nightmares COMPILATION"]
-5uebIQorsg["‘Fresh' Lasagne is Actually FROZEN then Microwaved! | Kitchen Nightmares"]-->5MKymYAalkc["Is This The Most Disgusting Restaurant in Kitchen Nightmares History? | Kitchen Nightmares"]
-5uebIQorsg["‘Fresh' Lasagne is Actually FROZEN then Microwaved! | Kitchen Nightmares"]-->qc2XimizBpE["Tatiana Snaps At Waitress For Telling The Truth - Kitchen Nightmares"]
-5uebIQorsg["‘Fresh' Lasagne is Actually FROZEN then Microwaved! | Kitchen Nightmares"]-->2Zx1JnHOGCI["Gordon Served CHICKEN WRAPPED SHRIMP! | Kitchen Nightmares"]
-5uebIQorsg["‘Fresh' Lasagne is Actually FROZEN then Microwaved! | Kitchen Nightmares"]-->Iw1thP_pt8s["Customer Starts to CRY After Being Served Shambolic Burger! | Kitchen Nightmares"]
-5uebIQorsg["‘Fresh' Lasagne is Actually FROZEN then Microwaved! | Kitchen Nightmares"]-->Jh69gHXbS_w["Kitchen Nightmares US S02E08"]
start["Youtube homepage"]-->1AvFNXJiMy8["BEST NEWS BLOOPERS APRIL 2018"]
1AvFNXJiMy8["BEST NEWS BLOOPERS APRIL 2018"]-->tK2BXbzYm1Y["BEST NEWS BLOOPERS JUNE 2018"]
1AvFNXJiMy8["BEST NEWS BLOOPERS APRIL 2018"]-->yCYMBg4kkbs["TRY NOT TO LAUGH - Epic SUMMER WATER FAILS Compilation | Funny Vines June 2018"]
1AvFNXJiMy8["BEST NEWS BLOOPERS APRIL 2018"]-->bZge485w4Pw["The wild moments that took place on live TV"]
1AvFNXJiMy8["BEST NEWS BLOOPERS APRIL 2018"]-->vkM0HXTMqRw["3 Fights that Should be Seen by Every Fan of Boxing - Part 3"]
1AvFNXJiMy8["BEST NEWS BLOOPERS APRIL 2018"]-->Qg0KJCBw0nc["FAILS & BLOOPERS ON TV 🔴 Compilation 2016"]
1AvFNXJiMy8["BEST NEWS BLOOPERS APRIL 2018"]-->6Kj9PBGfuyE["Celebs Who Confronted Their Interviewer On Live TV"]
1AvFNXJiMy8["BEST NEWS BLOOPERS APRIL 2018"]-->DcdQcxr5KqM["Live TV Gone Wrong - Funniest Ever News Bloopers"]
1AvFNXJiMy8["BEST NEWS BLOOPERS APRIL 2018"]-->GWA9ume9D0w["INSTANT JUSTICE POLICE 2018 - Idiot Drivers vs Police #60"]
1AvFNXJiMy8["BEST NEWS BLOOPERS APRIL 2018"]-->LFiT6xlFr3c["75 RARE HISTORIAL IMAGES YOU HAVE TO SEE BEFORE YOU DIE"]
1AvFNXJiMy8["BEST NEWS BLOOPERS APRIL 2018"]-->svZyEA_qnzQ["10 Most OMG On Stage Moments The Crowd Wasn't Prepared For"]
1AvFNXJiMy8["BEST NEWS BLOOPERS APRIL 2018"]-->vyJF50DawM0["WHAT COULD GO WRONG BLOOPERS compilation fishing 2"]
1AvFNXJiMy8["BEST NEWS BLOOPERS APRIL 2018"]-->g3OHEK7e3Ps["21 Examples of Stupid People Doing Stupid Things"]
1AvFNXJiMy8["BEST NEWS BLOOPERS APRIL 2018"]-->1Ybqsis4A64["Ultimate Fails Compilation 2013 || Best Fails of the Year!"]
1AvFNXJiMy8["BEST NEWS BLOOPERS APRIL 2018"]-->gcfmlcf7_zY["Bloopers That Got These Reporters Fired"]
1AvFNXJiMy8["BEST NEWS BLOOPERS APRIL 2018"]-->BYfSL1QTVjg["Melhores LIKE A BOSS #5"]
1AvFNXJiMy8["BEST NEWS BLOOPERS APRIL 2018"]-->imHUmZeAaqQ["The Best Fails of All Time (So Far) || by FailArmy"]
1AvFNXJiMy8["BEST NEWS BLOOPERS APRIL 2018"]-->Cgx60e1FM-A["Best Animal News Bloopers"]
1AvFNXJiMy8["BEST NEWS BLOOPERS APRIL 2018"]-->Ub04ZqMRaaw["💋10 минут смеха до слез!"]
1AvFNXJiMy8["BEST NEWS BLOOPERS APRIL 2018"]-->urXw56px5og["Disqualifications In MMA"]
start["Youtube homepage"]-->cg_n6yChXhU["She Thinks Eminem Is Her Father... then Eminem walks out...!"]
cg_n6yChXhU["She Thinks Eminem Is Her Father... then Eminem walks out...!"]-->DJKMbyFXjgs["GIRL SAYS SHES PREG WITH BABY JESUS"]
cg_n6yChXhU["She Thinks Eminem Is Her Father... then Eminem walks out...!"]-->mDVw7k5xpHc["Top 10 Most Shocking Guests on Dr. Phil"]
cg_n6yChXhU["She Thinks Eminem Is Her Father... then Eminem walks out...!"]-->5TU-lm1TtWg["#TANAFORPRISON"]
cg_n6yChXhU["She Thinks Eminem Is Her Father... then Eminem walks out...!"]-->aMOrIoupvQA["R.I.P. VINE - BEST COMPILATION EVER"]
cg_n6yChXhU["She Thinks Eminem Is Her Father... then Eminem walks out...!"]-->v-Olc9_Imhs["YOU LAUGH YOU SAD"]
cg_n6yChXhU["She Thinks Eminem Is Her Father... then Eminem walks out...!"]-->LAjZSwa4DCQ["Dr. Phil Embarrasses Spoiled Rich Girl"]
cg_n6yChXhU["She Thinks Eminem Is Her Father... then Eminem walks out...!"]-->3NQ_EPw73_c["THIS GUY CAME OUT OF A 12-YEAR COMA AND WHAT HE TOLD AMAZED EVERYONE"]
cg_n6yChXhU["She Thinks Eminem Is Her Father... then Eminem walks out...!"]-->KoL7RgT73fY["HILARIOUSLY BAD DESIGN"]
cg_n6yChXhU["She Thinks Eminem Is Her Father... then Eminem walks out...!"]-->YGcWcsajSDQ["I Tried Escaping A SWAT Team"]
cg_n6yChXhU["She Thinks Eminem Is Her Father... then Eminem walks out...!"]-->RCVT8Vp6Dp0["YOUTUBER GOES ON DR PHIL."]
cg_n6yChXhU["She Thinks Eminem Is Her Father... then Eminem walks out...!"]-->jJI2qJmDLAQ["She's angry because I made fun of her..."]
cg_n6yChXhU["She Thinks Eminem Is Her Father... then Eminem walks out...!"]-->gA0bi-bFEYs["How KSI Saved Logan Paul's Career"]
cg_n6yChXhU["She Thinks Eminem Is Her Father... then Eminem walks out...!"]-->NVBVZ0zWJSo["🤔🤔🤔🤔🤔🤔🤔🤔🤔🤔🤔🤔🤔🤔Hmm 🤔🤔🤔🤔🤔🤔🤔🤔🤔🤔🤔🤔🤔🤔 /r/hmmm/ #8 [REDDIT REVIEW]"]
cg_n6yChXhU["She Thinks Eminem Is Her Father... then Eminem walks out...!"]-->hmRt1GgCqxg["YOU LAUGH, YOU DIE - YLYL #0020"]
cg_n6yChXhU["She Thinks Eminem Is Her Father... then Eminem walks out...!"]-->s2N12XJos-g["*DOUBLE* FAMAS BURST RIFLE Strategy - Fortnite Battle Royale"]
cg_n6yChXhU["She Thinks Eminem Is Her Father... then Eminem walks out...!"]-->Z8mteKF72-U["Top 10 Cringiest Dr. Phil Moments"]
cg_n6yChXhU["She Thinks Eminem Is Her Father... then Eminem walks out...!"]-->W3LWl7T0kNE["YOU LAUGH YOU DIE"]
cg_n6yChXhU["She Thinks Eminem Is Her Father... then Eminem walks out...!"]-->YfUBXG9RoPM["Breaking Down Logan Paul Tweets with Chris D'Elia"]
cg_n6yChXhU["She Thinks Eminem Is Her Father... then Eminem walks out...!"]-->a0S425nVBng["'I'm black' - Ft. Ricescum"]
cg_n6yChXhU["She Thinks Eminem Is Her Father... then Eminem walks out...!"]-->XlnuDApup0E["SCARE PEWDIEPIE Level 1 — Let's play doctor"]
start["Youtube homepage"]-->bJqmXGARs4s["I'm a Black Woman Slowly Turning White | This Morning"]
bJqmXGARs4s["I'm a Black Woman Slowly Turning White | This Morning"]-->0eplZ5Fc5r0["World's Most Identical Twins On Sharing A Boyfriend And A Bed | This Morning"]
bJqmXGARs4s["I'm a Black Woman Slowly Turning White | This Morning"]-->f8nN-KG0UtM["My Haunted Doll Attacked My Husband | This Morning"]
bJqmXGARs4s["I'm a Black Woman Slowly Turning White | This Morning"]-->RS6o-2XtbsE["I Won’t Hide My Vitiligo With Makeup | SHAKE MY BEAUTY"]
bJqmXGARs4s["I'm a Black Woman Slowly Turning White | This Morning"]-->za6nv-CK4xQ["Girl with vitiligo talks about Michael Jackson"]
bJqmXGARs4s["I'm a Black Woman Slowly Turning White | This Morning"]-->JOxTINtpytM["THE HAIRIEST GIRL IN THE WORLD. SHE SHAVED FOR A WEDDING - LOOK HOW SHE LOOKS LIKE!"]
bJqmXGARs4s["I'm a Black Woman Slowly Turning White | This Morning"]-->WSbUtrXsJzg["Extraordinary People With Extreme Cosmetic Surgery | This Morning"]
bJqmXGARs4s["I'm a Black Woman Slowly Turning White | This Morning"]-->Lz9OSmVuNHw["13 Unbelievable Coincidences That Will Leave You Confused"]
bJqmXGARs4s["I'm a Black Woman Slowly Turning White | This Morning"]-->T9C4ZZ8r17w["I Was Accused of Being a Paedophile While Taking My Daughter on Holiday | This Morning"]
bJqmXGARs4s["I'm a Black Woman Slowly Turning White | This Morning"]-->hSEMTPTdYqk["TWWS - Celebrity Look-a-Likes compilation (part 3)"]
bJqmXGARs4s["I'm a Black Woman Slowly Turning White | This Morning"]-->YoXhNOzVuLI["The 13-Year-Old Trapped in a Toddler's Body | This Morning"]
bJqmXGARs4s["I'm a Black Woman Slowly Turning White | This Morning"]-->oNiEBnOzgVw["Meet The Woman Who Learned That Her Mother Passed As White | Megyn Kelly TODAY"]
bJqmXGARs4s["I'm a Black Woman Slowly Turning White | This Morning"]-->xY_AW4IuK4c["Teen Lotto Winner Says She's Miserable as a Millionaire | This Morning"]
bJqmXGARs4s["I'm a Black Woman Slowly Turning White | This Morning"]-->u6-048-l_N8["'It Started Out Really Small... And It Gradually Spread' | Too Ugly For Love?"]
bJqmXGARs4s["I'm a Black Woman Slowly Turning White | This Morning"]-->crX8Zzr7tyU["Rich People Who Turned Themselves Into Plastic"]
bJqmXGARs4s["I'm a Black Woman Slowly Turning White | This Morning"]-->aKzkPPwu0wA["Extreme Real-Life Stories | This Morning"]
bJqmXGARs4s["I'm a Black Woman Slowly Turning White | This Morning"]-->d3M2kd_VmeM["‘I’m The Scary Transgender Person The Media Warned You About’ | MY TRANS LIFE"]
bJqmXGARs4s["I'm a Black Woman Slowly Turning White | This Morning"]-->lg-yYT9VXXM["The Undateables' James And Tammy On Looking For Love | This Morning"]
bJqmXGARs4s["I'm a Black Woman Slowly Turning White | This Morning"]-->vThhN68coQw["Darkskin Models Talk About Their Struggles In The Industry | Black Like Me"]
bJqmXGARs4s["I'm a Black Woman Slowly Turning White | This Morning"]-->6uay5p7fj1E["someone called me ugly, so this is what i did... - 2018 instagram transformation"]
bJqmXGARs4s["I'm a Black Woman Slowly Turning White | This Morning"]-->FayGQYszBJY["Kitchen.Nightmares.US.S06E11"]
start["Youtube homepage"]-->_o1iFmUtlo8["Having Sex Five Times a Day Wasn't Enough | This Morning"]
_o1iFmUtlo8["Having Sex Five Times a Day Wasn't Enough | This Morning"]-->1sWDCz5v1Vg["I Gave Up Men to Have Sex With Ghosts | This Morning"]
_o1iFmUtlo8["Having Sex Five Times a Day Wasn't Enough | This Morning"]-->KeGVpMPAwuw["My Girlfriend Tortured, Stabbed and Starved Me | This Morning"]
_o1iFmUtlo8["Having Sex Five Times a Day Wasn't Enough | This Morning"]-->YZ5gk7X1uTE["How Long Does Intercourse Normally Last?"]
_o1iFmUtlo8["Having Sex Five Times a Day Wasn't Enough | This Morning"]-->FAqf0sDkcz0["Most Violent Jail Inmates | A Hidden America: Inside Rikers Island PART 1/2"]
_o1iFmUtlo8["Having Sex Five Times a Day Wasn't Enough | This Morning"]-->bfJZu7bOAUg["دكتورة هبة قطب تشرح للمرأة كيف تمص لزوجها    للكبار فقط"]
_o1iFmUtlo8["Having Sex Five Times a Day Wasn't Enough | This Morning"]-->2ZyppB5xTn4["Selling sex: underage victims of sex tourists in the Dominican Republic | Unreported World"]
_o1iFmUtlo8["Having Sex Five Times a Day Wasn't Enough | This Morning"]-->tF556Wf4HfY["Top 10 Awkward Interviews on This Morning"]
_o1iFmUtlo8["Having Sex Five Times a Day Wasn't Enough | This Morning"]-->O4mUu2GaD3o["Farm Girl and the Washing Machine Repair Man pump issue"]
_o1iFmUtlo8["Having Sex Five Times a Day Wasn't Enough | This Morning"]-->0mQjcLj_u90["10 Most Expensive Escorts In The World"]
_o1iFmUtlo8["Having Sex Five Times a Day Wasn't Enough | This Morning"]-->9PSbgxtOeZo["Men Discuss Living With A 'Micro-Penis' | This Morning"]
_o1iFmUtlo8["Having Sex Five Times a Day Wasn't Enough | This Morning"]-->HznM0oRciy4["Amazing Couples You Will Never Believe Are REAL!"]
_o1iFmUtlo8["Having Sex Five Times a Day Wasn't Enough | This Morning"]-->gFrcR_pGPEc["My Husband Cheated on Me With Our Daughter's Friend | This Morning"]
_o1iFmUtlo8["Having Sex Five Times a Day Wasn't Enough | This Morning"]-->0trulxZ80Uk["Woman Performs Live Vagina Facials | This Morning"]
_o1iFmUtlo8["Having Sex Five Times a Day Wasn't Enough | This Morning"]-->NISKpzp_QAM["Identical Triplets Take a DNA Test Just To Discover The Worrying Truth"]
_o1iFmUtlo8["Having Sex Five Times a Day Wasn't Enough | This Morning"]-->op2XuNGLN60["I'm Terrified That My Bum Implants Will Explode | This Morning"]
_o1iFmUtlo8["Having Sex Five Times a Day Wasn't Enough | This Morning"]-->4LIZpwDW7RE["I Sleep With Men to Save Their Marriages | This Morning"]
_o1iFmUtlo8["Having Sex Five Times a Day Wasn't Enough | This Morning"]-->ISlHcyYZwx8["I Had 200 Procedures & 6 Ribs Removed to Look Like Wonder Woman | This Morning"]
_o1iFmUtlo8["Having Sex Five Times a Day Wasn't Enough | This Morning"]-->NBX9lmCn_IU["Ep630 A John is Busted Standing Outside His Truck Having Sex with a Hooker"]
_o1iFmUtlo8["Having Sex Five Times a Day Wasn't Enough | This Morning"]-->0eplZ5Fc5r0["World's Most Identical Twins On Sharing A Boyfriend And A Bed | This Morning"]
_o1iFmUtlo8["Having Sex Five Times a Day Wasn't Enough | This Morning"]-->LGELM0kQRq8["Swinging With Other Couples Keeps Our Marriage Alive | This Morning"]
start["Youtube homepage"]-->Nck6BZga7TQ["Adele Carpool Karaoke"]
Nck6BZga7TQ["Adele Carpool Karaoke"]-->ckdsJ-LaCvM["Ed Sheeran Carpool Karaoke"]
Nck6BZga7TQ["Adele Carpool Karaoke"]-->z9b6G2S6Jdc["TOP 4 GOLDEN BUZZER America's Got Talent 2018"]
Nck6BZga7TQ["Adele Carpool Karaoke"]-->QjvzCTqkBDQ["Paul McCartney Carpool Karaoke"]
Nck6BZga7TQ["Adele Carpool Karaoke"]-->KQMkWKmToEY["Top 25 Punches That Will Never Be Forgotten... Pt3"]
Nck6BZga7TQ["Adele Carpool Karaoke"]-->OHXjxWaQs9o["Adele at the BBC: When Adele wasn't Adele... but was Jenny!"]
Nck6BZga7TQ["Adele Carpool Karaoke"]-->pCjY3ZQY8WY["Spill Your Guts or Fill Your Guts w/ Gordon Ramsay"]
Nck6BZga7TQ["Adele Carpool Karaoke"]-->okJtI5mVaCM["Adele   60 Minutes Interview   Part 1"]
Nck6BZga7TQ["Adele Carpool Karaoke"]-->sottGW1p5os["P!nk Carpool Karaoke"]
Nck6BZga7TQ["Adele Carpool Karaoke"]-->5ndj6xn2P0c["Rod Stewart & A$AP Rocky Carpool Karaoke"]
Nck6BZga7TQ["Adele Carpool Karaoke"]-->MgxYkpNFhmc["Top 10 Best Moments Carpool Karaoke pt.2"]
Nck6BZga7TQ["Adele Carpool Karaoke"]-->cCPbEQ84hdQ["Pitch Perfect Riff-Off with Anna Kendrick & The Filharmonics"]
Nck6BZga7TQ["Adele Carpool Karaoke"]-->cfudXO_vzWk["Red Hot Chili Peppers Carpool Karaoke"]
Nck6BZga7TQ["Adele Carpool Karaoke"]-->Dx06c0ZEBMk["Justin Bieber Carpool Karaoke"]
Nck6BZga7TQ["Adele Carpool Karaoke"]-->qqrvm2XDvpQ["Stevie Wonder Carpool Karaoke"]
Nck6BZga7TQ["Adele Carpool Karaoke"]-->C1wFwtEMBJc["Kevin Hart & Ken Jeong Carpool Karaoke"]
Nck6BZga7TQ["Adele Carpool Karaoke"]-->X5Cfi7U4eL4["Lady Gaga Carpool Karaoke"]
Nck6BZga7TQ["Adele Carpool Karaoke"]-->VoupwkOJ4Uo["Top 10 Best James Corden Carpool Karaoke Performances"]
Nck6BZga7TQ["Adele Carpool Karaoke"]-->CZkUNPBlJIQ["Carpool Karaoke w/ Adam Levine"]
Nck6BZga7TQ["Adele Carpool Karaoke"]-->nblf7Yw4jys["Elton John Carpool Karaoke"]
start["Youtube homepage"]-->fP3IxeywIn4["Grandma Celebrates Killing Son-In-Law - Crime Watch Daily With Chris Hansen (Pt 1)"]
fP3IxeywIn4["Grandma Celebrates Killing Son-In-Law - Crime Watch Daily With Chris Hansen (Pt 1)"]-->2R8ojKBbNfA["Grandma Celebrates Killing Son-In-Law - Crime Watch Daily With Chris Hansen (Pt 2)"]
fP3IxeywIn4["Grandma Celebrates Killing Son-In-Law - Crime Watch Daily With Chris Hansen (Pt 1)"]-->dvtoL-dotR0["Pt. 4: Man Loses 4 Out of 6 Wives Under Strange Circumstances - Crime Watch Daily with Chris Hansen"]
fP3IxeywIn4["Grandma Celebrates Killing Son-In-Law - Crime Watch Daily With Chris Hansen (Pt 1)"]-->1mxyLjzvjo0["Top 5 Worst 911 Operators Ever!"]
fP3IxeywIn4["Grandma Celebrates Killing Son-In-Law - Crime Watch Daily With Chris Hansen (Pt 1)"]-->-8wt-3h1Hts["10 Courtroom Moments You Wouldn't Believe If They Weren't Recorded!"]
fP3IxeywIn4["Grandma Celebrates Killing Son-In-Law - Crime Watch Daily With Chris Hansen (Pt 1)"]-->jeKBL9yOdjc["Hansen vs. Predator: Chris Hansen catches a plumber on the prowl - Crime Watch Daily"]
fP3IxeywIn4["Grandma Celebrates Killing Son-In-Law - Crime Watch Daily With Chris Hansen (Pt 1)"]-->YCAL8BlvDZ8["The Slow Train of Meth"]
fP3IxeywIn4["Grandma Celebrates Killing Son-In-Law - Crime Watch Daily With Chris Hansen (Pt 1)"]-->dZLeu8PusjA["5 Missing People Who Eventually Turned up Alive #3"]
fP3IxeywIn4["Grandma Celebrates Killing Son-In-Law - Crime Watch Daily With Chris Hansen (Pt 1)"]-->tO0FtsjqLPY["Texas dad sets up, then confronts daughters abuser (Pt 1) - Crime Watch Daily"]
fP3IxeywIn4["Grandma Celebrates Killing Son-In-Law - Crime Watch Daily With Chris Hansen (Pt 1)"]-->kYOaxL15pOc["5 Times People Deserved What They Got - Instant Karma"]
fP3IxeywIn4["Grandma Celebrates Killing Son-In-Law - Crime Watch Daily With Chris Hansen (Pt 1)"]-->aX239ONKrp8["‘House of Horrors’ Survivor Speaks Out (Part 1) – Crime Watch Daily with Chris Hansen"]
fP3IxeywIn4["Grandma Celebrates Killing Son-In-Law - Crime Watch Daily With Chris Hansen (Pt 1)"]-->LJshpZYJod0["The Murder of Noreen Kumeta Rudd"]
fP3IxeywIn4["Grandma Celebrates Killing Son-In-Law - Crime Watch Daily With Chris Hansen (Pt 1)"]-->AvEaHNnaqqc["TOP 10 Teens Who Will Grow Up In Prison"]
fP3IxeywIn4["Grandma Celebrates Killing Son-In-Law - Crime Watch Daily With Chris Hansen (Pt 1)"]-->usUxB4NUOkA["Daughter Recounts Mother Running Over Father With Car in Terrified 911 Call - Crime Watch Daily"]
fP3IxeywIn4["Grandma Celebrates Killing Son-In-Law - Crime Watch Daily With Chris Hansen (Pt 1)"]-->C7CplVjTJcI["Lovesick Teen Shoots Up House Party In Act Of Revenge - Crime Watch Daily With Chris Hansen"]
fP3IxeywIn4["Grandma Celebrates Killing Son-In-Law - Crime Watch Daily With Chris Hansen (Pt 1)"]-->P8t_weHgrJw["Man calmly tells 911: 'I murdered my wife'"]
fP3IxeywIn4["Grandma Celebrates Killing Son-In-Law - Crime Watch Daily With Chris Hansen (Pt 1)"]-->kIeO-pjIKl8["Woman Stages Home Invasion to Enact Revenge Against Parents- Crime Watch Daily (Pt 1)"]
fP3IxeywIn4["Grandma Celebrates Killing Son-In-Law - Crime Watch Daily With Chris Hansen (Pt 1)"]-->CMAsMX9epQQ["Texas dad sets up, then  confronts daughters abuser (Pt 2) - Crime Watch Daily"]
fP3IxeywIn4["Grandma Celebrates Killing Son-In-Law - Crime Watch Daily With Chris Hansen (Pt 1)"]-->aCq0hd2m8pI["Pictures of Couple's Deceased Baby Stolen, Posted Online - Crime Watch Daily with CHris Hansen"]
fP3IxeywIn4["Grandma Celebrates Killing Son-In-Law - Crime Watch Daily With Chris Hansen (Pt 1)"]-->zu0dV2dFw7M["'Ring Video Doorbell' Helps Bust Gang Member in Home Burglary - Crime Watch Daily"]
fP3IxeywIn4["Grandma Celebrates Killing Son-In-Law - Crime Watch Daily With Chris Hansen (Pt 1)"]-->49FzWPGnIss["18-Year-Old Discovers She Was Kidnapped At Birth - Crime Watch Daily"]
start["Youtube homepage"]-->qMBeKMm0oxA["Controlling Man Makes His Girlfriend Kiss His Feet | Jeremy Kyle USA"]
qMBeKMm0oxA["Controlling Man Makes His Girlfriend Kiss His Feet | Jeremy Kyle USA"]-->CZT-1_BNtfs["An Enraged Jeremy Kicks an Abusive Guest Off His Stage | Jeremy Kyle USA"]
qMBeKMm0oxA["Controlling Man Makes His Girlfriend Kiss His Feet | Jeremy Kyle USA"]-->dyW7yB9FDHs["Rudest, Most Offensive Guests Ever 2 | The Jeremy Kyle Show"]
qMBeKMm0oxA["Controlling Man Makes His Girlfriend Kiss His Feet | Jeremy Kyle USA"]-->mmY3qhlCshY["The Iceman Tapes   Richard Kuklinski Inside the Mind of A Mafia Hitman"]
qMBeKMm0oxA["Controlling Man Makes His Girlfriend Kiss His Feet | Jeremy Kyle USA"]-->5YgI1f8EftU["Lie Detector Test Reveals Horrible Truth | The Jeremy Kyle Show"]
qMBeKMm0oxA["Controlling Man Makes His Girlfriend Kiss His Feet | Jeremy Kyle USA"]-->uvlhfzxIjrA["Father Sees His Child With Bruises On Her Arm | Jeremy Kyle USA"]
qMBeKMm0oxA["Controlling Man Makes His Girlfriend Kiss His Feet | Jeremy Kyle USA"]-->ies1vlZKP38["*NEW* PUBLIC FREAKOUTS & CRINGE INTERACTIONS #92"]
qMBeKMm0oxA["Controlling Man Makes His Girlfriend Kiss His Feet | Jeremy Kyle USA"]-->84By07VKfxg["'Sex-Obsessed' Boyfriend Uses a Rubber Vagina When Depressed | The Jeremy Kyle Show"]
qMBeKMm0oxA["Controlling Man Makes His Girlfriend Kiss His Feet | Jeremy Kyle USA"]-->mhFrRf4hCWI["Ant & Dec's Undercover Prank On The Jeremy Kyle Show - Saturday Night Takeaway"]
qMBeKMm0oxA["Controlling Man Makes His Girlfriend Kiss His Feet | Jeremy Kyle USA"]-->wPps7jnsznU["Drug Addict Threatens to Knock Out Jeremy | Jeremy Kyle"]
qMBeKMm0oxA["Controlling Man Makes His Girlfriend Kiss His Feet | Jeremy Kyle USA"]-->nQaKyX00Bxw["Strangest, Most Bizarre Guests Ever! | The Jeremy Kyle Show"]
qMBeKMm0oxA["Controlling Man Makes His Girlfriend Kiss His Feet | Jeremy Kyle USA"]-->zSDqK5Ejg6g["Emotional Sisters Struggle With Shocking DNA Results | The Jeremy Kyle Show"]
qMBeKMm0oxA["Controlling Man Makes His Girlfriend Kiss His Feet | Jeremy Kyle USA"]-->N0ykFOqI7pc["Outrageous, Cheating Wife Orders Her Husband to Stay With Her  | Jeremy Kyle USA"]
qMBeKMm0oxA["Controlling Man Makes His Girlfriend Kiss His Feet | Jeremy Kyle USA"]-->9IoqS3rqbj4["Man Dumps Pregnant 16-Year-Old In the Cruelest Way Possible | The Jeremy Kyle Show"]
qMBeKMm0oxA["Controlling Man Makes His Girlfriend Kiss His Feet | Jeremy Kyle USA"]-->zEvMQZremFo["Rudest Auditions...EVER? | X Factor, Got Talent & Idols | Crazy Talents"]
qMBeKMm0oxA["Controlling Man Makes His Girlfriend Kiss His Feet | Jeremy Kyle USA"]-->pUVaGG22FoU["Angry Thug Takes on Security Steve | The Jeremy Kyle Show"]
qMBeKMm0oxA["Controlling Man Makes His Girlfriend Kiss His Feet | Jeremy Kyle USA"]-->apBlPL24PRk["Jeremy Encounters One of His Most Aggressive Guests Ever | The Jeremy Kyle Show"]
qMBeKMm0oxA["Controlling Man Makes His Girlfriend Kiss His Feet | Jeremy Kyle USA"]-->3_yJk3sZ_iE["'Disgusting' Grinning Mother BODY SHAMES Her Own Daughter | Jeremy Kyle USA"]
qMBeKMm0oxA["Controlling Man Makes His Girlfriend Kiss His Feet | Jeremy Kyle USA"]-->iQkKCvbB6_8["Man Described Another Woman's Vagina to His Girlfriend | The Jeremy Kyle Show"]
qMBeKMm0oxA["Controlling Man Makes His Girlfriend Kiss His Feet | Jeremy Kyle USA"]-->MHCrbD-FCRY["Abusive Father Is Dragged Off Stage Laughing | Jeremy Kyle USA"]
qMBeKMm0oxA["Controlling Man Makes His Girlfriend Kiss His Feet | Jeremy Kyle USA"]-->aVtSfQ_3iHw["Viral Lie Detectors Special Compilation! | The Jeremy Kyle Show"]
start["Youtube homepage"]-->AqokkXoa7uE["Holly and Phillip Meet Samantha the Sex Robot | This Morning"]
AqokkXoa7uE["Holly and Phillip Meet Samantha the Sex Robot | This Morning"]-->wSEjoYHxlOY["6 Developing Female Robots With Artificial Intelligence Will Be Your Partner or Assistant In Future."]
AqokkXoa7uE["Holly and Phillip Meet Samantha the Sex Robot | This Morning"]-->TUzlmWWdjEQ["UK's Scariest Debt Collector (Full Length)"]
AqokkXoa7uE["Holly and Phillip Meet Samantha the Sex Robot | This Morning"]-->1sWDCz5v1Vg["I Gave Up Men to Have Sex With Ghosts | This Morning"]
AqokkXoa7uE["Holly and Phillip Meet Samantha the Sex Robot | This Morning"]-->2eVR0i5YAv0["6 Scariest Things Said by A.I. Robots"]
AqokkXoa7uE["Holly and Phillip Meet Samantha the Sex Robot | This Morning"]-->ipz5h6kO7Jc["10 Famous Child Celebs Who Ruined Their Careers"]
AqokkXoa7uE["Holly and Phillip Meet Samantha the Sex Robot | This Morning"]-->KeGVpMPAwuw["My Girlfriend Tortured, Stabbed and Starved Me | This Morning"]
AqokkXoa7uE["Holly and Phillip Meet Samantha the Sex Robot | This Morning"]-->DcdQcxr5KqM["Live TV Gone Wrong - Funniest Ever News Bloopers"]
AqokkXoa7uE["Holly and Phillip Meet Samantha the Sex Robot | This Morning"]-->gFrcR_pGPEc["My Husband Cheated on Me With Our Daughter's Friend | This Morning"]
AqokkXoa7uE["Holly and Phillip Meet Samantha the Sex Robot | This Morning"]-->bZge485w4Pw["The wild moments that took place on live TV"]
AqokkXoa7uE["Holly and Phillip Meet Samantha the Sex Robot | This Morning"]-->NISKpzp_QAM["Identical Triplets Take a DNA Test Just To Discover The Worrying Truth"]
AqokkXoa7uE["Holly and Phillip Meet Samantha the Sex Robot | This Morning"]-->1xq5jm0-xQc["Babysitter Hears Noise Upstairs, So Dad Checks Hidden Camera And Captures A Nightmare In His Kitchen"]
AqokkXoa7uE["Holly and Phillip Meet Samantha the Sex Robot | This Morning"]-->JtiDZqlH4Kk["THIS MORNING - Phil, Fern, Holly and Gino's funniest moments!"]
AqokkXoa7uE["Holly and Phillip Meet Samantha the Sex Robot | This Morning"]-->05YuF73FRG8["When will it be accepted to be Muslim and gay?"]
AqokkXoa7uE["Holly and Phillip Meet Samantha the Sex Robot | This Morning"]-->YwrzSq3mP1Q["Instant Karma - TIME OF JUSTICE"]
AqokkXoa7uE["Holly and Phillip Meet Samantha the Sex Robot | This Morning"]-->hT6lY31kDkE["The Most Beautiful Wives And Exes Of The World's Richest Men"]
AqokkXoa7uE["Holly and Phillip Meet Samantha the Sex Robot | This Morning"]-->9PSbgxtOeZo["Men Discuss Living With A 'Micro-Penis' | This Morning"]
AqokkXoa7uE["Holly and Phillip Meet Samantha the Sex Robot | This Morning"]-->6mHTNmRpysg["Selling Sex For £4 In Liverpool | Sex Map Of Britain"]
AqokkXoa7uE["Holly and Phillip Meet Samantha the Sex Robot | This Morning"]-->ONwxR5wzBXQ["10 Dark Secrets About Kate Middleton And Prince William's Relationship"]
AqokkXoa7uE["Holly and Phillip Meet Samantha the Sex Robot | This Morning"]-->ISlHcyYZwx8["I Had 200 Procedures & 6 Ribs Removed to Look Like Wonder Woman | This Morning"]
AqokkXoa7uE["Holly and Phillip Meet Samantha the Sex Robot | This Morning"]-->T9C4ZZ8r17w["I Was Accused of Being a Paedophile While Taking My Daughter on Holiday | This Morning"]
start["Youtube homepage"]-->MknJkRGErwY["The rarest funniest 'Two Ronnies' Sketch ever made: 'Tickle your botty with a feather tonight''"]
MknJkRGErwY["The rarest funniest 'Two Ronnies' Sketch ever made: 'Tickle your botty with a feather tonight''"]-->q856uDZEhgM["The Two Ronnies - Colditz"]
MknJkRGErwY["The rarest funniest 'Two Ronnies' Sketch ever made: 'Tickle your botty with a feather tonight''"]-->HLK1rt3v5cI["Live & Rampant! Les Patterson has a Stand Up"]
MknJkRGErwY["The rarest funniest 'Two Ronnies' Sketch ever made: 'Tickle your botty with a feather tonight''"]-->0SZ_lthNI7c["BAD DAY ? Better Watch this.. 😜😂 2.0"]
MknJkRGErwY["The rarest funniest 'Two Ronnies' Sketch ever made: 'Tickle your botty with a feather tonight''"]-->d9RbYkwj8Wc["The Two Ronnies - 'Your Nuts, Milord' 'Fork 'Andles' & 'Squash' - three CLASSICS!"]
MknJkRGErwY["The rarest funniest 'Two Ronnies' Sketch ever made: 'Tickle your botty with a feather tonight''"]-->sOW1gMGmNSY["The Best of Not the Nine O'Clock News (Vol 2)"]
MknJkRGErwY["The rarest funniest 'Two Ronnies' Sketch ever made: 'Tickle your botty with a feather tonight''"]-->OeURt5VTJJY["My name is Trinity (1970) - This one is new to me, I've never beaten him before... (HD)"]
MknJkRGErwY["The rarest funniest 'Two Ronnies' Sketch ever made: 'Tickle your botty with a feather tonight''"]-->HEjdJszBbY8["Eric and Ernie: Mastermind"]
MknJkRGErwY["The rarest funniest 'Two Ronnies' Sketch ever made: 'Tickle your botty with a feather tonight''"]-->bp8aTvVqE7I["An Audience with Alf Garnett"]
MknJkRGErwY["The rarest funniest 'Two Ronnies' Sketch ever made: 'Tickle your botty with a feather tonight''"]-->ZLtFC_Pc00Y["Mock The Week's Scenes We'd Like to See (Series 15 Cut)"]
MknJkRGErwY["The rarest funniest 'Two Ronnies' Sketch ever made: 'Tickle your botty with a feather tonight''"]-->ezUZqPSjd-4["Dave Allen special. (1985)"]
MknJkRGErwY["The rarest funniest 'Two Ronnies' Sketch ever made: 'Tickle your botty with a feather tonight''"]-->tDSM7AKfVJg["Best Pink Panther Scene"]
MknJkRGErwY["The rarest funniest 'Two Ronnies' Sketch ever made: 'Tickle your botty with a feather tonight''"]-->wYtlFoe-biY["Life before the Flying Circus"]
MknJkRGErwY["The rarest funniest 'Two Ronnies' Sketch ever made: 'Tickle your botty with a feather tonight''"]-->1CS1cUIxBVg["Al Murray on nations"]
MknJkRGErwY["The rarest funniest 'Two Ronnies' Sketch ever made: 'Tickle your botty with a feather tonight''"]-->_5RDo-kqN4k["Robin Williams DESTROYING Interviews"]
MknJkRGErwY["The rarest funniest 'Two Ronnies' Sketch ever made: 'Tickle your botty with a feather tonight''"]-->SbOtiggTSNg["2 Ronnies Pub and Wallpaper Sketches irish pub"]
MknJkRGErwY["The rarest funniest 'Two Ronnies' Sketch ever made: 'Tickle your botty with a feather tonight''"]-->pj0_Ps5c08I["Two Ronnies Racing Duck"]
MknJkRGErwY["The rarest funniest 'Two Ronnies' Sketch ever made: 'Tickle your botty with a feather tonight''"]-->e2QgRnHCpdY["An Audience with Jim Davidson (xposed)"]
MknJkRGErwY["The rarest funniest 'Two Ronnies' Sketch ever made: 'Tickle your botty with a feather tonight''"]-->-BaZ7trMJzE["Actors We Lost In 2018 So Far"]
MknJkRGErwY["The rarest funniest 'Two Ronnies' Sketch ever made: 'Tickle your botty with a feather tonight''"]-->5telYPUNxWg["Tough Guy Scenes"]
start["Youtube homepage"]-->eAEAYHdC9HA["Love Island's Adam Has Already Met Zara's Parents! | This Morning"]
eAEAYHdC9HA["Love Island's Adam Has Already Met Zara's Parents! | This Morning"]-->eHkxemGm6Ys["Love Island's Dani and Jack - Does Dani Dyer's Mum Approve? | This Morning"]
eAEAYHdC9HA["Love Island's Adam Has Already Met Zara's Parents! | This Morning"]-->KeGVpMPAwuw["My Girlfriend Tortured, Stabbed and Starved Me | This Morning"]
eAEAYHdC9HA["Love Island's Adam Has Already Met Zara's Parents! | This Morning"]-->ZC7dShh8iJo["Eyal & Tyla talk Love Island, Megan's antics & Reshooting Scenes 👀 | KISS Breakfast"]
eAEAYHdC9HA["Love Island's Adam Has Already Met Zara's Parents! | This Morning"]-->jW9V-Sb8H1E["Educating Yorkshire - Episode 6 - Documentary"]
eAEAYHdC9HA["Love Island's Adam Has Already Met Zara's Parents! | This Morning"]-->5L2P69EHn2w["Does Pierce Brosnan Accidentally Drop a Mamma Mia 2 Spoiler? | This Morning"]
eAEAYHdC9HA["Love Island's Adam Has Already Met Zara's Parents! | This Morning"]-->0yDheF-Y0xI["Adam Explains Why He Didn't Leave the Villa With Zara | Love Island 2018"]
eAEAYHdC9HA["Love Island's Adam Has Already Met Zara's Parents! | This Morning"]-->CdaluY86zHY["We got a body language expert to analyse Love Island - Episode 5 | Metro.co.uk"]
eAEAYHdC9HA["Love Island's Adam Has Already Met Zara's Parents! | This Morning"]-->fzZoNTe0vjI["Should You Sunbathe Naked In Your Own Garden? | This Morning"]
eAEAYHdC9HA["Love Island's Adam Has Already Met Zara's Parents! | This Morning"]-->GuOJpikr5hQ["A Mother's Love (Cancer Hoax Documentary) - Real Stories"]
eAEAYHdC9HA["Love Island's Adam Has Already Met Zara's Parents! | This Morning"]-->Zkgs3ib0n3I["Love Island 2018 Season 4 Ep 1 |  First Coupling | Part 1"]
eAEAYHdC9HA["Love Island's Adam Has Already Met Zara's Parents! | This Morning"]-->dh86cEwU_os["Ex-Islanders Ellie and Darylle Are Thinking About Getting Love Island Tattoos! | Lorraine"]
eAEAYHdC9HA["Love Island's Adam Has Already Met Zara's Parents! | This Morning"]-->q2h6ZCzZa2E["Phillip Schofield's Scorching 'One Chip Challenge' | This Morning"]
eAEAYHdC9HA["Love Island's Adam Has Already Met Zara's Parents! | This Morning"]-->2evpnSti2p4["What Are the Love Islanders Secretly Saying With Their Body Language? | This Morning"]
eAEAYHdC9HA["Love Island's Adam Has Already Met Zara's Parents! | This Morning"]-->QwLuM-iSqAg["Snog, Marry, Pie Causes Trouble in Paradise | Love Island 2018"]
eAEAYHdC9HA["Love Island's Adam Has Already Met Zara's Parents! | This Morning"]-->V5vfD9ZV70Y["Fox News Live HD - Fox and Friends"]
eAEAYHdC9HA["Love Island's Adam Has Already Met Zara's Parents! | This Morning"]-->zR929a-Jy5A["Dani and Jack: The Love Story So Far | Love Island 2018"]
eAEAYHdC9HA["Love Island's Adam Has Already Met Zara's Parents! | This Morning"]-->EYpRtjH2j30["The Challenge of Becoming Rio Ferdinand’s Kids’ New Step Mum | This Morning"]
eAEAYHdC9HA["Love Island's Adam Has Already Met Zara's Parents! | This Morning"]-->0Z41xYeZAhs["Joey  Essex on Celebrity Juice"]
eAEAYHdC9HA["Love Island's Adam Has Already Met Zara's Parents! | This Morning"]-->oUqdULCwOWM["Wes's Mates Weigh in on His Relationship With Megan | Love Island Aftersun 2018"]
eAEAYHdC9HA["Love Island's Adam Has Already Met Zara's Parents! | This Morning"]-->op2XuNGLN60["I'm Terrified That My Bum Implants Will Explode | This Morning"]
start["Youtube homepage"]-->zaHNgs-zrNE["Justin Bieber Engaged"]
zaHNgs-zrNE["Justin Bieber Engaged"]-->1hILm5bvQTo["Ariana Grande’s Family is Not Amused"]
zaHNgs-zrNE["Justin Bieber Engaged"]-->Wknpx7Up8Cg["Lindsay Lohan Weighing Return to Reality TV"]
zaHNgs-zrNE["Justin Bieber Engaged"]-->7y1xJAVZxXg["Televangelists: Last Week Tonight with John Oliver (HBO)"]
zaHNgs-zrNE["Justin Bieber Engaged"]-->QvjszSWLuA0["Donny Deutsch's Date with Trump's Ex-Wife"]
zaHNgs-zrNE["Justin Bieber Engaged"]-->WESKKZf-A-0["The Best Ask Wendy Moments"]
zaHNgs-zrNE["Justin Bieber Engaged"]-->Samn48Uc_J4["Selena Gomez REACTS to Justin Bieber Engagement - Justin Bieber PROPOSES to Hailey Baldwin (DHR)"]
zaHNgs-zrNE["Justin Bieber Engaged"]-->iihSHewHCzE["One Night Stand"]
zaHNgs-zrNE["Justin Bieber Engaged"]-->tStY7VHr5OQ["JOINING THE ILLUMINATI"]
zaHNgs-zrNE["Justin Bieber Engaged"]-->9kW3pr9BaHk["'Finding Lucy' | Lucille Ball Documentary (PBS)"]
zaHNgs-zrNE["Justin Bieber Engaged"]-->ipLgIuJlJSc["Adrienne Houghton’s 3 Favorite Bun Hairstyles | All Things Adrienne"]
zaHNgs-zrNE["Justin Bieber Engaged"]-->raymwkMf04g["Khloe Kardashian's $2 million Wedding"]
zaHNgs-zrNE["Justin Bieber Engaged"]-->SV27UZbTtZ8["Unforgettable Meal - ASHANTI FOOD in Kumasi, Ghana | Ultimate West African Food Tour!"]
zaHNgs-zrNE["Justin Bieber Engaged"]-->hm1Io1n6TY0["Life with latoya full episode(1)"]
zaHNgs-zrNE["Justin Bieber Engaged"]-->tMLySBrVyz8["Kanye West: 'Slavery Was a Choice'"]
zaHNgs-zrNE["Justin Bieber Engaged"]-->Lzt0YW-itOg["Q&A with Kylie and Jordyn"]
zaHNgs-zrNE["Justin Bieber Engaged"]-->JgtL4S6jLbI["Ciara Taking Future to Court"]
zaHNgs-zrNE["Justin Bieber Engaged"]-->QXW3Oa4bwmM["Kylie Jenner REMOVES Lips! Selena Gomez REACTS To Justin Bieber’s Engagement! | DR"]
zaHNgs-zrNE["Justin Bieber Engaged"]-->K_MHJLfpdX8["Sabrina The Teenage Witch Reunion"]
zaHNgs-zrNE["Justin Bieber Engaged"]-->B1YO1yX1J1k["'The View' Co-hosts Share What They Did On Vacation | The View"]
zaHNgs-zrNE["Justin Bieber Engaged"]-->Sc2LtHeguuU["Wendy Williams' Shadiest/Diva Moments"]
start["Youtube homepage"]-->zgiojA4S6jU["Americans Try Extremely British Snacks"]
zgiojA4S6jU["Americans Try Extremely British Snacks"]-->N06g2kc1Dxo["The Try Guys Take An Ancestry DNA Test"]
zgiojA4S6jU["Americans Try Extremely British Snacks"]-->yHnBV3lHMg8["American Teens Try British Chocolates"]
zgiojA4S6jU["Americans Try Extremely British Snacks"]-->RPK0F_LK1Mo["People Try Weird American Food That Shouldn’t Exist"]
zgiojA4S6jU["Americans Try Extremely British Snacks"]-->-6rP8FO_Vwc["We Eat Like Donald Trump For A Day"]
zgiojA4S6jU["Americans Try Extremely British Snacks"]-->5OEehlggPp0["US / UK / Aussie English Vocabulary Differences [KoreanBilly’s English]"]
zgiojA4S6jU["Americans Try Extremely British Snacks"]-->A0t26w1zXiQ["Americans Try Bizarre European Food"]
zgiojA4S6jU["Americans Try Extremely British Snacks"]-->QxhlECJytWo["The Try Guys Take A Lie Detector Test"]
zgiojA4S6jU["Americans Try Extremely British Snacks"]-->aprQztnvmAM["Americans Try Russian Drinks"]
zgiojA4S6jU["Americans Try Extremely British Snacks"]-->BLvbtXzGI48["The Try Guys Throw A $300,000 Bachelor Party"]
zgiojA4S6jU["Americans Try Extremely British Snacks"]-->3Qyf8KKWRZc["High People Try '90s Snacks"]
zgiojA4S6jU["Americans Try Extremely British Snacks"]-->V4Uuxg6jmbo["The Try Guys Bake Bread Without A Recipe"]
zgiojA4S6jU["Americans Try Extremely British Snacks"]-->xm63aVNwvao["The Try Guys Test Who Is The Most Attractive"]
zgiojA4S6jU["Americans Try Extremely British Snacks"]-->LnJTDCE9-jY["Dudes Do Pinterest Summer Fruit Hacks"]
zgiojA4S6jU["Americans Try Extremely British Snacks"]-->Daf1WmJJh4k["People Try Bizarre Food Combinations That Oddly Work"]
zgiojA4S6jU["Americans Try Extremely British Snacks"]-->dLNTb2zfh3Q["The Try Guys Get Photoshopped With Men's Ideal Body Types"]
zgiojA4S6jU["Americans Try Extremely British Snacks"]-->8EXYqzKUOQM["Australians Taste Test American Snacks"]
zgiojA4S6jU["Americans Try Extremely British Snacks"]-->jATdqhYhWU0["The Try Guys Try Not To Die Alone"]
zgiojA4S6jU["Americans Try Extremely British Snacks"]-->9b69bxIaN9o["The Try Guys Go Bald"]
zgiojA4S6jU["Americans Try Extremely British Snacks"]-->8GmMLB5EFHY["TEENS EAT BRITISH SNACKS! (Jaffa Cakes, Sherbet Fountain, Monster Munch) | Teens Vs. Food"]
start["Youtube homepage"]-->1JxL7qaDk9w["Police Try Playing Grand Theft Auto 5 Without Breaking Any Laws"]
1JxL7qaDk9w["Police Try Playing Grand Theft Auto 5 Without Breaking Any Laws"]-->xtsLwr9Ok7s["We Try Playing Grand Theft Auto 5 Without Breaking Any Laws • Episode 1"]
1JxL7qaDk9w["Police Try Playing Grand Theft Auto 5 Without Breaking Any Laws"]-->3kgiCDfhAAY["GTA 5 | Can you JUMP OVER the ALAMO SEA?"]
1JxL7qaDk9w["Police Try Playing Grand Theft Auto 5 Without Breaking Any Laws"]-->r2ugixha-BQ["Acts With Attitude: 5 Angriest Contestants on Got Talent"]
1JxL7qaDk9w["Police Try Playing Grand Theft Auto 5 Without Breaking Any Laws"]-->-mgqMpWKEBk["Keith Eats Everything At Taco Bell"]
1JxL7qaDk9w["Police Try Playing Grand Theft Auto 5 Without Breaking Any Laws"]-->LuWO6-ELwy8["Free Kicks From FIFA 94 to 18"]
1JxL7qaDk9w["Police Try Playing Grand Theft Auto 5 Without Breaking Any Laws"]-->nqlldpGVR4g["TOP 200 BEST GTA 5 FAILS EVER! (Funny Moments Grand Theft Auto V Compilation)"]
1JxL7qaDk9w["Police Try Playing Grand Theft Auto 5 Without Breaking Any Laws"]-->lIazNDglx-8["We Try To Survive The Purge in Grand Theft Auto 5 • Episode 3"]
1JxL7qaDk9w["Police Try Playing Grand Theft Auto 5 Without Breaking Any Laws"]-->1VLnL5GWuTs["Invisible Ghillie Sniper vs Airsoft Cheater (BUSTED)"]
1JxL7qaDk9w["Police Try Playing Grand Theft Auto 5 Without Breaking Any Laws"]-->lHvc3gMaj7Q["The Story of Billy the Kid (in a Fridge) - Fallout 4 Lore"]
1JxL7qaDk9w["Police Try Playing Grand Theft Auto 5 Without Breaking Any Laws"]-->1Za8BtLgKv8["Ice Cube, Kevin Hart And Conan Help A Student Driver  - CONAN on TBS"]
1JxL7qaDk9w["Police Try Playing Grand Theft Auto 5 Without Breaking Any Laws"]-->xfM1RfGF710["Real Private Investigators Solve A Case In L.A. Noire"]
1JxL7qaDk9w["Police Try Playing Grand Theft Auto 5 Without Breaking Any Laws"]-->U-ZmC2h7CRY["clean vines i can show my friends at church"]
1JxL7qaDk9w["Police Try Playing Grand Theft Auto 5 Without Breaking Any Laws"]-->NcEbZ_vexA8["How Avengers Infinity War Should Have Ended"]
1JxL7qaDk9w["Police Try Playing Grand Theft Auto 5 Without Breaking Any Laws"]-->JNrORiTzpm8["Flight Attendants Reveal Secrets About Flying"]
1JxL7qaDk9w["Police Try Playing Grand Theft Auto 5 Without Breaking Any Laws"]-->r0GMwLBXTmg["I Tried Escaping A Special Operations Sniper"]
1JxL7qaDk9w["Police Try Playing Grand Theft Auto 5 Without Breaking Any Laws"]-->jSKo0keqKr0["We Try To Escape 5 Stars In Grand Theft Auto 5  • Episode 2"]
1JxL7qaDk9w["Police Try Playing Grand Theft Auto 5 Without Breaking Any Laws"]-->YlaWGd1cUms["Tape Face Auditions & Performances | America's Got Talent 2016 Finalist"]
1JxL7qaDk9w["Police Try Playing Grand Theft Auto 5 Without Breaking Any Laws"]-->vabgE_bg8LU["TOP 100 FUNNIEST FAILS IN GTA 5"]
1JxL7qaDk9w["Police Try Playing Grand Theft Auto 5 Without Breaking Any Laws"]-->6-qxYXVK6oM["GENERATIONS REACT TO TRY NOT TO SING ALONG CHALLENGE (Favorite Songs Game!)"]
1JxL7qaDk9w["Police Try Playing Grand Theft Auto 5 Without Breaking Any Laws"]-->-5G7-S349Hk["I Think My Dad Is A Russian Spy"]
start["Youtube homepage"]-->RBgC5b4TIAk["I Asked My Mom 11 Intimate Questions Before It's Too Late"]
RBgC5b4TIAk["I Asked My Mom 11 Intimate Questions Before It's Too Late"]-->2ZR_vMU8db8["Asian Americans Take A DNA Test"]
RBgC5b4TIAk["I Asked My Mom 11 Intimate Questions Before It's Too Late"]-->-5G7-S349Hk["I Think My Dad Is A Russian Spy"]
RBgC5b4TIAk["I Asked My Mom 11 Intimate Questions Before It's Too Late"]-->rd-yH8hzTLs["An Astrologer Guesses Strangers' Zodiac Sign (Ray) | Lineup | Cut"]
RBgC5b4TIAk["I Asked My Mom 11 Intimate Questions Before It's Too Late"]-->4AL5I19peaA["A Son With Autism Gets A Home Makeover"]
RBgC5b4TIAk["I Asked My Mom 11 Intimate Questions Before It's Too Late"]-->qPI4WJXTtEY["Undercover Boss - Retro Fitness S4 EP14 (U.S. TV Series)"]
RBgC5b4TIAk["I Asked My Mom 11 Intimate Questions Before It's Too Late"]-->ieAtWSh2i_Q["The Try Guys Shave Their Dads • Fatherhood: Part 4"]
RBgC5b4TIAk["I Asked My Mom 11 Intimate Questions Before It's Too Late"]-->K1QCZXfJHrI["Strangers Connect Through Their Deepest Insecurities"]
RBgC5b4TIAk["I Asked My Mom 11 Intimate Questions Before It's Too Late"]-->l0sJ6IPFzOc["I Bought A Stranger's Diary"]
RBgC5b4TIAk["I Asked My Mom 11 Intimate Questions Before It's Too Late"]-->cfL3EcZPTeM["Does Age Matter In Relationships? | Tell My Story"]
RBgC5b4TIAk["I Asked My Mom 11 Intimate Questions Before It's Too Late"]-->FayGQYszBJY["Kitchen.Nightmares.US.S06E11"]
RBgC5b4TIAk["I Asked My Mom 11 Intimate Questions Before It's Too Late"]-->IfJlQZ0OssU["Grown Dude Gets Dressed By His Mom For A Week"]
RBgC5b4TIAk["I Asked My Mom 11 Intimate Questions Before It's Too Late"]-->qSQXhcxHUso["BEST Thomas Sanders Vines with Titles! - Hilarious Thomas Sanders Vine Compilation"]
RBgC5b4TIAk["I Asked My Mom 11 Intimate Questions Before It's Too Late"]-->GeSzLqqyNgs["Can 2 Strangers Fall in Love with 36 Questions? Russell + Kera"]
RBgC5b4TIAk["I Asked My Mom 11 Intimate Questions Before It's Too Late"]-->wrG4KRZ_jLw["Men Live Like 1950's Housewives For A Week"]
RBgC5b4TIAk["I Asked My Mom 11 Intimate Questions Before It's Too Late"]-->8YqGTUusjQE["All the Performances of Piff the magic dragon on American's Got Talent 2015"]
RBgC5b4TIAk["I Asked My Mom 11 Intimate Questions Before It's Too Late"]-->Mg_HBTGfwD0["We Tried The 30 Day Water Challenge"]
RBgC5b4TIAk["I Asked My Mom 11 Intimate Questions Before It's Too Late"]-->SVick42IZAk["Americans are Dumber than the Rest of the World | Is It True?"]
RBgC5b4TIAk["I Asked My Mom 11 Intimate Questions Before It's Too Late"]-->1FI31RgOCmI["The $10,000 Dream."]
RBgC5b4TIAk["I Asked My Mom 11 Intimate Questions Before It's Too Late"]-->LGdvZVkexsc["People Discover Who They Were In A Past Life"]
RBgC5b4TIAk["I Asked My Mom 11 Intimate Questions Before It's Too Late"]-->fAHHhHPwrE0["Parents disapprove of their drag queen son's look while out to eat | What Would You Do? | WWYD"]
start["Youtube homepage"]-->amUiXp02sQA["I Banned Sugar For A Week"]
amUiXp02sQA["I Banned Sugar For A Week"]-->Ir8_wDANAd0["I Banned TV & Video Games For A Week"]
amUiXp02sQA["I Banned Sugar For A Week"]-->AhRWyFQdNho["Kid Professional Chef Vs. Adult Chef"]
amUiXp02sQA["I Banned Sugar For A Week"]-->GTXP2FzQS94["$24 Korean BBQ Vs. $346 Korean BBQ"]
amUiXp02sQA["I Banned Sugar For A Week"]-->-O4qlY0QX10["I Made Over A Stranger's Bedroom Based On Their Instagram"]
amUiXp02sQA["I Banned Sugar For A Week"]-->-fGTr30P-hQ["We Let Our Kids Plan Our Date Night"]
amUiXp02sQA["I Banned Sugar For A Week"]-->nGar1CWsMjE["Trying The Best Cell Phone Life Hacks And The Worst"]
amUiXp02sQA["I Banned Sugar For A Week"]-->gGILiLTenR8["Keith Eats Everything At McDonald's • The Try Vlog"]
amUiXp02sQA["I Banned Sugar For A Week"]-->8YYXY1NZ00E["We Gave Up Our Bad Spending Habits ᛫ Ladylike"]
amUiXp02sQA["I Banned Sugar For A Week"]-->vh-GKDtO2LI["Abandoned Bulldog Teaches Himself How To Walk | The Dodo Comeback Kids S02E02"]
amUiXp02sQA["I Banned Sugar For A Week"]-->uF7Z_de2ELQ["I Tried To Re-Create This Flaming Hot Cheeto Burrito"]
amUiXp02sQA["I Banned Sugar For A Week"]-->zyUwVMzlXn8["How To Apply Nail Tips with Acrylic Overlay - Step by Step Tutorial"]
amUiXp02sQA["I Banned Sugar For A Week"]-->CTuCSX-3Dr0["Bring Your Own Cup to 7-11 for a Slurpee!! 7-11 w/ Fidget Spinner! #BYOC"]
amUiXp02sQA["I Banned Sugar For A Week"]-->n4bucphC9r4["$27 Cake Vs. $1,120 Cake"]
amUiXp02sQA["I Banned Sugar For A Week"]-->f2kesmAO8VU["The Art Of Making Noodles By Hand"]
amUiXp02sQA["I Banned Sugar For A Week"]-->zfSSesS-_Ok["KID VS TEEN FOOD SHOPPING CHALLENGE! WHAT WILL THEY BUY? EPIC VEGAN TESCO HAUL"]
amUiXp02sQA["I Banned Sugar For A Week"]-->yhr058pmm9o["I Let My Son Plan His Own Birthday"]
amUiXp02sQA["I Banned Sugar For A Week"]-->2GZrPR5Ajrs["$3 Sushi Vs. $250 Sushi"]
amUiXp02sQA["I Banned Sugar For A Week"]-->JSpnYEOf0A4["Can These Chefs Create A Kid's Dream Dessert?"]
amUiXp02sQA["I Banned Sugar For A Week"]-->EEKZc7yGES0["i only spent 1 DOLLAR on FOOD for 24 hours !!!"]
amUiXp02sQA["I Banned Sugar For A Week"]-->E8548MJCf2M["Small Unknown Slime Shops 100% honest ~ Subscribers slime shops | Slimeatory #355"]
start["Youtube homepage"]-->Mg_HBTGfwD0["We Tried The 30 Day Water Challenge"]
Mg_HBTGfwD0["We Tried The 30 Day Water Challenge"]-->IfJlQZ0OssU["Grown Dude Gets Dressed By His Mom For A Week"]
Mg_HBTGfwD0["We Tried The 30 Day Water Challenge"]-->TOSj5Gk2XgI["I Bought A $300 Mystery Box From Ebay"]
Mg_HBTGfwD0["We Tried The 30 Day Water Challenge"]-->Nop8dOBzUb8["Women Diet Like Kardashians For 30 Days"]
Mg_HBTGfwD0["We Tried The 30 Day Water Challenge"]-->hECo1ixUYz0["15 FACTS THAT PROVE JAPAN IS NOT LIKE ANY OTHER COUNTRY"]
Mg_HBTGfwD0["We Tried The 30 Day Water Challenge"]-->r1_8cPwMtNs["Parents and Kids Play Truth or Drink (Ilea & Julie) | Truth or Drink | Cut"]
Mg_HBTGfwD0["We Tried The 30 Day Water Challenge"]-->xcaeyJTx4Co["$139 Plane Seat Vs. $24,000 Plane Seat"]
Mg_HBTGfwD0["We Tried The 30 Day Water Challenge"]-->4FEcHK-c2VE["Couple Buys A House For The First Time • Ned & Ariel"]
Mg_HBTGfwD0["We Tried The 30 Day Water Challenge"]-->RBgC5b4TIAk["I Asked My Mom 11 Intimate Questions Before It's Too Late"]
Mg_HBTGfwD0["We Tried The 30 Day Water Challenge"]-->ec-qGLAnReg["We Tried CEO Morning & Night Routines"]
Mg_HBTGfwD0["We Tried The 30 Day Water Challenge"]-->-5G7-S349Hk["I Think My Dad Is A Russian Spy"]
Mg_HBTGfwD0["We Tried The 30 Day Water Challenge"]-->81JoB0KslNY["Extreme Cheapskates S02E01"]
Mg_HBTGfwD0["We Tried The 30 Day Water Challenge"]-->QLGjZ2PwlTA["We Got A Personal Assistant For A Week • Ladylike"]
Mg_HBTGfwD0["We Tried The 30 Day Water Challenge"]-->UIVrbOuqO28["10 Things Americans Do That Confuse The Rest Of The World!"]
Mg_HBTGfwD0["We Tried The 30 Day Water Challenge"]-->rd-yH8hzTLs["An Astrologer Guesses Strangers' Zodiac Sign (Ray) | Lineup | Cut"]
Mg_HBTGfwD0["We Tried The 30 Day Water Challenge"]-->aaiIl8J26fo["Men Work Out And Diet Based On Their DNA"]
Mg_HBTGfwD0["We Tried The 30 Day Water Challenge"]-->sxemNp3dql8["People Try The Whole30 Elimination Diet"]
Mg_HBTGfwD0["We Tried The 30 Day Water Challenge"]-->wrG4KRZ_jLw["Men Live Like 1950's Housewives For A Week"]
Mg_HBTGfwD0["We Tried The 30 Day Water Challenge"]-->SGhPswvyJjM["Parents Read their Kids' Search History"]
Mg_HBTGfwD0["We Tried The 30 Day Water Challenge"]-->amUiXp02sQA["I Banned Sugar For A Week"]
Mg_HBTGfwD0["We Tried The 30 Day Water Challenge"]-->tD4zreqtcns["I Tried To Get Perfect Skin For My Wedding"]
start["Youtube homepage"]-->gnZEA4SkjFA["Squad Wars Bonus - Try Guys Try Hosting"]
gnZEA4SkjFA["Squad Wars Bonus - Try Guys Try Hosting"]-->V4Uuxg6jmbo["The Try Guys Bake Bread Without A Recipe"]
gnZEA4SkjFA["Squad Wars Bonus - Try Guys Try Hosting"]-->N06g2kc1Dxo["The Try Guys Take An Ancestry DNA Test"]
gnZEA4SkjFA["Squad Wars Bonus - Try Guys Try Hosting"]-->trMmuKhhvU8["The Try Guys Prank Each Other // Presented By Warner Bros. Pictures Fist Fight"]
gnZEA4SkjFA["Squad Wars Bonus - Try Guys Try Hosting"]-->jATdqhYhWU0["The Try Guys Try Not To Die Alone"]
gnZEA4SkjFA["Squad Wars Bonus - Try Guys Try Hosting"]-->C7v5co-HwvM["The Try Guys Race Dune Buggies • Dirty Tour: Part 1"]
gnZEA4SkjFA["Squad Wars Bonus - Try Guys Try Hosting"]-->Jw2wn4JYakY["The Try Guys Try American Ninja Warrior"]
gnZEA4SkjFA["Squad Wars Bonus - Try Guys Try Hosting"]-->xm63aVNwvao["The Try Guys Test Who Is The Most Attractive"]
gnZEA4SkjFA["Squad Wars Bonus - Try Guys Try Hosting"]-->xEDuF4yFXtE["The Try Guys Re-Create Photos Of Their Dads • Fatherhood: Part 1"]
gnZEA4SkjFA["Squad Wars Bonus - Try Guys Try Hosting"]-->caNhQYB2zT8["The Try Guys Crash Cars Into Each Other // Presented by The Grand Tour"]
gnZEA4SkjFA["Squad Wars Bonus - Try Guys Try Hosting"]-->QxhlECJytWo["The Try Guys Take A Lie Detector Test"]
gnZEA4SkjFA["Squad Wars Bonus - Try Guys Try Hosting"]-->4mYcJaIOe7s["Eugene Drinks Every State's Most Iconic Alcohol • The Try Vlog"]
gnZEA4SkjFA["Squad Wars Bonus - Try Guys Try Hosting"]-->AjxZrY_XPzo["The Try Guys Try The Weirdest Beauty Trends Of 2016"]
gnZEA4SkjFA["Squad Wars Bonus - Try Guys Try Hosting"]-->oVueVa3xfvw["The Try Guys Ski In Speedos • The Try Vlog"]
gnZEA4SkjFA["Squad Wars Bonus - Try Guys Try Hosting"]-->2atx1Jh6YP0["The Try Guys Try Distracted Driving // Presented By Kia Forte"]
gnZEA4SkjFA["Squad Wars Bonus - Try Guys Try Hosting"]-->9b69bxIaN9o["The Try Guys Go Bald"]
gnZEA4SkjFA["Squad Wars Bonus - Try Guys Try Hosting"]-->XJ5b7CuK3RA["The Try Guys 12-Mile Wilderness Adventure"]
gnZEA4SkjFA["Squad Wars Bonus - Try Guys Try Hosting"]-->QZSZPop_dxk["The Four Types Of Friends You Have • Try Guys"]
gnZEA4SkjFA["Squad Wars Bonus - Try Guys Try Hosting"]-->apmF_FXcZKc["The Try Guys Get Style Makeovers"]
gnZEA4SkjFA["Squad Wars Bonus - Try Guys Try Hosting"]-->LECaqJuWOZ8["Normal Dude Flies A JetPack On Water"]
gnZEA4SkjFA["Squad Wars Bonus - Try Guys Try Hosting"]-->w2-FtU2pZes["Trump Grill Taste Test • The Try Guys"]
start["Youtube homepage"]-->-cnYzwmEKTc["Pawn Stars Has Officially Ended After This Happened"]
-cnYzwmEKTc["Pawn Stars Has Officially Ended After This Happened"]-->1gXBqsooTzM["Hardcore Pawn's Angriest and Craziest Customers Part 4"]
-cnYzwmEKTc["Pawn Stars Has Officially Ended After This Happened"]-->43BviNgzcc8["WTF Moments Caught On Camera #6"]
-cnYzwmEKTc["Pawn Stars Has Officially Ended After This Happened"]-->KQMkWKmToEY["Top 25 Punches That Will Never Be Forgotten... Pt3"]
-cnYzwmEKTc["Pawn Stars Has Officially Ended After This Happened"]-->oBoLdXLx9So["TOP 10 MOST AMAZING POKER HANDS EVER!"]
-cnYzwmEKTc["Pawn Stars Has Officially Ended After This Happened"]-->fwLP7XjALj8["The foreign legion : men without a past (full documentary)"]
-cnYzwmEKTc["Pawn Stars Has Officially Ended After This Happened"]-->7ogzMTzQ9Sg["Impractical Jokers Best of Joe 6"]
-cnYzwmEKTc["Pawn Stars Has Officially Ended After This Happened"]-->zGSbTQ3V11I["The Pawn Stars Are Secretly Behind The Old Mans Death.."]
-cnYzwmEKTc["Pawn Stars Has Officially Ended After This Happened"]-->ytLHx0DHTYw["10 Most Legendary Moments That Made Ben Shapiro Famous"]
-cnYzwmEKTc["Pawn Stars Has Officially Ended After This Happened"]-->yZDaganYSrM["SECRET TRICKS EVERY COP USES ON YOU"]
-cnYzwmEKTc["Pawn Stars Has Officially Ended After This Happened"]-->YXueQP6V0Qw["10 Most Incredible FINDS of WW2"]
-cnYzwmEKTc["Pawn Stars Has Officially Ended After This Happened"]-->YwrzSq3mP1Q["Instant Karma - TIME OF JUSTICE"]
-cnYzwmEKTc["Pawn Stars Has Officially Ended After This Happened"]-->m_uMxwUs308["Jeremy Clarkson - Inventions That Changed the World Gun (Rus sub)"]
-cnYzwmEKTc["Pawn Stars Has Officially Ended After This Happened"]-->Hsvqk8NvEgs["MythBusters-  Breaking Bad"]
-cnYzwmEKTc["Pawn Stars Has Officially Ended After This Happened"]-->CPWxkdgbqw0["Chain Gang of Arizona - The Hardest Prison - Geographic History"]
-cnYzwmEKTc["Pawn Stars Has Officially Ended After This Happened"]-->qdhHd-K7CDg["10 SECRETS Gordon Ramsay Doesn't Want You To Know"]
-cnYzwmEKTc["Pawn Stars Has Officially Ended After This Happened"]-->0SpEXR8WxGE["Top 10 Deadliest Hitmen"]
-cnYzwmEKTc["Pawn Stars Has Officially Ended After This Happened"]-->6_hNTxMQXMI["Pawn Stars: Pawns Gone Wrong | History"]
-cnYzwmEKTc["Pawn Stars Has Officially Ended After This Happened"]-->q2TMLT9zXnI["Harley and the Davidsons   Part 1"]
-cnYzwmEKTc["Pawn Stars Has Officially Ended After This Happened"]-->KdiIr_wMjG8["Photos That Flipped People's Lives UPSIDE DOWN"]
-cnYzwmEKTc["Pawn Stars Has Officially Ended After This Happened"]-->1AvFNXJiMy8["BEST NEWS BLOOPERS APRIL 2018"]
start["Youtube homepage"]-->W64c3L8N0aw["Judges BUZZ TOO EARLY On Britain's Got Talent! | Top Talent"]
W64c3L8N0aw["Judges BUZZ TOO EARLY On Britain's Got Talent! | Top Talent"]-->y-pI913zxg0["BEST Auditions From America's Got Talent 2017 | Top Talents"]
W64c3L8N0aw["Judges BUZZ TOO EARLY On Britain's Got Talent! | Top Talent"]-->DnN6YdsqCRU["ALL 5 GOLDEN BUZZER Britain's Got Talent 2018"]
W64c3L8N0aw["Judges BUZZ TOO EARLY On Britain's Got Talent! | Top Talent"]-->jxV3rSZQPoA["JUDGES TO THE RESCUE! Simon Cowell & Co Step In To SAVE AUDITIONS On GOT TALENT & X FACTOR"]
W64c3L8N0aw["Judges BUZZ TOO EARLY On Britain's Got Talent! | Top Talent"]-->PSQAW9zXPpA["40 FUN LIFE HACKS THAT ARE ACTUALLY BRILLIANT"]
W64c3L8N0aw["Judges BUZZ TOO EARLY On Britain's Got Talent! | Top Talent"]-->DRi08WNWLTU["MOST INTENSE Performances EVER on Got Talent | Top Talent"]
W64c3L8N0aw["Judges BUZZ TOO EARLY On Britain's Got Talent! | Top Talent"]-->u6E7kGJgA6g["KID SINGERS On 2018 Got Talent! | Top Talent"]
W64c3L8N0aw["Judges BUZZ TOO EARLY On Britain's Got Talent! | Top Talent"]-->d_etsAX53Ys["THE SACRED RIANA WINS ASIA'S GOT TALENT 2017 | All Auditions & Performances | Got Talent Global"]
W64c3L8N0aw["Judges BUZZ TOO EARLY On Britain's Got Talent! | Top Talent"]-->yKToUPOl1Xk["10 MOST VIEWED AUDITIONS OF ALL TIME From Britain's Got Talent!"]
W64c3L8N0aw["Judges BUZZ TOO EARLY On Britain's Got Talent! | Top Talent"]-->7W9BL8jOdKs["BEST Magic Show in The World 2017 | Comedic Magician Britain's Got Talent"]
W64c3L8N0aw["Judges BUZZ TOO EARLY On Britain's Got Talent! | Top Talent"]-->bstbX88FRtw["Simon Cowell's Best GOLDEN BUZZER Moments | Got Talent Global"]
W64c3L8N0aw["Judges BUZZ TOO EARLY On Britain's Got Talent! | Top Talent"]-->EKrEtyJ8MdU["Howard Stern Makes 7-year-old Rapper Cry on America's Got Talent | @kollegekidd"]
W64c3L8N0aw["Judges BUZZ TOO EARLY On Britain's Got Talent! | Top Talent"]-->DoCWETGfCoo["INCREDIBLE GYMNAST GROUPS On Got Talent! | Top Talent"]
W64c3L8N0aw["Judges BUZZ TOO EARLY On Britain's Got Talent! | Top Talent"]-->yyhHkb2UGFs["SIMON COWELL STOPS Auditions & Gives Them A 2nd Chance to Sing On GOT TALENT ! TOP TALENT"]
W64c3L8N0aw["Judges BUZZ TOO EARLY On Britain's Got Talent! | Top Talent"]-->7fVSoAJxrRI["Top 7 FUNNIEST Auditions on America's Got Talent EVER"]
W64c3L8N0aw["Judges BUZZ TOO EARLY On Britain's Got Talent! | Top Talent"]-->dGE5TYoNa6s["Britain's Got Talent 2018 | WEEK 2 | Auditions | Got Talent Global"]
W64c3L8N0aw["Judges BUZZ TOO EARLY On Britain's Got Talent! | Top Talent"]-->ugmoN7ebwJE["ALL GOLDEN BUZZERS on Britain's Got Talent 2017 | MerseyGirls, Sarah Ikumu & More!!"]
W64c3L8N0aw["Judges BUZZ TOO EARLY On Britain's Got Talent! | Top Talent"]-->Gurg64h04C4["BEST Magic Show in the world - Cool Couple America's Got Talent - The Clairvoyants"]
W64c3L8N0aw["Judges BUZZ TOO EARLY On Britain's Got Talent! | Top Talent"]-->hQfgA-yKzPU["When Judges SPLIT GROUPS On X Factor UK! | X Factor Global"]
W64c3L8N0aw["Judges BUZZ TOO EARLY On Britain's Got Talent! | Top Talent"]-->XhooOCtedTI["TOP INSPIRING Auditions From Around The World! | Got Talent & X Factor | Top Talent"]
W64c3L8N0aw["Judges BUZZ TOO EARLY On Britain's Got Talent! | Top Talent"]-->Ay4exyBwO1c["BEST OF THE US! Most Popular Acts on America's Got Talent, X Factor and Idol | Top Talent"]
start["Youtube homepage"]-->DnN6YdsqCRU["ALL 5 GOLDEN BUZZER Britain's Got Talent 2018"]
DnN6YdsqCRU["ALL 5 GOLDEN BUZZER Britain's Got Talent 2018"]-->z9b6G2S6Jdc["TOP 4 GOLDEN BUZZER America's Got Talent 2018"]
DnN6YdsqCRU["ALL 5 GOLDEN BUZZER Britain's Got Talent 2018"]-->FEmMW62StO8["ANIMAL REUNIONS - 7 MOST HEARTWARMING ANIMAL REUNIONS WITH OWNERS"]
DnN6YdsqCRU["ALL 5 GOLDEN BUZZER Britain's Got Talent 2018"]-->N49xtrLVePA["TOP 10 BEST Got Talent Singers auditions EVER! With Complete Interview"]
DnN6YdsqCRU["ALL 5 GOLDEN BUZZER Britain's Got Talent 2018"]-->EYpXkwb0nKo["كادو ان يسخروا منه فأبهرهم بموهبته النادرة - برنامج المواهب السويدي 2018"]
DnN6YdsqCRU["ALL 5 GOLDEN BUZZER Britain's Got Talent 2018"]-->mAFY-DRQS04["WORLD'S 7 GREATEST MAGIC TRICKS REVEALED"]
DnN6YdsqCRU["ALL 5 GOLDEN BUZZER Britain's Got Talent 2018"]-->_hhr1JPaYKg["Giang Brothers - The Best Duo DANGEROUS On Britian's Got Talent"]
DnN6YdsqCRU["ALL 5 GOLDEN BUZZER Britain's Got Talent 2018"]-->ZigtZf_6p2s["Top 6 tiết mục xuất sắc nhất tìm kiếm tài năng Mỹ 2017 | the best got talent 2017 |QLchannel"]
DnN6YdsqCRU["ALL 5 GOLDEN BUZZER Britain's Got Talent 2018"]-->2iWuc0p5VEw["Top 10 *VERY EMOTIONAL Moments* on Talent Shows 2018 WORLD WIDE"]
DnN6YdsqCRU["ALL 5 GOLDEN BUZZER Britain's Got Talent 2018"]-->kXDxiI8aNpA["ALL Golden Buzzer From Judge Cuts America's Got Talent 2017"]
DnN6YdsqCRU["ALL 5 GOLDEN BUZZER Britain's Got Talent 2018"]-->gR0XvajmaMY["Prepare to be SPELLBOUND by the incredible Marc Spelmann! | Semi-Finals | BGT 2018"]
DnN6YdsqCRU["ALL 5 GOLDEN BUZZER Britain's Got Talent 2018"]-->-96oAZ9wN5Q["UNBELIEVABLE ! Top 10 Shocking Blind Auditions The Voice 2018"]
DnN6YdsqCRU["ALL 5 GOLDEN BUZZER Britain's Got Talent 2018"]-->sAUdHfndwD4["Top 5 Funniest Comedians EVER on Britain's Got Talent 😂"]
DnN6YdsqCRU["ALL 5 GOLDEN BUZZER Britain's Got Talent 2018"]-->jz3MtN41JOw["All Performances THE WINNER Britain's Got Talent 2016 | Richard Jones"]
DnN6YdsqCRU["ALL 5 GOLDEN BUZZER Britain's Got Talent 2018"]-->NqjGfbC9nLk["Worldwide Got Talent Top 10 compilation (BGT, AGT, UMT etc.)[Part 1]"]
DnN6YdsqCRU["ALL 5 GOLDEN BUZZER Britain's Got Talent 2018"]-->K0MiVgnvTN8["Tape face full auditions - america's got talent 2016 + Extra"]
DnN6YdsqCRU["ALL 5 GOLDEN BUZZER Britain's Got Talent 2018"]-->jjBlnLEVccQ["TOP 4 Golden Buzzer America's Got Talent 2017"]
DnN6YdsqCRU["ALL 5 GOLDEN BUZZER Britain's Got Talent 2018"]-->dQ8Z7yjH_Dk["Lost Voice Guy's Victory Journey on Britian's Got Talent"]
DnN6YdsqCRU["ALL 5 GOLDEN BUZZER Britain's Got Talent 2018"]-->93b3D1rNlZs["10 FUNNIEST AUDITIONS EVER ON BRITAIN'S GOT TALENT!"]
DnN6YdsqCRU["ALL 5 GOLDEN BUZZER Britain's Got Talent 2018"]-->1LJgmCzXxrU["Top 10 performance Surprised coaches in The voice USA Auditions 2018"]
DnN6YdsqCRU["ALL 5 GOLDEN BUZZER Britain's Got Talent 2018"]-->SF9WmXBrqBo["Best Ever Top 5 Pets + 5 People Got Talent, Amazing Top 10 Got Talent Auditions, AGT BGT 2017"]
start["Youtube homepage"]-->C2nvaI5fhMs["First Contact - Seeing white man for the first time"]
C2nvaI5fhMs["First Contact - Seeing white man for the first time"]-->Ya-zxSRuUqs["Never Say Die"]
C2nvaI5fhMs["First Contact - Seeing white man for the first time"]-->lNtrhHsw90M["WWE Brock Lesnar's Old Rare Documentary (2002) (HQ)"]
C2nvaI5fhMs["First Contact - Seeing white man for the first time"]-->aF_unlvjccA["Christopher Columbus: What Really Happened"]
C2nvaI5fhMs["First Contact - Seeing white man for the first time"]-->BFK3DJ7Kn6s["Agafia. Hermit Surviving in Russian Wilderness for 70 years"]
C2nvaI5fhMs["First Contact - Seeing white man for the first time"]-->eDho1Y8MekE["Nepal: little buddha (full documentary)"]
C2nvaI5fhMs["First Contact - Seeing white man for the first time"]-->Nct8geTaAcw["The Stone Age Tribe on a Banned Island You Can't Visit"]
C2nvaI5fhMs["First Contact - Seeing white man for the first time"]-->YyQqiAxU_Xc["This Family Live In Perfect Isolation"]
C2nvaI5fhMs["First Contact - Seeing white man for the first time"]-->VYkwguBK8EA["Amazing Things Kids Have Said About Past Lives That Even Skeptics Can't Explain"]
C2nvaI5fhMs["First Contact - Seeing white man for the first time"]-->UrnmBLB-UX4["The Land of No Men: Inside Kenya's Women-Only Village"]
C2nvaI5fhMs["First Contact - Seeing white man for the first time"]-->V-5-1ffAe9w["Top 10 TERRIFYING Facts About MAORI WARRIORS"]
C2nvaI5fhMs["First Contact - Seeing white man for the first time"]-->7gy4GoG6Lew["Why is this isolated tribe seeking contact with the outside world?"]
C2nvaI5fhMs["First Contact - Seeing white man for the first time"]-->69LDbyl4Xjs["The Real Planet of the Apes (Documentary)"]
C2nvaI5fhMs["First Contact - Seeing white man for the first time"]-->eHCaIvPN2rY["The Yamuna, India's most polluted river"]
C2nvaI5fhMs["First Contact - Seeing white man for the first time"]-->xLI980fr2K0["14 Most Amazing Permafrost Discoveries from Siberia"]
C2nvaI5fhMs["First Contact - Seeing white man for the first time"]-->B_a1WS5ncDk["Inside a Lost African Tribe Still Living in India Today | Short Film Showcase"]
C2nvaI5fhMs["First Contact - Seeing white man for the first time"]-->5aV_850nzv4["Tribe meets white man for the first time 1/3 (with narration)"]
C2nvaI5fhMs["First Contact - Seeing white man for the first time"]-->OnWGXMDhwi8["Dreamtime Travelling through the Australian continent - documentary"]
C2nvaI5fhMs["First Contact - Seeing white man for the first time"]-->yZ6vSn7PaPI["Deaf People Hearing Sound for the FIRST Time [Compilation]"]
C2nvaI5fhMs["First Contact - Seeing white man for the first time"]-->lDveK6oWN5w["Germany’s poor pensioners | DW Documentary"]
C2nvaI5fhMs["First Contact - Seeing white man for the first time"]-->FfbHXBrdhSQ["When This Guy Looked Inside His Deceased Friend’s Garage, He Unearthed A Rare ’70s Drag Racing Beast"]
start["Youtube homepage"]-->7kZR_0nUdgM["Simon Cowell PULLS a Girl From Her Band To Join NEW Girl Band | The X Factor UK 2017"]
7kZR_0nUdgM["Simon Cowell PULLS a Girl From Her Band To Join NEW Girl Band | The X Factor UK 2017"]-->S7NKxadiZxo["INCREDIBLE UNEXPECTED SINGERS on Got Talent | Top Talent"]
7kZR_0nUdgM["Simon Cowell PULLS a Girl From Her Band To Join NEW Girl Band | The X Factor UK 2017"]-->hQfgA-yKzPU["When Judges SPLIT GROUPS On X Factor UK! | X Factor Global"]
7kZR_0nUdgM["Simon Cowell PULLS a Girl From Her Band To Join NEW Girl Band | The X Factor UK 2017"]-->VCZP4rPstnk["Elijah Connor: 'Diddy' Tests Confident Artist With EPIC STAREDOWN! | S2E3 | The Four"]
7kZR_0nUdgM["Simon Cowell PULLS a Girl From Her Band To Join NEW Girl Band | The X Factor UK 2017"]-->qO9JlIUi-V0["This Girl Was Getting Bullied. How These Strangers Reacted Will Surprise You"]
7kZR_0nUdgM["Simon Cowell PULLS a Girl From Her Band To Join NEW Girl Band | The X Factor UK 2017"]-->YV82JRcPa58["Alma Lake: FIERCE Colombian Artist Causes ERUPTION On The Judges Panel! | S2E4 | The Four"]
7kZR_0nUdgM["Simon Cowell PULLS a Girl From Her Band To Join NEW Girl Band | The X Factor UK 2017"]-->vAPmqbY6Omw["8 MOST AMAZING SPORT COMEBACKS"]
7kZR_0nUdgM["Simon Cowell PULLS a Girl From Her Band To Join NEW Girl Band | The X Factor UK 2017"]-->W64c3L8N0aw["Judges BUZZ TOO EARLY On Britain's Got Talent! | Top Talent"]
7kZR_0nUdgM["Simon Cowell PULLS a Girl From Her Band To Join NEW Girl Band | The X Factor UK 2017"]-->ET5zvN4Ah_0["Darci Lynne All Performances Compilation: Americas Got Talent Season 12"]
7kZR_0nUdgM["Simon Cowell PULLS a Girl From Her Band To Join NEW Girl Band | The X Factor UK 2017"]-->HVBEyHHS_9s["Simon calls for a sing-off between JBK and Lemonade!  | Six Chair Challenge | The X Factor 2017"]
7kZR_0nUdgM["Simon Cowell PULLS a Girl From Her Band To Join NEW Girl Band | The X Factor UK 2017"]-->XGbsMphVG1I["When A Homeless Girl Begged On The Streets, A Passing Stranger Returned With An Offer"]
7kZR_0nUdgM["Simon Cowell PULLS a Girl From Her Band To Join NEW Girl Band | The X Factor UK 2017"]-->FUYnqTW3Ngw["INCREDIBLE Queen Cover Has The Judges In Tears! | X Factor Global"]
7kZR_0nUdgM["Simon Cowell PULLS a Girl From Her Band To Join NEW Girl Band | The X Factor UK 2017"]-->MqxxrmF-rvU["10 MOST VIEWED AMERICA'S GOT TALENT AUDITIONS! Top Talent"]
7kZR_0nUdgM["Simon Cowell PULLS a Girl From Her Band To Join NEW Girl Band | The X Factor UK 2017"]-->xXJxAh1VRbY["Latin dance troupe Kings and Queens bring passion to the stage | Britain's Got Talent 2014"]
7kZR_0nUdgM["Simon Cowell PULLS a Girl From Her Band To Join NEW Girl Band | The X Factor UK 2017"]-->DnN6YdsqCRU["ALL 5 GOLDEN BUZZER Britain's Got Talent 2018"]
7kZR_0nUdgM["Simon Cowell PULLS a Girl From Her Band To Join NEW Girl Band | The X Factor UK 2017"]-->hdPa_-4ITHo["MOST INSPIRATIONAL Auditions EVER | X Factor Global"]
7kZR_0nUdgM["Simon Cowell PULLS a Girl From Her Band To Join NEW Girl Band | The X Factor UK 2017"]-->jOd2XGUagBc["DANCE AUDITIONS THAT SHOCKED THE WORLD | Top Talent"]
7kZR_0nUdgM["Simon Cowell PULLS a Girl From Her Band To Join NEW Girl Band | The X Factor UK 2017"]-->Gu77wfQZ5hE["Has Simon Got The HOTS For This Woman? OMG...Look At His FACE!"]
7kZR_0nUdgM["Simon Cowell PULLS a Girl From Her Band To Join NEW Girl Band | The X Factor UK 2017"]-->szJd7pWwOeE["TOP MOST VIEWS America's Got Talent NEW UPDATE"]
7kZR_0nUdgM["Simon Cowell PULLS a Girl From Her Band To Join NEW Girl Band | The X Factor UK 2017"]-->lkNIv_YOGl4["Candice Boyd: The Girl With a RIDICULOUS Voice WOWS The Judges! | S1E2 | The Four"]
7kZR_0nUdgM["Simon Cowell PULLS a Girl From Her Band To Join NEW Girl Band | The X Factor UK 2017"]-->1mq7F2FKy3E["BRILLIANTLY BIZARRE Auditions on X Factor UK! | X Factor Global"]
start["Youtube homepage"]-->-96oAZ9wN5Q["UNBELIEVABLE ! Top 10 Shocking Blind Auditions The Voice 2018"]
-96oAZ9wN5Q["UNBELIEVABLE ! Top 10 Shocking Blind Auditions The Voice 2018"]-->JFoKAV-_1x8["Top 10 Best The Voice performances usa 2018   Street Version"]
-96oAZ9wN5Q["UNBELIEVABLE ! Top 10 Shocking Blind Auditions The Voice 2018"]-->k4K9DcWnlbg["Top 15 The Best Of Best Blind Auditions The Voice Kids .... Make By TV Jolly"]
-96oAZ9wN5Q["UNBELIEVABLE ! Top 10 Shocking Blind Auditions The Voice 2018"]-->IqbrqoZaT8w["ALL GOLDEN BUZZER AMERICA'S GOT TALENT 2017"]
-96oAZ9wN5Q["UNBELIEVABLE ! Top 10 Shocking Blind Auditions The Voice 2018"]-->wOYLEHU1Z7c["Top 10 Most Surprising Blind Auditions The Voice 2018 ( NO2)"]
-96oAZ9wN5Q["UNBELIEVABLE ! Top 10 Shocking Blind Auditions The Voice 2018"]-->UniYSUhgxn0["КВН Супер сборник посвященный 1 сентября!"]
-96oAZ9wN5Q["UNBELIEVABLE ! Top 10 Shocking Blind Auditions The Voice 2018"]-->NXyK1xRsp4Y["TOP 12 GLOBAL VOICE INCREDIBLE BLIND AUDITIONS"]
-96oAZ9wN5Q["UNBELIEVABLE ! Top 10 Shocking Blind Auditions The Voice 2018"]-->yyhHkb2UGFs["SIMON COWELL STOPS Auditions & Gives Them A 2nd Chance to Sing On GOT TALENT ! TOP TALENT"]
-96oAZ9wN5Q["UNBELIEVABLE ! Top 10 Shocking Blind Auditions The Voice 2018"]-->2iWuc0p5VEw["Top 10 *VERY EMOTIONAL Moments* on Talent Shows 2018 WORLD WIDE"]
-96oAZ9wN5Q["UNBELIEVABLE ! Top 10 Shocking Blind Auditions The Voice 2018"]-->vAPmqbY6Omw["8 MOST AMAZING SPORT COMEBACKS"]
-96oAZ9wN5Q["UNBELIEVABLE ! Top 10 Shocking Blind Auditions The Voice 2018"]-->AB9_msHT3ks["Matt Damon's brother surprised coaches in THE VOICE - Adam still can't believe it !!!"]
-96oAZ9wN5Q["UNBELIEVABLE ! Top 10 Shocking Blind Auditions The Voice 2018"]-->DnN6YdsqCRU["ALL 5 GOLDEN BUZZER Britain's Got Talent 2018"]
-96oAZ9wN5Q["UNBELIEVABLE ! Top 10 Shocking Blind Auditions The Voice 2018"]-->UBvhgV8dF-I["UNBELIEVABLE ! Top 10 Shocking Blind Auditions The Voice 2018 (No2 )"]
-96oAZ9wN5Q["UNBELIEVABLE ! Top 10 Shocking Blind Auditions The Voice 2018"]-->Ctce6o1t73U["ACTS Return for SECOND Auditions on The X Factor UK! | X Factor Global"]
-96oAZ9wN5Q["UNBELIEVABLE ! Top 10 Shocking Blind Auditions The Voice 2018"]-->vUr5L5trHjc["Top 10 performance That made coaches Cry in The voice Audition 2018"]
-96oAZ9wN5Q["UNBELIEVABLE ! Top 10 Shocking Blind Auditions The Voice 2018"]-->N49xtrLVePA["TOP 10 BEST Got Talent Singers auditions EVER! With Complete Interview"]
-96oAZ9wN5Q["UNBELIEVABLE ! Top 10 Shocking Blind Auditions The Voice 2018"]-->R1_dJCudMOE["PART 2 ● Top 10 Opera Auditions ● INCREDIBLE and BEAUTIFUL VOICES"]
-96oAZ9wN5Q["UNBELIEVABLE ! Top 10 Shocking Blind Auditions The Voice 2018"]-->1LJgmCzXxrU["Top 10 performance Surprised coaches in The voice USA Auditions 2018"]
-96oAZ9wN5Q["UNBELIEVABLE ! Top 10 Shocking Blind Auditions The Voice 2018"]-->gPHVLxm8U-0["Courtney Hadwin: 13-Year-Old Golden Buzzer Winning Performance - America's Got Talent 2018"]
-96oAZ9wN5Q["UNBELIEVABLE ! Top 10 Shocking Blind Auditions The Voice 2018"]-->8KpOQbIfyJQ["5 Amazing Britain's Got Talent Auditions"]
