id,text,properties,mx,my,x,y,age
0,TOP 7 Best Contortionists WORLDWIDE on Got Talent Global,"{'views': 46516958, 'by': 'Got Talent Global', 'date': '', 'YT_id': 'yjT7bSdwUMg'}",0,0,0,0,0
0,TOP 7 Best Contortionists WORLDWIDE on Got Talent Global,"{'views': 46516958, 'by': 'Got Talent Global', 'date': '', 'YT_id': 'yjT7bSdwUMg'}",0,0,0,0,1
1,Fastest workers - Amazing skills of professionals and high level experts,"{'views': 7784580, 'by': 'VADIVID', 'date': '', 'YT_id': '17z8QiO_TMc'}",0,1,0,290,1
2,TOP 5 Magicians Around The World 2018 | Magicians Got Talent,"{'views': 8162767, 'by': ""Magician's Got Talent"", 'date': '', 'YT_id': 'SMz6bSoqY3U'}",1,0,290,0,1
3,"Top 7 NEVER SEEN Judges ""JAW DROPS like NEVER BEFORE"" SHOCKING Acts on AGT 2017 - 2018!","{'views': 565289, 'by': 'MusicTalentNow', 'date': '', 'YT_id': 'MeWy61-hguU'}",1,1,290,290,1
4,Ship Launch Gone Wrong,"{'views': 1927132, 'by': 'Bruce Marrero', 'date': '', 'YT_id': 'PGy4INmXdj0'}",2,2,580,580,1
5,People Vs. Boats 😂 Funny Boat Fails (Full) [Epic Life],"{'views': 1581835, 'by': 'Epic Life', 'date': '', 'YT_id': 'i0XQGYsXNsI'}",2,1,580,290,1
6,How NOT to drive a boat!  The Best boat fails on You Tube!,"{'views': 294285, 'by': 'Boats, Fishing, Guitars &amp; Rock n Roll', 'date': '', 'YT_id': 'o_1UqQ2BVv8'}",1,2,290,580,1
7,Ship Launch Gone Wrong,"{'views': 1927132, 'by': 'Bruce Marrero', 'date': '', 'YT_id': 'PGy4INmXdj0'}",0,2,0,580,1
8,Funniest Yacht Boat Riding Fails,"{'views': 602239, 'by': 'YesEpicYes', 'date': '', 'YT_id': 'v0gJ2t0v8wo'}",2,0,580,0,1
9,Best Vacation Fails 2018 | Ultimate Funny Videos Compilation,"{'views': 675946, 'by': ""America's Funniest Home Videos"", 'date': '28 mei 2018', 'YT_id': 'HKMjPb4Uc5Y'}",0,0,0,0,1
10,🔥 LIKE A BOSS 🔥 2019 Compilation #97,"{'views': 3279273, 'by': ""I'veGOT7"", 'date': '', 'YT_id': 't5Mgdj6KtX0'}",0,1,0,290,1
11,Robbery Fails INSTANT KARMA Compilation & Instant Justice 2017 [Ep. #2],"{'views': 3116118, 'by': 'Instant Karma Videos', 'date': '', 'YT_id': 'BwSDLo175Tg'}",1,1,290,290,1
12,TOP 7 INTENTOS FRUSTRADOS DE ROBOS DE AUTOS,"{'views': 2441550, 'by': 'Hey Robbie', 'date': '29 mei 2017', 'YT_id': 'P_ckmYxBN-U'}",1,0,290,0,1
13,Denver Police Chase 23 July 2014 (KUSA),"{'views': 1828255, 'by': 'wwwy2000', 'date': '', 'YT_id': 'zoy1lQxHINs'}",2,1,580,290,1
14,Under fire 1.0.1,"{'views': 2388774, 'by': 'The Shock Shack', 'date': '', 'YT_id': 'QYwU6kawZtc'}",1,2,290,580,1
15,월마트를 털고나서 미국경찰에게 추격당하는 여성들,"{'views': 1094232, 'by': '번역위원회', 'date': '6 mei 2018', 'YT_id': 'ewppPy8FDBc'}",0,2,0,580,1
16,미국여경을 차로 깔아뭉개다가 사살되는 남성,"{'views': 743346, 'by': '번역위원회', 'date': '', 'YT_id': 'HNSCqZ11AlE'}",2,0,580,0,1
17,체포 도중 26발의 총격을 받은 미국 경찰,"{'views': 161820, 'by': '트루퍼미헌', 'date': '', 'YT_id': '2E8UWEIgJGs'}",0,0,0,0,1
18,탈레반 실제 진압 상황!,"{'views': 1531387, 'by': '내셔널지오그래픽 - National Geographic Korea', 'date': '', 'YT_id': 'PmhVBRrjbtI'}",0,1,0,290,1
19,"Bodycam Footage Shows Police Shootout in Tulsa, Oklahoma","{'views': 11280535, 'by': 'PoliceActivity', 'date': '', 'YT_id': 'IzociekIWRA'}",1,1,290,290,1
20,Chicago Releases Videos of Police Shooting Unarmed Black Teen,"{'views': 56469, 'by': 'Wall Street Journal', 'date': '', 'YT_id': 'G-bo_3LsB_k'}",1,0,290,0,1
21,Zombies of Nairobi,"{'views': 991939, 'by': 'Fanpage.it', 'date': '10 mei 2016', 'YT_id': '0B_vZCLDs-M'}",2,1,580,290,1
22,The Cannibal Warlords of Liberia (Full Length Documentary),"{'views': 18720658, 'by': 'VICE', 'date': '', 'YT_id': 'ZRuSS0iiFyo'}",2,2,580,580,1
23,Noisey Atlanta - Trouble with the ATL Twins - Episode 4,"{'views': 2227833, 'by': 'Noisey', 'date': '', 'YT_id': 'Mfhw-uPD7j4'}",1,2,290,580,1
24,'I came down here to be forgotten': life in the tunnels beneath Las Vegas,"{'views': 1904572, 'by': 'The Guardian', 'date': '', 'YT_id': 'LYvThk5kY5I'}",0,2,0,580,1
25,Joe Rogan - The History of Fentanyl,"{'views': 993488, 'by': 'JRE Clips', 'date': '', 'YT_id': 'ihCe6_H7JWk'}",2,0,580,0,1
26,How Fentanyl Gets To The U.S. From China (HBO),"{'views': 1068267, 'by': 'VICE News', 'date': '', 'YT_id': 'kbPlnRJQGrc'}",0,0,0,0,1
27,The Man Who Witnessed 219 Executions | Part 1,"{'views': 1185440, 'by': 'BBC Three', 'date': '', 'YT_id': 'a4z-WTkcHq4'}",1,1,290,290,1
28,When Cops Pull Over Cops - Part 3 Compilation,"{'views': 2908657, 'by': 'More TV', 'date': '', 'YT_id': 'LYEzPeTlRag'}",0,1,0,290,1
29,Top 6 Cool Cops vs Bikers | ENCOUNTERS & POLICE PULLOVERS 2018,"{'views': 3684308, 'by': 'Life On Motorcycle', 'date': '', 'YT_id': 'qJ5C7B37OTs'}",1,0,290,0,1
30,BEST  Motorcycle Fail Compilation  2018 🚀 FAILS & WINS,"{'views': 2824175, 'by': 'Motorcycle Diaries', 'date': '', 'YT_id': '9g59PeXAaD8'}",2,1,580,290,1
31,Ассidеntеs de Motos part 4,"{'views': 4151586, 'by': 'Choques de Autos', 'date': '', 'YT_id': 'tJctT85TmWo'}",1,2,290,580,1
32,BAD BIKE RIDERS | HOW TO DESTROY A MOTORCYCLE IN SECONDS COMPILATION,"{'views': 1885057, 'by': 'Go Big Or Go Home', 'date': '', 'YT_id': '1n07GO82X4U'}",0,2,0,580,1
33,"WORLD'S CRAZIEST WOMEN DRIVERS, FUNNY WOMEN DRIVING FAILS 2018","{'views': 143054, 'by': 'Go Big Or Go Home', 'date': '', 'YT_id': 'oii5cwEqA_8'}",2,2,580,580,1
34,5 Weird Things Caught on Security Cameras & CCTV #10,"{'views': 3437077, 'by': 'TruthRevolutionNet', 'date': '', 'YT_id': 'pGJyYfLtznU'}",0,0,0,0,1
35,Best Fails of the Year 2017 EPIC FAILS Compilation,"{'views': 457017, 'by': 'Funny thinks', 'date': '', 'YT_id': 'Z3VcQxH5QOQ'}",1,1,290,290,1
36,Top 100 Viral Videos of the Year 2017,"{'views': 57690514, 'by': 'JukinVideo', 'date': '', 'YT_id': 'cWiPROxS2HA'}",0,1,0,290,1
37,Падения \ Неудачи #4 Подборка от Funny channel,"{'views': 11839007, 'by': 'Funny channel', 'date': '', 'YT_id': 'JSHmnaBLsfQ'}",1,0,290,0,1
38,Розыгрыши и пранки - свежая коллекция #49,"{'views': 1665404, 'by': 'Юмор Волна', 'date': '', 'YT_id': '7LEt8XgR8i0'}",2,1,580,290,1
39,ЛУЧШИЕ ИСПУГИ ЛЮДЕЙ И ЖИВОТНЫХ. ТОП ПОДБОРКА 2019,"{'views': 338864, 'by': 'BEON', 'date': '', 'YT_id': '55Uj48r4uIY'}",1,2,290,580,1
40,Розыгрыши и пранки - свежая коллекция #49,"{'views': 1665404, 'by': 'Юмор Волна', 'date': '', 'YT_id': '7LEt8XgR8i0'}",0,2,0,580,1
41,BROMAS PESADAS EN LA CALLE 2016 | La Broma del Terrorista y la Bomba | los Mejores Vídeos de Risa,"{'views': 14923669, 'by': 'Los Mejores Fails LMF', 'date': '', 'YT_id': 'OZduLXaa1z0'}",2,2,580,580,1
42,PRANK ARAB BOMB 2016 [return from the past],"{'views': 62700, 'by': 'Nazik Shik', 'date': '', 'YT_id': 'jYbygUQeztA'}",0,0,0,0,1
43,Funny_video_2018_funny_ prank_ try not to laugh challenge,"{'views': 10791877, 'by': 'RokoMari tv', 'date': '', 'YT_id': 'jOe9hp4Q-qo'}",1,1,290,290,1
44,Розыгрыши и пранки - свежая коллекция #51,"{'views': 2722449, 'by': 'Юмор Волна', 'date': '', 'YT_id': 'r_9Z1sfRqjo'}",2,0,580,0,1
45,LAS BROMAS DE TERROR MÁS BRUTALES DEL MUNDO 5! | Sustos y Vídeos Para Morirse De La Risa,"{'views': 1323996, 'by': 'Niki Coco', 'date': '', 'YT_id': 'UH1kouMNY6k'}",1,0,290,0,1
46,Friday The 13th Sketch Prank Jason Voorhees In Real Life,"{'views': 2409860, 'by': ""Jay Karl's Hidden Camera &amp; Practical Jokes"", 'date': '', 'YT_id': 'KHF4AOeKd2Q'}",0,1,0,290,1
47,ПОДБОРКА УГАРНЫХ ПРИКОЛОВ ДО СЛЕЗ/ СВЕЖАЯ НАРЕЗКА 2019 ДЛЯ ВАС!,"{'views': 1287339, 'by': 'Паранойя ТВ', 'date': '', 'YT_id': 'ly8gAhXToJg'}",1,2,290,580,1
48,"Умом россию не понять, Russia does not understand the mind","{'views': 2862081, 'by': 'Денис Дуров', 'date': '', 'YT_id': 'SbAausgtkcM'}",0,2,0,580,1
49,"Он бы подошел,я бы отвернулась Верка Сердючка/ТОП ПРИКОЛОВ/женщины...","{'views': 1732091, 'by': 'Tvoi Mir', 'date': '', 'YT_id': 'oRf3iG7pOFg'}",2,2,580,580,1
50,Fatal accidents with large ships(ship sinking? human error?),"{'views': 2205546, 'by': 'X-MarcosTitanic', 'date': '', 'YT_id': 'aRI845IC4KQ'}",2,1,580,290,1
51,飛機史上危險著陸瞬間 │Airplane Emergency Landings,"{'views': 5776686, 'by': 'Yacool TV', 'date': '', 'YT_id': 'A32ERgnkDmA'}",1,1,290,290,1
52,Disaster in India | Boeing 737 Crash | Asleep at the Controls | Air India Express Flight 812 | 4K,"{'views': 2589095, 'by': 'TheFlightChannel', 'date': '', 'YT_id': 'wo89QGbMdXw'}",2,0,580,0,1
53,飛機史上危險著陸瞬間 │Airplane Emergency Landings,"{'views': 5776686, 'by': 'Yacool TV', 'date': '', 'YT_id': 'A32ERgnkDmA'}",1,0,290,0,1
54,Ethiopië Airlines B737 crasht na het opstijgen Ethiopia Airlines vlucht 409 | X-Plane 11,"{'views': 1543921, 'by': 'Bopbibun', 'date': '', 'YT_id': 'XVMKVBAHE5k'}",0,1,0,290,1
55,Air New Zealand Emergency Landing Without Rear Landing Gears | X-Plane 11,"{'views': 912984, 'by': 'Bopbibun', 'date': '', 'YT_id': 'uDJfInOVrTs'}",0,0,0,0,1
56,"KLM 747 Extreme Jet Blast blowing People away at Maho Beach, St. Maarten - 2014-01-14","{'views': 13647097, 'by': 'Kai A. Hortmann', 'date': '', 'YT_id': 'GqVjD3nBSQg'}",0,2,0,580,1
57,BOEING 747 vs. CESSNA Citation - GET OUT OF MY WAY (4K),"{'views': 4567035, 'by': 'Cargospotter', 'date': '', 'YT_id': 'gXPUXOl0qQ0'}",1,2,290,580,1
58,Ship Launch Gone Wrong: SYMPHONY PROVIDER stuck on slipway,"{'views': 3026357, 'by': 'HD1080ide', 'date': '', 'YT_id': 'j9eQkZlR4Wk'}",2,2,580,580,1
59,Ships CRASHING Into Shore! (Ships Beaching),"{'views': 1633089, 'by': 'Cosmic List', 'date': '', 'YT_id': 'tX-EBczgQ_Q'}",1,1,290,290,1
60,TOP 10 Extreme plane Landing (hard landing),"{'views': 6820181, 'by': 'THE TOP 10', 'date': '28 mei 2018', 'YT_id': 'q65mCLCoEwA'}",2,1,580,290,1
61,ВОЛНЫ РАЗРУШАЮТ ЯХТЫ И КАТЕРА,"{'views': 763791, 'by': 'загадки мира HD', 'date': '', 'YT_id': 'eKaQVmli0Ac'}",2,0,580,0,1
62,Выборка штормовая,"{'views': 2565903, 'by': 'Александр Сухоруков', 'date': '', 'YT_id': 'BClpt45WdIQ'}",1,0,290,0,1
63,"Гениальные Быстрые Работники Если Бы Камера Не Записала их, Они Бы Им Не Поверили","{'views': 1612775, 'by': 'Show A Boss', 'date': '', 'YT_id': '5xyY96IZ9qc'}",0,0,0,0,1
64,Ingenious Workers That Are On Another Level ▶5,"{'views': 3202838, 'by': 'Tech HD', 'date': '', 'YT_id': 'vHjPOg_ELII'}",0,1,0,290,1
65,Extreme Technology Fastest Biggest Tree Top Felling Cutting Down Latest Turbo ChainSaw Skills,"{'views': 4448406, 'by': 'RC Crash World', 'date': '', 'YT_id': '1HAXlOatsRI'}",0,2,0,580,1
66,"Dangerous Large Wood Chainsaw Machines Cutting Down Tree, Extreme Biggest Machine Felling Big Tree","{'views': 1331323, 'by': 'Modern CNC Machines', 'date': '', 'YT_id': 'J2LNMm5-0uI'}",1,2,290,580,1
67,Removal of big Pine-tree (Part1),"{'views': 318843, 'by': 'patkarlsson', 'date': '', 'YT_id': 's1of-P8yxHg'}",2,2,580,580,1
68,Baumfällung Eiche 2,"{'views': 74568, 'by': 'abajotador', 'date': '', 'YT_id': 'IzItEWGGtIM'}",1,1,290,290,1
69,Abbattimento Faggio con Stihl Ms661,"{'views': 25970, 'by': 'Simone Cetta', 'date': '27 mei 2016', 'YT_id': 'QSUnlxNsvxs'}",2,1,580,290,1
70,Technique d’abattage de base,"{'views': 556308, 'by': 'inverde: forum voor groenexpertise', 'date': '', 'YT_id': 'WJl775NkSqA'}",2,0,580,0,1
71,Extreme Dangerous Biggest Tree Felling ¦¦ Amazing Fastest Trees Cutting Down with Chainsaw Machine,"{'views': 479622, 'by': 'Best Woodworking', 'date': '', 'YT_id': '47Cww4xqI80'}",1,0,290,0,1
72,60 foot silo d7 cat 2,"{'views': 211429, 'by': 'snonbos', 'date': '', 'YT_id': '-xaks_7M9nw'}",0,1,0,290,1
73,A Day at the Mill,"{'views': 1034527, 'by': 'MrShoptaw', 'date': '', 'YT_id': 'DHM_ztAUqVc'}",0,0,0,0,1
74,THE MAKING(English Version) (314)The Making of Steel Balls,"{'views': 2788942, 'by': 'jstsciencechannel', 'date': '', 'YT_id': '19duYMdiXi0'}",1,2,290,580,1
75,Machining a Cast Iron Bearing,"{'views': 1364551, 'by': 'Abom79', 'date': '', 'YT_id': 'L5yVpvCav_U'}",0,2,0,580,1
76,800HP Incredible Subaru Engine Build Part 1 l Subi-Performance,"{'views': 753324, 'by': 'Subi Performance', 'date': '', 'YT_id': 'ZS4hDJLt5qU'}",1,1,290,290,1
77,Ingenious Workers That Are On Another Level ▶5,"{'views': 3202838, 'by': 'Tech HD', 'date': '', 'YT_id': 'vHjPOg_ELII'}",2,1,580,290,1
78,Amazing Creative Construction Worker You MUST SEE #1,"{'views': 1214486, 'by': 'Captain Gizmo', 'date': '', 'YT_id': '7JatI8cr3Y8'}",2,0,580,0,1
79,How To Cut A Floor Tile Circle For Toilet Flange,"{'views': 4822156, 'by': 'HouseImprovements', 'date': '', 'YT_id': 'T2zEggf6mYI'}",1,0,290,0,1
80,LANG-Version Brunoplast NIVIFIX Fliesen-Nivelliersystem,"{'views': 365559, 'by': 'Brunoplast.de', 'date': '', 'YT_id': 'NSvb3xgBGtM'}",0,1,0,290,1
81,La posa con distanziatori autolivellanti,"{'views': 315904, 'by': 'Ceramica Rondine', 'date': '', 'YT_id': 'vW-kP1l6v64'}",0,0,0,0,1
82,How to Use a Tile Leveling System the Right Way,"{'views': 398302, 'by': 'Landberg Tile DIY TV', 'date': '', 'YT_id': '2z5UbWawBAY'}",1,2,290,580,1
83,Decorative Concrete Melbourne - Flake Flooring,"{'views': 7388531, 'by': 'Master Contractors', 'date': '', 'YT_id': '951CzoJoSn4'}",2,2,580,580,1
84,"Snow White, Gray, Sky Blue Epoxy Floor","{'views': 144037, 'by': 'Leggari Products', 'date': '', 'YT_id': 'aE4LC3nU9zw'}",1,1,290,290,1
85,Acrylic pouring  - double Flip Cup - something you must have seen!,"{'views': 13879, 'by': 'Tiktus color Art', 'date': '', 'YT_id': 'RA9aWoPv9rs'}",2,1,580,290,1
86,20 Acrylic Pours in 10 minutes,"{'views': 48993, 'by': 'LansingGoals', 'date': '', 'YT_id': '9lCz4yzbgJQ'}",2,0,580,0,1
87,"#306 Bronze ""Swipe And Tilt"" Acrylic Pour,","{'views': 13057, 'by': 'Pouring Your Heart Out', 'date': '', 'YT_id': 'dOCr6GBjB58'}",1,0,290,0,1
88,#103. Another lazy open cup pour.,"{'views': 5145, 'by': 'Waterfall Acrylics', 'date': '', 'YT_id': 'Uu0Y3A51Y_Y'}",0,1,0,290,1
89,(175) Pro Tips & Troubleshooting Fluid Acrylics Paint Pouring - Flow Art,"{'views': 24020, 'by': 'Gina DeLuca', 'date': '', 'YT_id': 'hB2iAjp48j8'}",0,2,0,580,1
90,20 Acrylic Pours in 10 minutes,"{'views': 48993, 'by': 'LansingGoals', 'date': '', 'YT_id': '9lCz4yzbgJQ'}",1,2,290,580,1
91,Acrylic Pouring String Pull,"{'views': 20045, 'by': 'Mixed Media Girl', 'date': '', 'YT_id': '2CFm0hvaQHQ'}",2,2,580,580,1
92,"Fluid Acrylics, Weedy Spikey Spirally Fantasy Garden#4334-2.06.19","{'views': 51467, 'by': 'Expressionist Art Studio Gallery Priscilla Batzell', 'date': '', 'YT_id': 'zA1uv90r2b8'}",1,1,290,290,1
93,(175) Pro Tips & Troubleshooting Fluid Acrylics Paint Pouring - Flow Art,"{'views': 24020, 'by': 'Gina DeLuca', 'date': '', 'YT_id': 'hB2iAjp48j8'}",2,1,580,290,1
94,Fluid Painting THE TIGER!! Acrylic Pour Painting Wigglz Art..,"{'views': 49814, 'by': ""Wigglz' Art"", 'date': '', 'YT_id': '01h46fpY2ks'}",2,0,580,0,1
95,Double pour acrylic flow art blues terracotta pot silicone added half way through,"{'views': 56525, 'by': 'Kalena Flows', 'date': '3 mei 2018', 'YT_id': 'wLxJlGRaDBc'}",1,0,290,0,1
96,Flower dip technique,"{'views': 116405, 'by': 'Fiona Art', 'date': '', 'YT_id': 'w75K2hotiEc'}",0,0,0,0,1
97,(336) Double Bottle Bottom - Acrylic Pouring,"{'views': 21324, 'by': 'Christina Welch', 'date': '', 'YT_id': 'LkaYRE1rzbU'}",0,1,0,290,1
98,Pretty 10x20 Deep turquoise balloon smash acrylic pour painting,"{'views': 5696, 'by': ""Sherri's Life"", 'date': '', 'YT_id': 'xxG4kXIUy7o'}",0,2,0,580,1
99,Acrylic Pour -Large Canvas - 68 x 16 inch canvas! Tutorial - 5 Flip Cups,"{'views': 17532, 'by': 'J&amp;E Made', 'date': '', 'YT_id': 'OY9GhdhxfxQ'}",1,2,290,580,1
100,#288 Oriental Swipe With Balloon Dip Acrylic Pour,"{'views': 47238, 'by': 'Pouring Your Heart Out', 'date': '', 'YT_id': 'zpK71LCumTU'}",2,2,580,580,1
101,Fluid painting SWIPE with baking paper - Easy Beginners Technique!! - DE | EN,"{'views': 194703, 'by': 'Tiktus color Art', 'date': '', 'YT_id': 'nHmxN7ulUNk'}",2,1,580,290,1
102,Giet in acryl - De gebroken mok is terug.,"{'views': 42630, 'by': 'Tiktus color Art', 'date': '', 'YT_id': 'RIqr1yagBGQ'}",2,0,580,0,1
103,Flip and Drag on a Large Canvas,"{'views': 486828, 'by': 'Mixed Media Girl', 'date': '', 'YT_id': 'E7sr0j9bvNY'}",1,0,290,0,1
104,2 Common Problems When Acrylic Pouring,"{'views': 44342, 'by': 'Mixed Media Girl', 'date': '', 'YT_id': 'TQrpshhq0mA'}",0,0,0,0,1
105,What to Know When Paint Pouring for the First Time,"{'views': 19935, 'by': 'Carolyn Dube', 'date': '', 'YT_id': 'eujLUCkY_BA'}",0,1,0,290,1
106,Poured Acrylic Painting HOW TO MIX YOUR PAINTS TUTORIAL by Maigan Lynn,"{'views': 36946, 'by': 'Maigan Lynn', 'date': '', 'YT_id': 'RTNRuR9zIgo'}",1,1,290,290,1
107,#150 Red Ring Pour With Thinner Mix,"{'views': 4558, 'by': 'Pouring Your Heart Out', 'date': '', 'YT_id': 'BqeogmvZ_MI'}",0,2,0,580,1
108,"#139 Swipe With High Flow Paints, Glue and Wate","{'views': 6104, 'by': 'Pouring Your Heart Out', 'date': '', 'YT_id': 'RTZq1FccnAI'}",1,2,290,580,1
109,#134 Beach Pour WITH Silicone,"{'views': 3011, 'by': 'Pouring Your Heart Out', 'date': '', 'YT_id': '5KPM2Yvy4S8'}",2,1,580,290,1
110,#310 How To Use High Flow Paints In A Flip Cup Pour,"{'views': 3337, 'by': 'Pouring Your Heart Out', 'date': '', 'YT_id': 'oXCwmBWwidk'}",2,2,580,580,1
111,(129) Acrylic Pouring Flip and Drag w/ OGX Coconut Milk Hair Serum - Flow Art,"{'views': 92943, 'by': 'Gina DeLuca', 'date': '', 'YT_id': 'f2miM7DDaPk'}",2,0,580,0,1
112,(308) Balloon Smash - Acrylic Pouring,"{'views': 27581, 'by': 'Christina Welch', 'date': '', 'YT_id': 'sEMcTQdMb5w'}",1,0,290,0,1
113,(336) Double Bottle Bottom - Acrylic Pouring,"{'views': 21324, 'by': 'Christina Welch', 'date': '', 'YT_id': 'LkaYRE1rzbU'}",0,0,0,0,1
114,20 Acrylic Pours in 10 minutes,"{'views': 48993, 'by': 'LansingGoals', 'date': '', 'YT_id': '9lCz4yzbgJQ'}",0,1,0,290,1
115,Fluid Painting THE TIGER!! Acrylic Pour Painting Wigglz Art..,"{'views': 49814, 'by': ""Wigglz' Art"", 'date': '', 'YT_id': '01h46fpY2ks'}",1,1,290,290,1
116,Acrylic Pouring Compilation,"{'views': 129582, 'by': 'David Schvedov', 'date': '', 'YT_id': 'arwHVip0-RI'}",0,2,0,580,1
117,"#306 Bronze ""Swipe And Tilt"" Acrylic Pour,","{'views': 13057, 'by': 'Pouring Your Heart Out', 'date': '', 'YT_id': 'dOCr6GBjB58'}",1,2,290,580,1
118,Reverse ring pour,"{'views': 8537, 'by': 'Tracie Reed', 'date': '', 'YT_id': 'aPrRBACJBM4'}",2,1,580,290,1
119,Acrylic Pouring Compilation,"{'views': 129582, 'by': 'David Schvedov', 'date': '', 'YT_id': 'arwHVip0-RI'}",2,2,580,580,1
120,Flower dip technique,"{'views': 116405, 'by': 'Fiona Art', 'date': '', 'YT_id': 'w75K2hotiEc'}",1,0,290,0,1
121,430 Dipping Not Pouring  What will that create?,"{'views': 256216, 'by': 'McE Art', 'date': '', 'YT_id': '6eseuXyNUfs'}",0,0,0,0,1
122,20 Acrylic Pours in 10 minutes,"{'views': 48993, 'by': 'LansingGoals', 'date': '', 'YT_id': '9lCz4yzbgJQ'}",0,1,0,290,1
123,Fluid painting SWIPE with baking paper - Easy Beginners Technique!! - DE | EN,"{'views': 194703, 'by': 'Tiktus color Art', 'date': '', 'YT_id': 'nHmxN7ulUNk'}",1,1,290,290,1
124,acryl gieten - Center Swipe - zwart en blauw,"{'views': 333860, 'by': 'Tiktus color Art', 'date': '', 'YT_id': 'Q3GXJZeTLxI'}",2,0,580,0,1
125,Fluid Painting Acrylic STRING SWIPE? Wigglz Art Amazing Results Please Share! Recipe in description.,"{'views': 1146382, 'by': ""Wigglz' Art"", 'date': '', 'YT_id': 'P1l46diljvI'}",0,2,0,580,1
126,(115) Abstract Yarn Pulling Acrylic Pouring,"{'views': 165008, 'by': 'Christina Welch', 'date': '', 'YT_id': 'cQx1zQJ6Du4'}",1,2,290,580,1
127,(180)Flipcup same colors,"{'views': 652707, 'by': 'Michaela Studio13', 'date': '', 'YT_id': '9a1msATYzRk'}",2,1,580,290,1
128,"pouring painting with open cups ,big cells, Floetrol,Wasser,Silikon. Acrylfarben gießen. (23)","{'views': 151278, 'by': 'Michaela Studio13', 'date': '', 'YT_id': 'gc3_wfkqelo'}",2,2,580,580,1
129,Flip and Drag on a Large Canvas,"{'views': 486828, 'by': 'Mixed Media Girl', 'date': '', 'YT_id': 'E7sr0j9bvNY'}",1,0,290,0,1
130,Silicone vs. No Silicone,"{'views': 1915744, 'by': 'Mixed Media Girl', 'date': '', 'YT_id': 'xgb8jW0JzIU'}",0,1,0,290,1
131,Getting Started With Acrylic Pouring,"{'views': 76864, 'by': 'Mixed Media Girl', 'date': '', 'YT_id': 'doBv-eF5jkE'}",0,0,0,0,1
132,2 Common Problems When Acrylic Pouring,"{'views': 44342, 'by': 'Mixed Media Girl', 'date': '', 'YT_id': 'TQrpshhq0mA'}",1,1,290,290,1
133,#271 Amazing Pour With Elmer's School Glue,"{'views': 152436, 'by': 'Pouring Your Heart Out', 'date': '', 'YT_id': '63vqHCEZcmc'}",0,2,0,580,1
134,#193 Metallic Flip Cup Pour With Glue And Water,"{'views': 292352, 'by': 'Pouring Your Heart Out', 'date': '', 'YT_id': 'VOHeTShvUGU'}",1,2,290,580,1
135,Acrylic Pouring Compilation,"{'views': 129582, 'by': 'David Schvedov', 'date': '', 'YT_id': 'arwHVip0-RI'}",2,1,580,290,1
136,Sun & Moon / Abstract Painting / Very Simple / Fun / Demonstration / Project 365 days / Day #0322,"{'views': 109584, 'by': 'SurajFineArts - Abstract ART', 'date': '', 'YT_id': 'wbXFGCy9zAc'}",2,2,580,580,1
137,"Fluid Acrylics .Going With The Flow ,Lots Of Tools# 3902-12.04.18","{'views': 334080, 'by': 'Expressionist Art Studio Gallery Priscilla Batzell', 'date': '', 'YT_id': 'UFBJkX8CcHw'}",2,0,580,0,1
138,(180)Flipcup same colors,"{'views': 652707, 'by': 'Michaela Studio13', 'date': '', 'YT_id': '9a1msATYzRk'}",1,0,290,0,1
139,(189) Flipcup same colors,"{'views': 4385, 'by': 'Michaela Studio13', 'date': '', 'YT_id': 'CiX4V0QR8dc'}",0,0,0,0,1
140,"(118) How to Funnel Pour with Acrylic Paint, WoW","{'views': 200332, 'by': 'Carole Penhale King', 'date': '', 'YT_id': 'cCRpUrzLkD0'}",0,1,0,290,1
141,Fluid Painting THE TIGER!! Acrylic Pour Painting Wigglz Art..,"{'views': 49814, 'by': ""Wigglz' Art"", 'date': '', 'YT_id': '01h46fpY2ks'}",1,1,290,290,1
142,(91) Bottle Bottom Acrylic Paint Pouring,"{'views': 266532, 'by': 'Carole Penhale King', 'date': '', 'YT_id': 'OEkT3WdTO_g'}",1,2,290,580,1
143,(200)pouring 4 colors 30x40cm,"{'views': 818821, 'by': 'Michaela Studio13', 'date': '', 'YT_id': 'yZAy06GusHA'}",0,2,0,580,1
144,(180)Flipcup same colors,"{'views': 652707, 'by': 'Michaela Studio13', 'date': '', 'YT_id': '9a1msATYzRk'}",2,2,580,580,1
145,(145) Bottle Bottom Pour Acrylic Pouring,"{'views': 795521, 'by': 'Christina Welch', 'date': '15 mei 2018', 'YT_id': 'FBgHSHvrUrc'}",2,1,580,290,1
146,(88) Candy Corn Colored Sink Strainer Acrylic Pour :P,"{'views': 5208, 'by': 'CraftyJenn', 'date': '', 'YT_id': 'xHsQbYeLhc0'}",2,0,580,0,1
147,Flip and Drag on a Large Canvas,"{'views': 486828, 'by': 'Mixed Media Girl', 'date': '', 'YT_id': 'E7sr0j9bvNY'}",1,0,290,0,1
148,Acrylic pouring  - double Flip Cup - something you must have seen!,"{'views': 13879, 'by': 'Tiktus color Art', 'date': '', 'YT_id': 'RA9aWoPv9rs'}",0,0,0,0,1
149,#74 Iridescent copper and blue flip cup Acrylic pouring,"{'views': 5521, 'by': 'Saskia Smit', 'date': '', 'YT_id': 'ZbxIDS6sopE'}",1,1,290,290,1
150,Acrylic Pouring Compilation,"{'views': 129582, 'by': 'David Schvedov', 'date': '', 'YT_id': 'arwHVip0-RI'}",0,1,0,290,1
151,(336) Double Bottle Bottom - Acrylic Pouring,"{'views': 21324, 'by': 'Christina Welch', 'date': '', 'YT_id': 'LkaYRE1rzbU'}",0,2,0,580,1
152,(322) Double Bottle Bottom Pour - Acrylic Pouring,"{'views': 5444, 'by': 'Christina Welch', 'date': '', 'YT_id': '2XFeWUB3Ixc'}",1,2,290,580,1
153,Acryl Flip Cup-gieten met 3 kleuren en wit negatief gebied,"{'views': 92953, 'by': 'Tiktus color Art', 'date': '', 'YT_id': '1jR0HMv2gYo'}",2,2,580,580,1
154,acryl gieten - Center Swipe - zwart en blauw,"{'views': 333860, 'by': 'Tiktus color Art', 'date': '', 'YT_id': 'Q3GXJZeTLxI'}",2,1,580,290,1
155,"Acrylic Pour Painting: Steady Swiping With A 24"" Straight Edge","{'views': 509532, 'by': 'Caren Goodrich', 'date': '', 'YT_id': '84D_eMIu7QE'}",1,0,290,0,1
156,(180)Flipcup same colors,"{'views': 652707, 'by': 'Michaela Studio13', 'date': '', 'YT_id': '9a1msATYzRk'}",0,0,0,0,1
157,( 781 ) Acrylic pouring but different,"{'views': 46876, 'by': 'annemarie ridderhof', 'date': '', 'YT_id': '8-2TcvFr36k'}",1,1,290,290,1
158,Fluid Painting Acrylic Pouring! FUNNEL SEEPING? Wigglz Art Really Easy Beginners Pour!!,"{'views': 72590, 'by': ""Wigglz' Art"", 'date': '', 'YT_id': 'Bdx8pgGBxSk'}",2,0,580,0,1
159,Acrylic Pouring Compilation,"{'views': 129582, 'by': 'David Schvedov', 'date': '', 'YT_id': 'arwHVip0-RI'}",0,2,0,580,1
160,10 WALL PAINTING IDEAS  COOL DESIGN AND EASY METHOD,"{'views': 2344544, 'by': 'Kotresh Koti', 'date': '', 'YT_id': 'FBpFqWGm4wQ'}",1,2,290,580,1
161,Asian paints tiles type of wall painting design exterior on wall,"{'views': 1572206, 'by': 'Kotresh Koti', 'date': '', 'YT_id': 'Xmfx5H2E33s'}",2,2,580,580,1
162,اصنع بنفسك أجمل ديكور ثري دي ورق حائط بقطعة كرتون و زجاجة اسبراي,"{'views': 266619, 'by': 'أحمد ثابت Ahmed Thabet art', 'date': '', 'YT_id': 'jp5XoyZ3-r4'}",2,1,580,290,1
163,Toilet Paper Rolls Dandelion Q Tip Painting Technique |  Easy Creative Art,"{'views': 218061, 'by': 'Jay Lee Painting', 'date': '', 'YT_id': 'zz384I62s7U'}",1,0,290,0,1
164,One Stroke Painting- Quick and Easy Bunch of Rose,"{'views': 540447, 'by': 'StrokeartDesigns', 'date': '', 'YT_id': 'yqydeWwxANI'}",0,1,0,290,1
165,How to use ANGLE BRUSHES! | Donna Dewberry (2018),"{'views': 142601, 'by': 'Donna Dewberry', 'date': '', 'YT_id': 't2fS11B0etg'}",1,1,290,290,1
166,How to use some of my FAVORITE BRUSHES! | Donna Dewberry (2018),"{'views': 121614, 'by': 'Donna Dewberry', 'date': '', 'YT_id': 'pXTm5B099zc'}",0,0,0,0,1
167,How to paint trees with fan brush -  Acrylic lesson,"{'views': 1722954, 'by': 'Acrylic Painting Techniques', 'date': '22 mei 2017', 'YT_id': '6DyEggOYOCc'}",0,2,0,580,1
168,Do's and Don't on Painting a Tree in Acrylic by JM Lisondra,"{'views': 350304, 'by': 'Art of John Magne Lisondra', 'date': '', 'YT_id': 'eWxMjAud-NE'}",1,2,290,580,1
169,"5 tips you should always do when using acrylic paint,Clive5art","{'views': 431460, 'by': 'CLIVE5ART', 'date': '', 'YT_id': 'k1v18PL6fho'}",2,2,580,580,1
170,Flower dip technique,"{'views': 116405, 'by': 'Fiona Art', 'date': '', 'YT_id': 'w75K2hotiEc'}",2,1,580,290,1
171,"Simple acrylic pour, open cup without silicone --1 of 4--","{'views': 17577, 'by': 'Elyse Fournier', 'date': '', 'YT_id': '35aKSwTLfr0'}",2,0,580,0,1
172,For the Love of Cells - Part II (Fluid Acrylic),"{'views': 11073, 'by': 'Elyse Fournier', 'date': '', 'YT_id': 'r5d2d9wxJPk'}",1,0,290,0,1
173,Fluid Painting Acrylic Pouring! FUNNEL SEEPING? Wigglz Art Really Easy Beginners Pour!!,"{'views': 72590, 'by': ""Wigglz' Art"", 'date': '', 'YT_id': 'Bdx8pgGBxSk'}",0,1,0,290,1
174,Fluid Painting Acrylic Dirty Pouring Must SEE!!Wigglz Art Easy Funky Beginners Technique!!Plz Sub,"{'views': 12991, 'by': ""Wigglz' Art"", 'date': '', 'YT_id': '3AjhGeShck4'}",1,1,290,290,1
175,Fluid painting SWIPE with baking paper - Easy Beginners Technique!! - DE | EN,"{'views': 194703, 'by': 'Tiktus color Art', 'date': '', 'YT_id': 'nHmxN7ulUNk'}",0,2,0,580,1
176,"pouring painting with open cups ,big cells, Floetrol,Wasser,Silikon. Acrylfarben gießen. (23)","{'views': 151278, 'by': 'Michaela Studio13', 'date': '', 'YT_id': 'gc3_wfkqelo'}",1,2,290,580,1
177,"pouring 24x30cm, with Silicone(153)","{'views': 107500, 'by': 'Michaela Studio13', 'date': '', 'YT_id': 'tm7Zu-OhZE4'}",2,2,580,580,1
178,"(181) two Flipcups and ""the Bottle""","{'views': 60047, 'by': 'Michaela Studio13', 'date': '', 'YT_id': '0xjK-z24TVY'}",2,1,580,290,1
179,20 Acrylic Pours in 10 minutes,"{'views': 48993, 'by': 'LansingGoals', 'date': '', 'YT_id': '9lCz4yzbgJQ'}",2,0,580,0,1
180,🧙Acrylic Pour Painting PART 1 of 2- Swipe Technique Demonstration - HUGE 24 x 48 Canvas (SOLD)🧙,"{'views': 604619, 'by': 'Courtney Hoelscher', 'date': '', 'YT_id': 'j5XbCSRgPSY'}",1,0,290,0,1
181,(200)pouring 4 colors 30x40cm,"{'views': 818821, 'by': 'Michaela Studio13', 'date': '', 'YT_id': 'yZAy06GusHA'}",0,1,0,290,1
182,25 CEMENT PROJECTS YOU'VE NEVER SEEN BEFORE,"{'views': 4198256, 'by': '5-MINUTE MAGIC', 'date': '', 'YT_id': 'Nq1Uv-qFls8'}",0,0,0,0,1
183,Amazing Creative Construction Worker You NEED To SEE NOW  ➤1,"{'views': 3332679, 'by': 'Top 5ves HD', 'date': '', 'YT_id': 'xnQ47HHzsPU'}",1,1,290,290,1
184,"Silver man secret revealed from start to finish, floating and levitating trick","{'views': 13717500, 'by': 'Education', 'date': '', 'YT_id': 'jsP-qhhe4Fg'}",1,2,290,580,1
185,[30] Closeup On How Lock Picking Works,"{'views': 1197628, 'by': 'HelpfulLockPicker', 'date': '30 mei 2017', 'YT_id': 'uqgyDsDvq_Y'}",0,2,0,580,1
186,How to Repair a Scuffed or Damaged Car Bumper for less than $100,"{'views': 528648, 'by': 'Clint Holland', 'date': '', 'YT_id': '6dP4WAXqBtc'}",2,1,580,290,1
187,How to Remove Scratches from Car PERMANENTLY (EASY),"{'views': 11036570, 'by': 'ChrisFix', 'date': '', 'YT_id': '2nYF46P7B2c'}",2,2,580,580,1
188,Most Insane Paint Job EVER! Step-by-Step Process,"{'views': 4312813, 'by': 'AMMO NYC', 'date': '', 'YT_id': '2BV0PMYfc3o'}",2,0,580,0,1
189,Top 15 Most Satisfying And Ingenious Factory Machines,"{'views': 1201514, 'by': 'YOUR TECH GURUS', 'date': '', 'YT_id': 'f8UKOWbAxWw'}",1,0,290,0,1
190,Amazing Homemade Inventions 2017,"{'views': 1754715, 'by': 'Latest Tech', 'date': '', 'YT_id': 'nRXl2N_Y5aM'}",0,0,0,0,1
191,"The Cri cri ,  ""Cricket""","{'views': 1784356, 'by': 'charger348', 'date': '', 'YT_id': 'BOpNTIGC5M4'}",0,1,0,290,1
192,Xem công nghệ khai thác gỗ của người ta....,"{'views': 10731099, 'by': 'thomaycc', 'date': '', 'YT_id': 'SYCIKN5M0LU'}",1,2,290,580,1
193,Sturmschaden - Problembaumfällung - Teleskoplader Merlo 4030 -Woodcracker - Holzfäller im Einsatz,"{'views': 2644828, 'by': 'AgrarBlick', 'date': '', 'YT_id': 'pIqCstK-pTA'}",0,2,0,580,1
194,Körnermais ernten - Mähdrescher Lexion Claas 670 TERRA TRAC - combine harvester corn harvest 2018,"{'views': 163842, 'by': 'AgrarBlick', 'date': '', 'YT_id': 'RE3pWj7P6oM'}",1,1,290,290,1
195,Harvest at Beefwood Farms 2018,"{'views': 164670, 'by': 'kallekk88', 'date': '', 'YT_id': 'JEUMgY9RJXc'}",2,1,580,290,1
196,Stone Picker ( stone collector ) Taş toplama makinesi - Yüksel Tarım,"{'views': 529761, 'by': 'Oguz Arslan', 'date': '', 'YT_id': 'AjPwXSknEuc'}",2,0,580,0,1
197,Aardappelen uitschuren 2016 Melody,"{'views': 408290, 'by': 'Gerben van Buuren', 'date': '', 'YT_id': '6dPjQdLqV1I'}",1,0,290,0,1
198,Sapphire art stone feslikan mermer ocağı,"{'views': 1316483, 'by': 'Melih Cantürk', 'date': '', 'YT_id': 'g4C7HDI7Fbc'}",0,0,0,0,1
199,Xem công nghệ khai thác gỗ của người ta....,"{'views': 10731099, 'by': 'thomaycc', 'date': '', 'YT_id': 'SYCIKN5M0LU'}",0,1,0,290,1
200,Inter-Drain GP-Series V plow | laying trenchless field drainage | Van Damme Drainage,"{'views': 54796818, 'by': 'Tractorspotter', 'date': '', 'YT_id': '_5hfE8ReeiI'}",1,2,290,580,1
201,OLSZTYN24: Przesadzanie drzew w Olsztynie,"{'views': 10891373, 'by': 'Olsztyn24 - Gazeta On-Line', 'date': '', 'YT_id': 'hyGznkp1PYk'}",0,2,0,580,1
202,Mesin Pembelah Kayu Raksasa - Mesin Canggih Pemotong Kayu,"{'views': 2721666, 'by': 'Rizlan Videos', 'date': '', 'YT_id': '5bTMzEmb-9Y'}",1,1,290,290,1
203,impossible!!! Tricks with Glass Bottle and Nail,"{'views': 4518883, 'by': 'Mr SunY', 'date': '', 'YT_id': '1kOBD4xDp7g'}",2,2,580,580,1
204,Railroad thermite welding,"{'views': 20337990, 'by': 'Wolfgang Lendner', 'date': '', 'YT_id': '5uxsFglz2ig'}",2,1,580,290,1
205,Electric 2019 Free Energy Generator 100% Self Running With DC Motor Using Wheel,"{'views': 18145213, 'by': 'Info Yourself', 'date': '', 'YT_id': 'z2q_UwD2bvE'}",2,0,580,0,1
206,cara membuat AC kipas angin,"{'views': 26045737, 'by': 'TuahRaja', 'date': '', 'YT_id': 'NYIE8jDjR24'}",1,0,290,0,1
207,TÜRK YAPIMI PRATİK BULUŞ,"{'views': 381187, 'by': 'Ben Sunay Usta', 'date': '', 'YT_id': 'LH97SlJOzvA'}",0,1,0,290,1
208,Zie en leer gemakkelijkeraksteen te bouwen die concurreert met gipsen werken,"{'views': 575453, 'by': 'ابو حمودى المصرى', 'date': '', 'YT_id': 'LCZWvi2O9KE'}",0,0,0,0,1
209,تعلم بناء القبه مسجد الجزء الاخير  نهاية القبه 2019,"{'views': 56347, 'by': 'احمد البنا', 'date': '', 'YT_id': 'o36qBDLxBZE'}",1,2,290,580,1
210,"Concrete stamp Kremona making, track by Foolloop","{'views': 1603133, 'by': 'Forme Di Cemento', 'date': '', 'YT_id': 'XPgyXrjnJeg'}",1,1,290,290,1
211,13 creative wall painting hacks and designs,"{'views': 390435, 'by': 'Kotresh Koti', 'date': '', 'YT_id': 'FqUrLzBErjI'}",0,2,0,580,1
212,7 способов создания валика для декора своими руками. Для краски и штукатурки. Не выбрасывай в мусор,"{'views': 669296, 'by': 'Декор студия Cappella', 'date': '', 'YT_id': 'V24D5VRF5Js'}",2,2,580,580,1
213,Alsecco Land Effect,"{'views': 245821, 'by': 'Alsecco Türkiye', 'date': '', 'YT_id': 'FAl-xcSPBY0'}",2,1,580,290,1
214,18 COOLE UND EINFACHE DIY IDEEN FÜR WANDDEKORATIONEN UM DEINEN WOHNRAUM ZU VERWANDELN,"{'views': 5053090, 'by': '5-MINUTEN TRICKS', 'date': '', 'YT_id': 'MrBKkQ49QKc'}",2,0,580,0,1
215,33 EINFACH BRILLANTE IDEEN ZUR WANDBEMALUNG,"{'views': 187472, 'by': '5-MINUTEN TRICKS', 'date': '', 'YT_id': '0v8W7DZNAVk'}",1,0,290,0,1
216,Hoogst Vindingrijke Werknemers Die Op Een Ander Niveau Zitten,"{'views': 8075119, 'by': 'Quantum Tech HD', 'date': '', 'YT_id': 'JKdPsqh2Xs8'}",0,1,0,290,1
217,20 Ideas Increíbles Con WD-40,"{'views': 7309326, 'by': 'Ideas Simples — Simple Ideas', 'date': '', 'YT_id': '_QcCsviG6gQ'}",0,0,0,0,1
218,4 conseils étonnants avec des serrures - astuces pour la vie de tous les jours,"{'views': 8158387, 'by': 'Cititi', 'date': '', 'YT_id': 'pHQa0SWemMY'}",1,1,290,290,1
219,Hoe een combinatieslot in seconden te kraken! - GEEN HULPMIDDELEN (life hack),"{'views': 11085428, 'by': 'MAD Science Hacks', 'date': '', 'YT_id': 'Z392cj8GM5U'}",1,2,290,580,1
220,4 conseils étonnants avec des serrures - astuces pour la vie de tous les jours,"{'views': 8158387, 'by': 'Cititi', 'date': '', 'YT_id': 'pHQa0SWemMY'}",2,2,580,580,1
221,40 ASTUCES DE RÉPARATION POUR UNE VIE PLUS FACILE,"{'views': 1215043, 'by': 'BRICO SYMPA', 'date': '', 'YT_id': '0itBZI6PiDc'}",2,1,580,290,1
222,12 Astuces avec le papier d'aluminium,"{'views': 982655, 'by': 'Mr.Tom', 'date': '', 'YT_id': '60Y0wH2hDUk'}",2,0,580,0,1
223,3 INCREÍBLES TRUCOS CON HERRAMIENTAS,"{'views': 1689104, 'by': 'zzSHOWzz', 'date': '', 'YT_id': 'gOan2zr24i0'}",1,0,290,0,1
224,Mutlaka Görmeniz Gereken Harika Buluş,"{'views': 882610, 'by': 'Ben Sunay Usta', 'date': '', 'YT_id': 'c5yCGATzJhg'}",0,1,0,290,1
225,Relax Mouse/Rat Trap/How to make A Mouse Trap Homemade easy Saving A lot of Mice,"{'views': 726082, 'by': 'Mouse Channel', 'date': '', 'YT_id': 'yrVFyhsqC90'}",0,2,0,580,1
226,impossible!!! Tricks with Glass Bottle and Nail,"{'views': 4518883, 'by': 'Mr SunY', 'date': '', 'YT_id': '1kOBD4xDp7g'}",1,1,290,290,1
227,Dos maneras de  sacar una llave rota,"{'views': 10175099, 'by': 'delasadas técnica', 'date': '', 'YT_id': 'POi1LfwN-PI'}",1,2,290,580,1
228,TÜRK YAPIMI PRATİK BULUŞ,"{'views': 381225, 'by': 'Ben Sunay Usta', 'date': '', 'YT_id': 'LH97SlJOzvA'}",2,2,580,580,1
229,✔Полезная самоделка для ДРЕЛИ из ОБЫЧНЫХ ПЛАСТИКОВЫХ ТРУБ,"{'views': 928864, 'by': 'AVTO CLASS', 'date': '', 'YT_id': 'StBxn5KBOWE'}",2,1,580,290,1
230,"レザークラフトに最適！製作費3,000円の菱目打ち機のアイディア～Make a rhyming machine【DIY IDEAS, CRAFT】","{'views': 918569, 'by': 'jisaku-kobo / 自作工房', 'date': '', 'YT_id': 'Yx4l_cJQKwg'}",2,0,580,0,1
231,DIY Drill Powered Lathe,"{'views': 1103218, 'by': 'One Minute Workbench', 'date': '20 mei 2018', 'YT_id': '7gTRuCgDSPc'}",1,0,290,0,1
232,How To Make a Wood Ring Making Machine,"{'views': 257859, 'by': 'izzy swan', 'date': '', 'YT_id': 'F3-OHeRXkNQ'}",0,0,0,0,1
233,Building the Oscillating Spindle Sander - Salınımlı Rulo Zımpara Makinası,"{'views': 1061082, 'by': 'Gökmen ALTUNTAŞ', 'date': '', 'YT_id': 'qGNrrHoAYwE'}",0,1,0,290,1
234,How to make Orbital Sander with fan ?????,"{'views': 884239, 'by': 'Daniele Tartaglia', 'date': '', 'YT_id': 'f5YZr4B4_00'}",0,2,0,580,1
235,Building the Oscillating Spindle Sander - Salınımlı Rulo Zımpara Makinası,"{'views': 1061082, 'by': 'Gökmen ALTUNTAŞ', 'date': '', 'YT_id': 'qGNrrHoAYwE'}",1,2,290,580,1
236,7 Amazing  Woodworking Tips and Tricks !!!,"{'views': 2409219, 'by': 'Mr. NK', 'date': '', 'YT_id': 'aDAuqLUZ_vY'}",2,2,580,580,1
237,AMAZING BEARRING PULLER HOMEMADE  TOOL,"{'views': 2401875, 'by': 'Mr. Deswal', 'date': '', 'YT_id': 'xmK3x15SWvc'}",1,1,290,290,1
238,Top 15 Most Satisfying And Ingenious Factory Machines,"{'views': 1201514, 'by': 'YOUR TECH GURUS', 'date': '', 'YT_id': 'f8UKOWbAxWw'}",2,0,580,0,1
239,Amazing Homemade Inventions 2017,"{'views': 1754719, 'by': 'Latest Tech', 'date': '', 'YT_id': 'nRXl2N_Y5aM'}",2,1,580,290,1
240,Pulling in a main sewer pipe ~ rioolbuis trekken,"{'views': 2286477, 'by': 'BbqHoorn', 'date': '', 'YT_id': 'WVBidJcOs7w'}",1,0,290,0,1
241,Installing A Culvert Pipe For The Driveway And Covering With Surge,"{'views': 1183573, 'by': 'ImprezaRS2002', 'date': '', 'YT_id': 'd8MBL0i8ugY'}",0,0,0,0,1
242,"Laying 2"" Stone Down For The Driveway","{'views': 193540, 'by': 'ImprezaRS2002', 'date': '', 'YT_id': 'L9TfJ_jnCmo'}",0,1,0,290,1
243,Removing stumps the COOL way!,"{'views': 1721058, 'by': 'Northwest Sawyer', 'date': '', 'YT_id': 'gZvYCX_w_nI'}",1,2,290,580,1
244,Remove stumps Uklanjanje panjeva,"{'views': 19844, 'by': 'Bobo Boboo', 'date': '', 'YT_id': 'SMmQaOZiSEs'}",2,2,580,580,1
245,Pipe exploding must watch lol!!!!,"{'views': 1082649, 'by': 'Livingston Pennaman', 'date': '', 'YT_id': 'F3wZ3gaywug'}",1,1,290,290,1
246,World Dangerous Idiots Excavator Heavy Equipment Operator Skill - Fastest Climbing Excavator Driving,"{'views': 2448461, 'by': 'Machines News', 'date': '', 'YT_id': '7tpV1H_vvPQ'}",2,0,580,0,1
247,How Dangerous CAN BE the Road Trip on Most Dangerous mountain roads?,"{'views': 7129462, 'by': 'THE TOP 10', 'date': '', 'YT_id': '8TiPyCWTMAM'}",2,1,580,290,1
248,Top 10 most dangerous airports in the world,"{'views': 1209048, 'by': 'THE TOP 10', 'date': '', 'YT_id': 'OykXhUK2S04'}",1,0,290,0,1
249,Ethiopië Airlines B737 crasht na het opstijgen Ethiopia Airlines vlucht 409 | X-Plane 11,"{'views': 1544093, 'by': 'Bopbibun', 'date': '', 'YT_id': 'XVMKVBAHE5k'}",0,0,0,0,1
250,The Best CROSSWIND Landings and Take-Offs!,"{'views': 5243855, 'by': 'Ready2Fly', 'date': '', 'YT_id': 'MlXN1j-qq4g'}",0,1,0,290,1
251,Last ever 747 takeoff from St Maarten,"{'views': 656861, 'by': 'Plane Hound', 'date': '', 'YT_id': 'LtQpGcJTXrA'}",0,2,0,580,1
252,PilotsEYE.tv - A380 Landing KSFO San Francisco SUBTITLES English | without commentary |,"{'views': 14407287, 'by': 'PilotsEYE.tv', 'date': '', 'YT_id': 'ENe89j89tBA'}",1,2,290,580,1
253,EMIRATES AIRBUS A380 MILAN-DUBAI ECONOMY CLASS HD,"{'views': 608564, 'by': '2fly2', 'date': '', 'YT_id': 'uXWoOKx1PNg'}",2,2,580,580,1
254,🌊AMAZING Ship Launches Compilation! [Biggest amazing Waves],"{'views': 3130257, 'by': 'Cosmic List', 'date': '', 'YT_id': 'Q2MEpDYFsP0'}",1,1,290,290,1
255,Top 5 LARGEST Rogue Waves,"{'views': 5177989, 'by': 'Top Fives', 'date': '', 'YT_id': 'SxV383D7-lU'}",2,1,580,290,1
256,Spectacular Landslide at Papamoa Hills Regional Park in New Zealand,"{'views': 1922655, 'by': 'Storyful News', 'date': '', 'YT_id': 'Etm6c94eX-Y'}",1,0,290,0,1
257,"Illgraben 29.05.2017 - Lave torrentielle, Murgang, debris flow- Part 1 minute 0-10","{'views': 687934, 'by': 'Pierre Zufferey', 'date': '', 'YT_id': '2Rfuoylv34k'}",2,0,580,0,1
258,debris flow - 21 juillet 2017 - Crue torrentielle à Saint Julien Montdenis,"{'views': 464318, 'by': 'Alexandre MODESTO', 'date': '', 'YT_id': 'wreeawIC3Ks'}",0,0,0,0,1
259,Blasting down bad track Doubleheader on the ND&W Railway (Maumee and Western),"{'views': 4304343, 'by': 'Scott Taipale', 'date': '', 'YT_id': '9X2A2f6E5DI'}",0,1,0,290,1
260,"A Man Tries His Best to Get Hit by a Train- CSX Switching Lehigh Cement in Richmond, VA","{'views': 1167635, 'by': 'Railroad Videos', 'date': '', 'YT_id': 'Qoz7pzaQOQs'}",0,2,0,580,1
261,Move Your Van!!! (We've A Railroad To Run!),"{'views': 74859, 'by': 'Railroading Rambler', 'date': '', 'YT_id': 'jLSSS0RdYYc'}",1,2,290,580,1
