id,text,properties,mx,my,x,y,age
0,Toilet joke reduces Jennifer Lawrence to tears,"{'views': 10949339, 'by': 'TYSONGREER SHADY', 'date': '14 May 2016', 'YT_id': 'o_-HIxXRfOY'}",1,2,290,580,0
0,Toilet joke reduces Jennifer Lawrence to tears,"{'views': 10949339, 'by': 'TYSONGREER SHADY', 'date': '14 May 2016', 'YT_id': 'o_-HIxXRfOY'}",1,2,290,580,1
1,Kimmel Ribbing McConaughey Emmys 2014,"{'views': 4272824, 'by': 'Television Academy', 'date': '25 Aug 2014', 'YT_id': 'UwyM5M74syM'}",0,1,0,290,1
2,Mike Myers Salutes Sean Connery In A Kilt at the AFI Life Achievement Award,"{'views': 2787755, 'by': 'American Film Institute', 'date': '6 Jan 2009', 'YT_id': 'KQYp8xJ4kpo'}",1,0,290,0,1
3,Groucho Marx Roasts Johnny Carson,"{'views': 1159741, 'by': 'Qomby Fun', 'date': '27 Nov 2014', 'YT_id': 'Gs4ECUBdeM0'}",2,0,580,0,1
4,Impressionist Jess Robinson BLOWS Judges AWAY | Week 1 | Britain's Got Talent 2017,"{'views': 5920427, 'by': 'MusicTalentNow', 'date': '16 Apr 2017', 'YT_id': 'aPblvAuywy8'}",2,1,580,290,1
5,UNBELIEVABLE ! Top 10 Shocking Blind Auditions The Voice 2018 l BEST MOMENTS EVER,"{'views': 5635235, 'by': 'Best Moments EVER', 'date': '28 Oct 2018', 'YT_id': 've1l2fJbp44'}",2,2,580,580,1
6,Top 7 *BEST SINGERS* On Talent Shows in The WORLD 2018,"{'views': 1294657, 'by': 'Best Moments EVER', 'date': '28 Nov 2018', 'YT_id': 'JSSTAv-0lP8'}",3,1,870,290,1
7,UNBELIEVABLE ! Top 10 Shocking Blind Auditions The Voice 2018 l BEST MOMENTS EVER,"{'views': 5635235, 'by': 'Best Moments EVER', 'date': '28 Oct 2018', 'YT_id': 've1l2fJbp44'}",3,0,870,0,1
8,The Voice 2018 TOP-10 BEST Blind Auditions In the World,"{'views': 4096300, 'by': 'Qop Video', 'date': '10 Jan 2019', 'YT_id': 'ZWOMMk-cm6c'}",4,1,1160,290,1
9,When Judges Can't Stay Still It's Too Much Fun!,"{'views': 1183196, 'by': 'MusicTalentNow', 'date': '18 Jan 2019', 'YT_id': 'qRGANJys9K4'}",4,0,1160,0,1
10,UNBELIEVABLE ! Top 10 Shocking Blind Auditions The Voice 2018 (no.2),"{'views': 4896091, 'by': 'TV Jolly', 'date': '6 Dec 2018', 'YT_id': 'BOf8BUx3V0o'}",5,1,1450,290,1
11,Top 5 Best auditions of all time  - The Voice USA (all seasons),"{'views': 3639627, 'by': 'Best In Everything', 'date': '28 Sep 2016', 'YT_id': 'XStMtSJsAsg'}",5,2,1450,580,1
12,Top 5 Girl Performance Shocked coaches in The voice Audition 2018,"{'views': 1694455, 'by': 'TV Jolly', 'date': '22 Dec 2018', 'YT_id': 'FwsJJ7-5qRU'}",4,2,1160,580,1
13,7 *SHOCKING SINGING MOMENTS* You Will NEVER Forget!,"{'views': 484455, 'by': 'MusicTalentNow', 'date': '25 Jun 2018', 'YT_id': 'hoql7Em16Zk'}",3,2,870,580,1
14,*His Dream Was Dead* :( Until this Happened... Johnny Manuel - I Have Nothing - WHITNEY HOUSTON AGT,"{'views': 5156996, 'by': 'MusicTalentNow', 'date': '4 Dec 2017', 'YT_id': 'Z2xlS2MCfCk'}",2,1,580,290,1
15,AUDITION LEAVES JUDGES SPEECHLESS! Emotional Original Song On American Idol 2018,"{'views': 3466823, 'by': 'Idols Global', 'date': '22 Mar 2018', 'YT_id': 'Gg9dYwd-Nfk'}",2,0,580,0,1
16,He Gets All The Lady With His Original Tune   Ps: Don't Go To Prom With Your Mom!,"{'views': 7534232, 'by': 'MusicTalentNow', 'date': '2 Mar 2017', 'YT_id': 'dP1mncc1L1I'}",1,0,290,0,1
17,Top 10 BEST Auditions | Britain's Got Talent 2017,"{'views': 18751514, 'by': 'MusicTalentNow', 'date': '18 Jun 2017', 'YT_id': 'Ahxwb5Zy5Fc'}",1,1,290,290,1
18,"SIMON COWELL STOPS THEM and Gives SECOND CHANCE! TOP Simon's ""DISCOVERY"" MOMENTS?","{'views': 1018672, 'by': 'MusicTalentNow', 'date': '16 Nov 2017', 'YT_id': 'VwpYuT2cr9I'}",0,1,0,290,1
19,Simon Cowell's FAVOURITE EVER UK Auditions! Got Talent and X Factor | Top Talent,"{'views': 11242984, 'by': 'Top Talent', 'date': '21 Aug 2018', 'YT_id': 'sSOCIxu2FPI'}",0,2,0,580,1
20,"SIMON COWELL STOPS THEM and Gives SECOND CHANCE! TOP Simon's ""DISCOVERY"" MOMENTS?","{'views': 1018672, 'by': 'MusicTalentNow', 'date': '16 Nov 2017', 'YT_id': 'VwpYuT2cr9I'}",1,2,290,580,1
21,NEVER-SEEN TALENTS 2016 Top 5 BGT Surprises,"{'views': 56940818, 'by': 'Gaming Gossip', 'date': '16 May 2016', 'YT_id': 'NuopAOA3b58'}",2,2,580,580,1
22,The Most UNEXPECTED Auditions EVER!,"{'views': 75751979, 'by': 'MusicTalentNow', 'date': '20 Feb 2017', 'YT_id': '7vwKMmqSzsg'}",3,1,870,290,1
23,ANT & DEC'S GOLDEN BUZZERS! | Britain's Got Talent,"{'views': 1580210, 'by': ""Britain's Got Talent"", 'date': '10 Feb 2019', 'YT_id': '6o99QRYjXT4'}",4,1,1160,290,1
24,When Judges and Contestants ARGUE! | X Factor Global,"{'views': 2384484, 'by': 'X Factor Global', 'date': '26 Sep 2018', 'YT_id': '74fTHh6jB5Q'}",3,0,870,0,1
25,AUDITIONS that went VIRAL not for talent but for PSYCHOPATHS!,"{'views': 2036380, 'by': 'AMAZING VIP WORLD', 'date': '26 Apr 2016', 'YT_id': 'o9La48OPwnc'}",4,0,1160,0,1
26,UNBELIEVABLE ! Top 10 Shocking Blind Auditions The Voice 2018 l BEST MOMENTS EVER,"{'views': 5635393, 'by': 'Best Moments EVER', 'date': '28 Oct 2018', 'YT_id': 've1l2fJbp44'}",5,0,1450,0,1
27,5 Contestants On The Voice UK Who Auditioned With a Coach's Song,"{'views': 13622868, 'by': 'WeThePeople', 'date': '10 Mar 2017', 'YT_id': 'H4acc0zxemQ'}",5,1,1450,290,1
28,"Top 7 ""Judges Can't Sit"" It's Too Much FUN... Let's Dance Moments On Got Talent UK!","{'views': 5750715, 'by': 'MusicTalentNow', 'date': '22 Dec 2018', 'YT_id': 'GWtFqM3yXgc'}",4,2,1160,580,1
29,"Top 10 ""Judges Can't Stay STILL"" It's Too Much FUN... Let's Dance Moments On Got Talent UK!","{'views': 284110, 'by': 'MusicTalentNow', 'date': '19 Dec 2018', 'YT_id': 'Hg_-IXHeXi0'}",5,2,1450,580,1
30,CRAZIEST TALENT All Around The World | Got Talent Global,"{'views': 2822525, 'by': 'Got Talent Global', 'date': '26 Jan 2018', 'YT_id': 'bATXe1XhIZ8'}",0,1,0,290,1
31,"Top 7 NEVER SEEN Judges ""JAW DROPS like NEVER BEFORE"" SHOCKING Acts on AGT 2017 - 2018!","{'views': 323843, 'by': 'MusicTalentNow', 'date': '22 Feb 2019', 'YT_id': 'MeWy61-hguU'}",1,0,290,0,1
32,Judges GOT TALENT | BEST Moments | Got Talent Global,"{'views': 7717645, 'by': 'Got Talent Global', 'date': '14 Aug 2017', 'YT_id': 'bJ3AgqSo2zM'}",1,1,290,290,1
33,SUPER ANGRY PARENTS Turn On The Judges! | X Factor Global,"{'views': 12576078, 'by': 'X Factor Global', 'date': '1 Dec 2017', 'YT_id': 'iDAX9lYP8hI'}",1,2,290,580,1
34,"Worldwide Got Talent BIGGEST EGOS EVER TOP 10(BGT/X-factor etc.) <a class=""yt-simple-endpoint style-scope yt-formatted-string"" spellcheck=""false"" href=""/results?search_query=%23Part"">#Part</a> 2","{'views': 6857787, 'by': 'RichyNice Live', 'date': '25 Aug 2016', 'YT_id': 'keVkkXU_qCM'}",0,2,0,580,1
35,CRAZIEST TALENT All Around The World | Got Talent Global,"{'views': 2822525, 'by': 'Got Talent Global', 'date': '26 Jan 2018', 'YT_id': 'bATXe1XhIZ8'}",0,0,0,0,1
36,FUNNIEST AUDITIONS EVER ON GOT TALENT,"{'views': 2802076, 'by': 'Top Talent', 'date': '14 Dec 2017', 'YT_id': 'Z_-GymgIQaQ'}",5,0,1450,0,1
37,Worst Auditions your evar see (part1),"{'views': 2706738, 'by': 'SuperNateb3', 'date': '30 Dec 2011', 'YT_id': 'ROopDjn8QVk'}",4,1,1160,290,1
38,XFactor: girl rages after four no's,"{'views': 1000962, 'by': 'James Craw', 'date': '24 Sep 2012', 'YT_id': 'JKerfLL4c14'}",3,2,870,580,1
39,UNBELIEVABLE ! Top 10 Shocking Blind Auditions The Voice 2018 l BEST MOMENTS EVER,"{'views': 5635393, 'by': 'Best Moments EVER', 'date': '28 Oct 2018', 'YT_id': 've1l2fJbp44'}",2,1,580,290,1
40,Mother And Son Deliver An Emotional Touching Performance,"{'views': 11285030, 'by': 'MusicTalentNow', 'date': '13 Feb 2017', 'YT_id': 'QKAJtbGLq14'}",2,2,580,580,1
41,Darci Lynne *WINNER* America's Got Talent 2017 - ALL PERFORMANCES (HD),"{'views': 496855, 'by': 'Oxidize', 'date': '19 Sep 2017', 'YT_id': 'qWAVbXkUeWg'}",3,1,870,290,1
42,Darci Lynne: AGT Winner's FIGHTS For The World Title! WOW! | America's Got Talent: Champions,"{'views': 1800771, 'by': 'Talent Recap', 'date': '14 Jan 2019', 'YT_id': 'tV87pUodmVg'}",3,0,870,0,1
43,Darci Lynne  Italian Opera “O Mio Babbino Caro” AMAZING | America's Got Talent Champions Finals AGT,"{'views': 268869, 'by': 'Breaking Talents Showcase', 'date': '11 Feb 2019', 'YT_id': 'nYH0ymEZVDE'}",2,0,580,0,1
44,DON'T BLINK! Shin Lim Performs Epic Magic With Melissa Fumero - America's Got Talent: The Champions,"{'views': 5645592, 'by': ""America's Got Talent"", 'date': '18 Feb 2019', 'YT_id': 'bTJbWylt4-A'}",1,0,290,0,1
45,Mentalist Lior Suchard Bends Harry Connick Jr. & Alice Eve's Minds,"{'views': 7424352, 'by': 'The Late Late Show with James Corden', 'date': '1 Nov 2016', 'YT_id': 'J94uO-urSTg'}",0,1,0,290,1
46,Mentalist Lior Suchard's Freaks Out The Jonas Brothers,"{'views': 3170258, 'by': 'The Late Late Show with James Corden', 'date': '5 Mar 2019', 'YT_id': 'qu0h5ThceEw'}",1,2,290,580,1
47,FRIENDS REUNION (Especial do James Burrows) - Legendado PT-BR,"{'views': 6660224, 'by': 'Daniel Silva', 'date': '23 Feb 2016', 'YT_id': 'oUiphkwsDkY'}",1,1,290,290,1
48,Top 10 Small Details in Friends You Never Noticed,"{'views': 850422, 'by': 'MsMojo', 'date': '14 Oct 2018', 'YT_id': '0DeXyRwx-YY'}",0,2,0,580,1
49,Friends cast interview with bloopers,"{'views': 869812, 'by': 'KayrallCJS', 'date': '4 Oct 2010', 'YT_id': '3OkamcmoYCc'}",4,2,1160,580,1
50,FRIENDS - Exclusive Behind the scenes & Making of major locations,"{'views': 2754715, 'by': 'AB Network', 'date': '4 May 2018', 'YT_id': '9K_7w6zQIuw'}",5,2,1450,580,1
51,Friends cast interview with bloopers,"{'views': 869812, 'by': 'KayrallCJS', 'date': '4 Oct 2010', 'YT_id': '3OkamcmoYCc'}",4,1,1160,290,1
52,Everybody Loves Raymond - Season 5 Bloopers,"{'views': 4107906, 'by': 'han003', 'date': '13 Nov 2010', 'YT_id': 'mBtko5BURH4'}",3,2,870,580,1
53,Everybody Loves Raymond - Season 7 Bloopers,"{'views': 1487624, 'by': 'han003', 'date': '13 Nov 2010', 'YT_id': 'HCspfXkskKI'}",2,1,580,290,1
54,Find Out If Ray Romano's Wife and Twins Are Okay with Being Subjects in His New Comedy Special,"{'views': 451741, 'by': 'TheEllenShow', 'date': '5 Feb 2019', 'YT_id': '6n3f4pmP2oY'}",1,0,290,0,1
55,Ray Romano vs Charles Barkley - Name That Famous Celebrity,"{'views': 1063392, 'by': 'Jimmy Kimmel Live', 'date': '12 Feb 2019', 'YT_id': 'apEchwyyqsE'}",2,0,580,0,1
56,"Rami Malek was a bad, bad boy | The Graham Norton Show | BBC America","{'views': 5550437, 'by': 'BBC America', 'date': '23 Oct 2018', 'YT_id': 'z888RfTq_Qo'}",3,0,870,0,1
57,All The Best Moments From Season 18 - The Graham Norton Show,"{'views': 12300075, 'by': 'The Graham Norton Show', 'date': '19 Feb 2016', 'YT_id': 'Y-orMndwuSE'}",4,0,1160,0,1
58,MORE Celebrities Impersonating Other Celebrities - The Graham Norton Show,"{'views': 9282996, 'by': 'The Graham Norton Show', 'date': '18 Jan 2017', 'YT_id': '8vW6qokJ22o'}",3,1,870,290,1
59,ANOTHER BEST OF 2018 on The Graham Norton Show | (Part 2),"{'views': 1409437, 'by': 'The Graham Norton Show', 'date': '8 Jan 2019', 'YT_id': 'tZRY52XywEk'}",2,2,580,580,1
60,"The Graham Norton Show-Matt Damon, Bill Murray, Hugh Bonneville- Part 2","{'views': 1689443, 'by': 'anglovirtual', 'date': '3 May 2014', 'YT_id': '9jJU3lzU7OU'}",1,1,290,290,1
61,Ricky Gervais and Steven Merchant - Steven Hawking,"{'views': 2958748, 'by': 'British Comedy Awards', 'date': '19 Feb 2009', 'YT_id': 'psPqPWV0kpU'}",1,2,290,580,1
62,"The Office - The IT Guy, Tim, and Gareth","{'views': 1006889, 'by': 'JohnAshcroft', 'date': '22 Dec 2006', 'YT_id': 'geZoES9KQ-Q'}",0,1,0,290,1
63,Rik Mayall & Adrian Edmondson break character,"{'views': 952687, 'by': '1234567890tgb', 'date': '28 Apr 2012', 'YT_id': 'G_X_7TrcHGM'}",0,2,0,580,1
64,Ricky Gervais hosting the 2010 Golden Globes All of his good bits chained,"{'views': 3628213, 'by': 'giancarlo4254', 'date': '17 Jan 2011', 'YT_id': 'jkMLVBHSBvA'}",4,2,1160,580,1
65,"Ricky Gervais Talks Offensive Comedy, New Special 'Humanity' | The View","{'views': 688842, 'by': 'The View', 'date': '15 Mar 2018', 'YT_id': 'iTKTerINwY4'}",4,1,1160,290,1
66,Golden Globes 2013 Opening - Tina Fey and Amy Poehler,"{'views': 4527349, 'by': 'MovieAwardsAll', 'date': '14 Jan 2013', 'YT_id': 'F4rSKCXqEw0'}",5,1,1450,290,1
67,P. J. Doesn't Fit into Women's Group - SNL,"{'views': 5735384, 'by': 'Saturday Night Live', 'date': '2 Feb 2014', 'YT_id': '6gPnaWhcEbo'}",4,0,1160,0,1
68,Mama's Boy - SNL,"{'views': 1127963, 'by': 'Saturday Night Live', 'date': '9 Oct 2013', 'YT_id': 'nvOqN_SYpGQ'}",3,1,870,290,1
69,Engagement Party - SNL,"{'views': 1606869, 'by': 'Saturday Night Live', 'date': '13 Apr 2014', 'YT_id': '0IiN-JWPGj0'}",3,2,870,580,1
70,I'm Like On a Blind Date - SNL,"{'views': 1557665, 'by': 'Saturday Night Live', 'date': '13 Sep 2013', 'YT_id': '4pCqd_YRITs'}",2,1,580,290,1
71,Engagement Party - SNL,"{'views': 1606869, 'by': 'Saturday Night Live', 'date': '13 Apr 2014', 'YT_id': '0IiN-JWPGj0'}",1,0,290,0,1
72,"""Don't Lose Your Accent / Learning Accents"" - TREVOR NOAH (Pay Back The Funny)","{'views': 541672, 'by': 'Trevor Noah', 'date': '7 Mar 2019', 'YT_id': 'MhCEdIqFCck'}",0,0,0,0,1
73,Obama's Best Comebacks and Rebuttal Moments - Part 2,"{'views': 846382, 'by': 'Epic Moments', 'date': '11 Sep 2017', 'YT_id': 'SOpvCubaIx0'}",1,1,290,290,1
74,Obama vs Trump Heckler Edition,"{'views': 1284077, 'by': 'Jason Sajulan', 'date': '9 Apr 2016', 'YT_id': 'OFnhq5awB60'}",2,2,580,580,1
75,Hollywood Celebrities Shutting Down Reporters,"{'views': 4727135, 'by': 'Fun Stuff', 'date': '8 Jan 2016', 'YT_id': 'aIEubcoBMts'}",1,2,290,580,1
76,What STEVEN SEAGAL says about VAN DAMME and other action stars  [HD],"{'views': 3562004, 'by': 'Jean-Claude Vandammelibrary', 'date': '9 Nov 2017', 'YT_id': 'sYR_C5l0-Jk'}",0,1,0,290,1
77,Joe Rogan - Is Steven Seagal Legit?,"{'views': 5343654, 'by': 'JRE Clips', 'date': '21 Feb 2018', 'YT_id': 'KDiEIqD4MJ8'}",0,2,0,580,1
78,AM I BEING DETAINED! Cop Baiters Get OWNED Compilation   Part 2 2017,"{'views': 3452566, 'by': 'The Cop Channel', 'date': '10 Sep 2017', 'YT_id': 'nQjCAiKqsKs'}",5,1,1450,290,1
79,SCAMMER RAGES WHEN I DESTROY HIS PC! [Destroying a scammer's PC],"{'views': 677561, 'by': 'ScammerRevolts', 'date': '21 Jan 2019', 'YT_id': 'neSGNhaP7VU'}",5,2,1450,580,1
80,"r/Entitledparents - ""Give My Child Your Wheelchair NOW!"" - Top Posts of All Time","{'views': 3274472, 'by': 'rSlash', 'date': '16 Feb 2019', 'YT_id': '3xxszr_CS3c'}",4,2,1160,580,1
81,Tech Support Scammer Reacts To MEMZ Virus!(Destructive Virus),"{'views': 692434, 'by': 'Styles', 'date': '15 Jul 2017', 'YT_id': 'xB-rY2LowPE'}",3,1,870,290,1
82,SYSKEYING a scammer! He BEGGED me for the password! [SYSKEY'D],"{'views': 1136607, 'by': 'ScammerRevolts', 'date': '2 Nov 2018', 'YT_id': '76EotjAMxwM'}",3,2,870,580,1
83,SCAMMER RAGES WHEN I DESTROY HIS PC! [Destroying a scammer's PC],"{'views': 677561, 'by': 'ScammerRevolts', 'date': '21 Jan 2019', 'YT_id': 'neSGNhaP7VU'}",4,1,1160,290,1
84,"r/Entitledparents - ""Give My Child Your Wheelchair NOW!"" - Top Posts of All Time","{'views': 3274472, 'by': 'rSlash', 'date': '16 Feb 2019', 'YT_id': '3xxszr_CS3c'}",4,0,1160,0,1
85,SCAMMER RAGES WHEN I DESTROY HIS PC! [Destroying a scammer's PC],"{'views': 677561, 'by': 'ScammerRevolts', 'date': '21 Jan 2019', 'YT_id': 'neSGNhaP7VU'}",3,0,870,0,1
86,5 People Who Set Traps For Package Thieves,"{'views': 1971342, 'by': 'WOWsoAmaze', 'date': '5 Jan 2019', 'YT_id': '4ExVxCYjdLk'}",2,1,580,290,1
87,Top 10 People getting OWNED! 🔥,"{'views': 24939999, 'by': 'Top Things', 'date': '23 Dec 2018', 'YT_id': 'g7o1jL1863Q'}",2,2,580,580,1
88,The 3 Moments that made Ben Shapiro Famous,"{'views': 7285182, 'by': 'Discourse TV', 'date': '20 Sep 2017', 'YT_id': 'xWRNBOXoLf8'}",1,1,290,290,1
89,3 MORE Moments that made Ben Shapiro Famous,"{'views': 277814, 'by': 'Discourse TV', 'date': '29 Jul 2018', 'YT_id': '12gzl3sRJLY'}",1,0,290,0,1
90,Ben Shapiro FORCES Leftists and SJW to SIT DOWN! Q&A at YALE - MGTOW,"{'views': 1098472, 'by': 'Syndicon', 'date': '20 May 2017', 'YT_id': 'yTkFPsXVcfU'}",2,0,580,0,1
91,"""Socialism is theft"" Ben Shapiro SLAMS Alexandria Ocasio-Cortez while debunking Socialism","{'views': 980872, 'by': 'True Liberty', 'date': '4 Aug 2018', 'YT_id': 'ulZGiA8t5sM'}",3,1,870,290,1
92,You Are Getting Ofended By The Facts' - Ben Shapiro Educates College Snowflake,"{'views': 572340, 'by': 'Right Politics', 'date': '4 Mar 2018', 'YT_id': 'nDPXV1b65nA'}",4,2,1160,580,1
93,Ben Shapiro Debates A Socialist In An Epic Q And A,"{'views': 881637, 'by': 'Crysta', 'date': '18 Jan 2019', 'YT_id': 'qcFKDxwCDY4'}",5,1,1450,290,1
94,Jordan Peterson Leaves Liberal Senator SPEECHLESS On Gender Pronouns,"{'views': 511933, 'by': 'Informative', 'date': '8 Dec 2018', 'YT_id': 'ztAMEcdxR3w'}",5,2,1450,580,1
95,Jordan Peterson's Most Shocking Message!,"{'views': 1489610, 'by': 'Jason A', 'date': '20 May 2018', 'YT_id': '6QAY0qc0u-4'}",4,1,1160,290,1
96,"<a class=""yt-simple-endpoint style-scope yt-formatted-string"" spellcheck=""false"" href=""/results?search_query=%23Jordan"">#Jordan</a> Peterson DESTROYS Regressive  <a class=""yt-simple-endpoint style-scope yt-formatted-string"" spellcheck=""false"" href=""/results?search_query=%23BBC"">#BBC</a> reportecr","{'views': 1908702, 'by': 'The Raj of Maharta.', 'date': '6 Aug 2018', 'YT_id': '3wj48ACMWeI'}",3,2,870,580,1
97,Jordan Peterson Brilliantly EDUCATES A Woman On Climate Change,"{'views': 379317, 'by': 'Crysta', 'date': '14 Feb 2019', 'YT_id': 'T7pwFxQqOxQ'}",2,1,580,290,1
98,Ben Shapiro Leaves Liberal Professor SPEECHLESS In An Epic Debate,"{'views': 1258801, 'by': 'Crysta', 'date': '17 Feb 2019', 'YT_id': '_QBDgwtO_Xk'}",2,2,580,580,1
99,"<a class=""yt-simple-endpoint style-scope yt-formatted-string"" spellcheck=""false"" href=""/results?search_query=%23BlackLivesMatter"">#BlackLivesMatter</a> Smackdown in Seattle - Ben Shapiro","{'views': 3996978, 'by': 'MrFortheloveoftruth', 'date': '19 Feb 2016', 'YT_id': 'y9ZRj_a_2qM'}",1,1,290,290,1
100,"Cocky Student CHALLENGES Ben Shapiro's Intelligence, Gets SCHOOLED","{'views': 90569, 'by': 'Crysta', 'date': '16 Feb 2019', 'YT_id': '777oOT0dzPc'}",0,0,0,0,1
101,Top 10 Pilot Carrier Takeoffs & Landings EVER SEEN!,"{'views': 2095568, 'by': 'MIR Planet', 'date': '15 Oct 2018', 'YT_id': 'wg2HiLFg4Ac'}",1,0,290,0,1
102,IF IT WAS NOT FILMED NO ONE WILL BELIEVE IT 2,"{'views': 3249115, 'by': 'funny videos channel', 'date': '20 May 2017', 'YT_id': 'psmThFiZWmg'}",2,0,580,0,1
103,NHL Best Penalty Box Moments,"{'views': 3051399, 'by': 'Delta Highlights', 'date': '22 Dec 2017', 'YT_id': '64S0qEGJdh0'}",3,1,870,290,1
104,NHL/Funny Moments (Mic'd Up Edition),"{'views': 1048864, 'by': 'alyssahope', 'date': '15 Mar 2017', 'YT_id': 'jvvfWe1kVXA'}",4,2,1160,580,1
105,14 More Minutes of Pissed Off Goalies,"{'views': 3488982, 'by': 'Matty 2792', 'date': '16 Jul 2017', 'YT_id': 'lP4ekB0jx5w'}",5,1,1450,290,1
106,Top 6 Cool Cops vs Bikers | ENCOUNTERS & POLICE PULLOVERS 2018,"{'views': 3371744, 'by': 'Life On Motorcycle', 'date': '6 Sep 2018', 'YT_id': 'qJ5C7B37OTs'}",4,1,1160,290,1
107,Angry lady freakout... and then this happened...,"{'views': 1144896, 'by': 'Finest Trends', 'date': '4 Jan 2019', 'YT_id': 'UF7KC0gWOtA'}",3,2,870,580,1
108,10 Unforgettable Moments Caught on Live TV! #19,"{'views': 3589326, 'by': 'TruthRevolutionNet', 'date': '7 Jan 2019', 'YT_id': 'SHk3gJAnm8U'}",2,2,580,580,1
109,WHAT COULD GO WRONG Compilation,"{'views': 143607, 'by': 'LOFE', 'date': '29 Dec 2018', 'YT_id': 'ybhAwXOoA7w'}",1,1,290,290,1
110,"CAR CRASHES IN AMERICA #19 BAD DRIVERS USA, CANADA","{'views': 247731, 'by': 'SZ Best - Car Crashes &amp; Driving Fails', 'date': '4 Apr 2018', 'YT_id': 'UGiW8oKQEQw'}",1,2,290,580,1
111,Pursuit Highlights From The Archives - Director's Cut,"{'views': 677781, 'by': 'The Chase is On!', 'date': '17 Oct 2018', 'YT_id': 'vXa0fWirT-8'}",2,1,580,290,1
112,Florida Police Pursuit (07 Jan. 2019) - TheBestOf,"{'views': 2129398, 'by': 'TheBestOf', 'date': '7 Jan 2019', 'YT_id': 'rWYBExbMdwg'}",1,0,290,0,1
113,Los Angeles Police Chase 10//11/2018 - Reckless Driver Stolen Car Pursuit,"{'views': 1353402, 'by': 'Quaker Oats', 'date': '11 Oct 2018', 'YT_id': '7K3dZmrcriU'}",0,0,0,0,1
114,7/17/18: Car Chase San Diego to Los Angeles - Unedited,"{'views': 10383, 'by': 'The Chase is On!', 'date': '31 Jul 2018', 'YT_id': 'HLH6PrNgszk'}",0,1,0,290,1
115,09/05/18: Stolen Vehicle Suspect Hangs Out of Car During Police Pursuit - Unedited,"{'views': 35101, 'by': 'The Chase is On!', 'date': '10 Sep 2018', 'YT_id': '_LbqrcYdEAo'}",0,2,0,580,1
116,01/26/19: Truck Flees... Then Crashes - Unedited,"{'views': 90399, 'by': 'The Chase is On!', 'date': '12 Feb 2019', 'YT_id': 'bul7Eofe4-A'}",3,0,870,0,1
117,02/07/19: Car Chase Suspect Flees Moving Truck - Unedited,"{'views': 30191, 'by': 'The Chase is On!', 'date': '11 Feb 2019', 'YT_id': '0TwdDoRbglA'}",4,0,1160,0,1
118,"St. Louis Police Chase (December 20, 2017)","{'views': 173266, 'by': 'wwwy2000', 'date': '22 Dec 2017', 'YT_id': 'MXClf2zuXWY'}",5,1,1450,290,1
119,"Kansas City Police Chase (March 20, 2018)","{'views': 459693, 'by': 'wwwy2000', 'date': '20 Mar 2018', 'YT_id': 'l4xNCBaVwVM'}",5,2,1450,580,1
120,2-1-19 police chase with violent crash,"{'views': 54670, 'by': 'Bingo Brian', 'date': '2 Feb 2019', 'YT_id': 'fkPtMCO_Y8Y'}",4,2,1160,580,1
121,"Southern California Police Chase (December 06, 2016)","{'views': 278371, 'by': 'wwwy2000', 'date': '14 Dec 2016', 'YT_id': 'tvW5Vh4SiGI'}",4,1,1160,290,1
122,01/26/19: Truck Flees... Then Crashes - Unedited,"{'views': 90399, 'by': 'The Chase is On!', 'date': '12 Feb 2019', 'YT_id': 'bul7Eofe4-A'}",3,2,870,580,1
123,"Kid Gives Cops a Hard Time, Gets One Back","{'views': 203591, 'by': 'Real World Police', 'date': '20 Feb 2019', 'YT_id': '1fphDLyWLAg'}",3,1,870,290,1
124,Dashcam Video of Man That Killed 7 People in Grand Rapids,"{'views': 958382, 'by': 'LawEnforcementVids', 'date': '14 Mar 2012', 'YT_id': 'FOAy6EcmxTg'}",2,1,580,290,1
125,Ship Launch Gone Wrong,"{'views': 860718, 'by': 'Bruce Marrero', 'date': '7 Jan 2017', 'YT_id': 'PGy4INmXdj0'}",2,0,580,0,1
126,Top 10 incident with ships |Full HD|,"{'views': 7694795, 'by': 'THE TOP 10', 'date': '18 Aug 2018', 'YT_id': 'txTVS-U-rjQ'}",1,1,290,290,1
127,Americans and Russians against Somali pirates 2018 #2,"{'views': 29316245, 'by': 'Amazing Machines', 'date': '25 Jan 2018', 'YT_id': '1NKdAxN5jJI'}",0,2,0,580,1
128,HOW ISRAEL DESTROYED RUSSIAN PANTSIR-S1 IN SYRIA ?,"{'views': 1327492, 'by': 'Defense Updates', 'date': '8 Aug 2018', 'YT_id': 'SKNW6kwBRdA'}",0,1,0,290,1
129,This Is What Would Happen if a Foe Attacked a Navy Aircraft Carrier,"{'views': 1016765, 'by': 'US Military Today', 'date': '15 Dec 2018', 'YT_id': 'H5v9bQk_SCk'}",1,2,290,580,1
130,AMERICAN MADE PAKISTANI F 16 v RUSSIAN MADE INDIAN MIG 21,"{'views': 256038, 'by': 'Defense Updates', 'date': '3 Mar 2019', 'YT_id': 'UELAqTROe0s'}",2,2,580,580,1
131,Theranos – Silicon Valley’s Greatest Disaster,"{'views': 475468, 'by': 'ColdFusion', 'date': '1 Mar 2019', 'YT_id': '3CccfnRpPtM'}",4,1,1160,290,1
132,Who Controls All of Our Money?,"{'views': 1822488, 'by': 'ColdFusion', 'date': '11 Jun 2017', 'YT_id': 'mQUhJTxK5mA'}",5,2,1450,580,1
133,10 Companies That Secretly Control The World,"{'views': 1580720, 'by': 'Alltime10s', 'date': '23 Apr 2017', 'YT_id': 'FbyNp-5U6pg'}",5,1,1450,290,1
134,9 CRAZY Things That Will Happen Before 2050!,"{'views': 886488, 'by': 'Secret Truths', 'date': '9 May 2018', 'YT_id': 'yb8945pGXI4'}",5,0,1450,0,1
135,Fall Of Empires: Rome vs USA (Hidden Secrets Of Money Ep 9),"{'views': 1389453, 'by': 'GoldSilver (w/ Mike Maloney)', 'date': '29 Oct 2018', 'YT_id': 'OuOcnGAv4oo'}",4,0,1160,0,1
136,David Icke - Culling The Population,"{'views': 445179, 'by': 'David Icke', 'date': '14 May 2018', 'YT_id': 'ruj77zbqqQc'}",3,1,870,290,1
137,QUICKLY!! SOON TO BE DELETED!! Project Blue Beam SECRETS FINALLY REVEALED! 2018,"{'views': 261881, 'by': 'Scarack Truther', 'date': '22 Sep 2018', 'YT_id': 'pf7zhAWq3T0'}",2,0,580,0,1
138,"New Sumerian tablets Discovered, Earth Was Ruled By 8 Kings That Came From Heaven","{'views': 1546210, 'by': 'Incredible News E3', 'date': '5 Dec 2017', 'YT_id': 'Z8Rzqc5qN5E'}",1,1,290,290,1
139,You Might Question EVERYTHING After Watching This! (2018-2019),"{'views': 7124297, 'by': 'thirdphaseofmoon', 'date': '12 Apr 2018', 'YT_id': 'GxmcA0ZbWa0'}",1,0,290,0,1
140,"New Sumerian tablets Discovered, Earth Was Ruled By 8 Kings That Came From Heaven","{'views': 1546210, 'by': 'Incredible News E3', 'date': '5 Dec 2017', 'YT_id': 'Z8Rzqc5qN5E'}",0,0,0,0,1
141,Uncovering the impossible: 6 of the Heaviest Ancient Stones Ever Made,"{'views': 1195570, 'by': 'The Lost History Channel TKTC', 'date': '10 Jan 2018', 'YT_id': '-04LiRtQeaM'}",0,1,0,290,1
142,9-Ton Slab of Glass Found in the Cave of Beit Shearim,"{'views': 325368, 'by': 'Sergio &amp; Rhoda in Israel', 'date': '17 Sep 2017', 'YT_id': 'N_eDWi46h7o'}",0,2,0,580,1
143,5 People Who Claim to be Time Travelers,"{'views': 445649, 'by': 'Deburke321', 'date': '1 Mar 2019', 'YT_id': '0nliDpL-MIQ'}",1,2,290,580,1
144,Artificial Intelligence asked question about God/Trump/2 AI argue,"{'views': 778038, 'by': 'Luis Delgado', 'date': '3 Dec 2016', 'YT_id': 'aODnFdU_hds'}",2,1,580,290,1
145,"AI (Google, Alexa, Siri) Won't Answer Who Jesus is! ""Hey Google Who is Jesus?""","{'views': 991076, 'by': 'A &amp; Ω Productions', 'date': '29 Aug 2018', 'YT_id': 'vZ4ASWSBtQc'}",3,2,870,580,1
146,1968  Prophecy from  a 90 Year Old Norwegian Woman,"{'views': 5787079, 'by': 'Leanne Pirera &amp; Angela Isard - Kingdom Reformers', 'date': '20 Sep 2016', 'YT_id': 'y98EWHidXJE'}",4,1,1160,290,1
147,If you recognize any of these 6 signs you have a spiritual gift Pay attention to 3,"{'views': 475800, 'by': 'The Truth can change Your life', 'date': '4 Jan 2018', 'YT_id': 'iXciPWXlpjg'}",5,1,1450,290,1
148,QUICKLY WATCH This VIDEO!! It WILL Leave YOU SPEECHLESS! 2019,"{'views': 333987, 'by': 'Scarack Truther', 'date': '1 Mar 2019', 'YT_id': 'gEf8A1bV3nM'}",4,0,1160,0,1
149,Man Who Prophesied Trump’s Election In 2007 Reveals 3 More Ch-illing Predictions,"{'views': 743662, 'by': 'HOT NEWS TODAY 365', 'date': '4 Feb 2019', 'YT_id': 'FdHMszqa1Aw'}",5,0,1450,0,1
150,"EXPOSE OF FALSE PASTORS USING MERMAID SPIRITS: "" FALSE MARINE OCCULTIC PASTORS""","{'views': 492069, 'by': 'Kay Boachie', 'date': '19 Nov 2016', 'YT_id': 'y-UBiv2Zje8'}",0,0,0,0,1
151,"Buhari Wins 2nd Term; Saraki Loses Senate Seat; Ghana Deports Nigerians, Algeria, Kenya, Senegal","{'views': 280959, 'by': 'Adeola Fayehun', 'date': '28 Feb 2019', 'YT_id': 'w96iaNgg9yA'}",1,1,290,290,1
152,Undercover with Nigerian Scammers | A Scam Story #7,"{'views': 858462, 'by': 'Pleasant Green', 'date': '13 Sep 2018', 'YT_id': 'bH9XkzvlGts'}",2,0,580,0,1
153,Customs UK - an Escort and a Celebrity Chef (Drug Smugglers),"{'views': 2699280, 'by': 'Jan Kaow', 'date': '22 May 2011', 'YT_id': 'gT5SIvXx0TI'}",3,0,870,0,1
154,White Woman Blocks Black Man From Entering Luxury Loft & Follows Him Home,"{'views': 1912398, 'by': 'TheAdviseShowTV', 'date': '14 Oct 2018', 'YT_id': 'qSbsuitLLs0'}",2,1,580,290,1
155,"Black Doctor Blocked From Entering Her Community By WS That Stated ""She Didn't Belong There""","{'views': 679481, 'by': 'TheAdviseShowTV', 'date': '27 Jun 2018', 'YT_id': 'kqISdodZkdo'}",3,2,870,580,1
156,"Walks of shame, Officers want to fight me!!! Fail for American Security Services, AGAIN!!","{'views': 395490, 'by': 'News Now South Carolina', 'date': '28 Feb 2019', 'YT_id': 'BpoLkOB_c1w'}",4,1,1160,290,1
157,Glenpool Oklahoma Is that something you learned on YouTube unlawful detainment,"{'views': 279420, 'by': 'Not Now Maybe Later', 'date': '25 Oct 2018', 'YT_id': 'Fit2_9Cb3dA'}",4,2,1160,580,1
158,1st Amendment Audit Chattanooga Tennessee Bureau of Investigation F,"{'views': 211897, 'by': 'A Moron In The Woods', 'date': '6 Feb 2019', 'YT_id': 'MZauVSB3e5g'}",5,2,1450,580,1
159,The Best of High Desert Community Watch,"{'views': 454142, 'by': 'Cloud5146', 'date': '10 Feb 2019', 'YT_id': 'h_gEhfe4Jz0'}",5,1,1450,290,1
160,Undercover Cop Show Roid Rage & Attacks Driver - Assault Under The Color Of Authority,"{'views': 982312, 'by': 'Think Like A Cop - The Rest Of The Story', 'date': '27 Jun 2017', 'YT_id': '3k1_XLAuY6w'}",5,0,1450,0,1
161,BEST OF COPS GETTING OWNED #10,"{'views': 290141, 'by': 'Compilation Nation', 'date': '12 Feb 2019', 'YT_id': 'NfQ_ML0ltjI'}",4,0,1160,0,1
162,Hank Schrader Owned like a LIL BOY! El Paso BP,"{'views': 392097, 'by': 'SAEXTAZYPREZ', 'date': '9 May 2017', 'YT_id': '9mBzcZIPUtc'}",3,1,870,290,1
163,"Tired of Playing with these cops! Respect my Rights, Or I’ll Embarrass You With Knowledge!!!!","{'views': 216921, 'by': 'News Now South Carolina', 'date': '4 Feb 2019', 'YT_id': '86rSjc4f2ek'}",2,0,580,0,1
164,BEST OF COPS GETTING OWNED #10,"{'views': 290141, 'by': 'Compilation Nation', 'date': '12 Feb 2019', 'YT_id': 'NfQ_ML0ltjI'}",1,1,290,290,1
165,THE ID CHALLENGE,"{'views': 86702, 'by': 'TXSHEEPDOG72', 'date': '3 Mar 2019', 'YT_id': 'e7g9t_0CL9U'}",0,2,0,580,1
166,"Walks of shame, Officers want to fight me!!! Fail for American Security Services, AGAIN!!","{'views': 395490, 'by': 'News Now South Carolina', 'date': '28 Feb 2019', 'YT_id': 'BpoLkOB_c1w'}",0,1,0,290,1
167,Deputy Gets Educated and walks away with his tail tucked between his legs. SGV 1st Amendment,"{'views': 1092448, 'by': 'San Joaquin Valley Transparency', 'date': '1 Feb 2019', 'YT_id': 'pC-ENGeEPYk'}",0,0,0,0,1
168,"Tired of Playing with these cops! Respect my Rights, Or I’ll Embarrass You With Knowledge!!!!","{'views': 216921, 'by': 'News Now South Carolina', 'date': '4 Feb 2019', 'YT_id': '86rSjc4f2ek'}",1,0,290,0,1
169,Deputy Gets Educated and walks away with his tail tucked between his legs. SGV 1st Amendment,"{'views': 1092448, 'by': 'San Joaquin Valley Transparency', 'date': '1 Feb 2019', 'YT_id': 'pC-ENGeEPYk'}",2,1,580,290,1
170,Police hates when a Blackman knows his Rights Pt.2,"{'views': 1684963, 'by': 'Lied2Bad', 'date': '9 Dec 2015', 'YT_id': '9eSa-MPkHW8'}",3,0,870,0,1
171,Police hates when a Blackman knows his Rights Pt.3,"{'views': 709394, 'by': 'Lied2Bad', 'date': '9 Dec 2015', 'YT_id': '6n80vgA8-nA'}",4,1,1160,290,1
172,Walking while black,"{'views': 190687, 'by': 'the league', 'date': '14 Jul 2016', 'YT_id': 'z6SJUqGooWc'}",5,1,1450,290,1
173,"Walking While Black: Cop Stops Man for 30 Mins Because He ""Didn’t Like the Way He Was Walking""","{'views': 517737, 'by': 'David Pakman Show', 'date': '2 Nov 2015', 'YT_id': 'lZzeyARQc1E'}",5,0,1450,0,1
174,Constant disrespect & police harassment over policing in Southern Louisville,"{'views': 37333, 'by': 'Gary Carver', 'date': '26 Feb 2019', 'YT_id': 'SdC3RyehUoo'}",4,0,1160,0,1
175,STOP YOU LOOK SUSPICIOUS,"{'views': 113439, 'by': 'BLACKLAB3L', 'date': '22 Oct 2018', 'YT_id': 'jHWoHqx1TZg'}",3,1,870,290,1
176,THE ID CHALLENGE,"{'views': 86702, 'by': 'TXSHEEPDOG72', 'date': '3 Mar 2019', 'YT_id': 'e7g9t_0CL9U'}",3,2,870,580,1
177,"McDill AFB,First Amendment Audit","{'views': 181639, 'by': 'HonorYourOath Civil Rights Investigations', 'date': '24 Jan 2014', 'YT_id': '7cSPotJs8vU'}",4,2,1160,580,1
178,"WINDCREST POLICE, WILD WILD WEST","{'views': 102319, 'by': 'TXSHEEPDOG72', 'date': '12 Apr 2016', 'YT_id': 'EPgme_a5ta4'}",5,2,1450,580,1
179,JC Playford supports News Now Houston,"{'views': 7734, 'by': 'NewsNowSanDiego', 'date': '7 Mar 2019', 'YT_id': 'PYtdBTP_UcU'}",0,0,0,0,1
180,Civilian Killer Cop Nouman Raja meets JC Playford,"{'views': 20827, 'by': 'NewsNowSanDiego', 'date': '26 Feb 2019', 'YT_id': 'hXjBuKgQ-NA'}",0,1,0,290,1
181,DHS detains and batters Cameraman JC Playford,"{'views': 834888, 'by': 'NewsNowSanDiego', 'date': '14 Jul 2014', 'YT_id': 'H3h-PZ0RIQk'}",1,2,290,580,1
182,El Cajon PD Screw up & JC Playford,"{'views': 287213, 'by': 'NewsNowSanDiego', 'date': '22 Aug 2016', 'YT_id': 'RuLPzNBXiic'}",2,2,580,580,1
183,Federal Prison Guards get pushy with JC Playford,"{'views': 724758, 'by': 'NewsNowSanDiego', 'date': '12 Oct 2016', 'YT_id': 'QT7RMyGPsPY'}",2,1,580,290,1
184,"California State Prison: GUARD SAYS  "" YOU HAVE TO LEAVE ""  SHERIFFS SHOW UP,  1st Amend Audit","{'views': 438171, 'by': 'highdesert community watch news network', 'date': '18 Sep 2017', 'YT_id': 'Gcgxz-yCUeo'}",1,0,290,0,1
185,Glenpool Oklahoma Is that something you learned on YouTube unlawful detainment,"{'views': 279420, 'by': 'Not Now Maybe Later', 'date': '25 Oct 2018', 'YT_id': 'Fit2_9Cb3dA'}",2,0,580,0,1
186,"Traffic stop? D.U.I ?? CHP, SANTA CRUZ WATSONVILLE","{'views': 61613, 'by': 'S. Saucedo', 'date': '30 Jan 2019', 'YT_id': 'QNNW49ocmJ0'}",3,0,870,0,1
187,Deputy Gets Educated and walks away with his tail tucked between his legs. SGV 1st Amendment,"{'views': 1092448, 'by': 'San Joaquin Valley Transparency', 'date': '1 Feb 2019', 'YT_id': 'pC-ENGeEPYk'}",3,1,870,290,1
188,JUDGE FREAKS OUT IN COURT! - Man Calls Judge A Cock & Judge Flips,"{'views': 1450242, 'by': 'Comedy Bank', 'date': '24 Dec 2014', 'YT_id': 'p2xjFQ4ClHI'}",3,2,870,580,1
189,"$98,000 for being tazered for illegal parking then cop lies about entire event","{'views': 1738477, 'by': 'LowCountry Watchers', 'date': '23 Apr 2017', 'YT_id': 'QdNiA8q8T4U'}",4,1,1160,290,1
190,Deputy Gets Educated and walks away with his tail tucked between his legs. SGV 1st Amendment,"{'views': 1092448, 'by': 'San Joaquin Valley Transparency', 'date': '1 Feb 2019', 'YT_id': 'pC-ENGeEPYk'}",4,0,1160,0,1
191,Utah Officer Who Arrested Nurse Alex Wubbels Just Got A Huge Reality Check(VIDEO)!,"{'views': 1158813, 'by': 'GLOBAL News', 'date': '4 Sep 2017', 'YT_id': 'xceTY574VEM'}",5,0,1450,0,1
192,Utah Cop Who Arrested Nurse Fired From 2nd Job!,"{'views': 333440, 'by': 'The Jimmy Dore Show', 'date': '6 Sep 2017', 'YT_id': 'wjpb0F41VcY'}",5,1,1450,290,1
193,Sober driver who was arrested for DUI wins settlement after filming arrest on his cell phone!,"{'views': 2370670, 'by': 'DUI Checkpoints', 'date': '28 Jan 2017', 'YT_id': '4ap6Kmo69lQ'}",4,2,1160,580,1
194,Couple Awarded $1.3 Million in Racial Profiling Lawsuit.,"{'views': 734371, 'by': 'Smokey and The Bandits', 'date': '22 Mar 2017', 'YT_id': 'nTeDNAi7oSo'}",5,2,1450,580,1
195,Sheriff's Deputy resigns after video goes vira,"{'views': 1251297, 'by': 'CBS6 Albany', 'date': '6 Dec 2014', 'YT_id': 'Lw006F-UKNk'}",2,2,580,580,1
196,Shawna Cox cell phone video from inside LaVoy Finicum's truck,"{'views': 1473493, 'by': 'The Oregonian', 'date': '14 Mar 2016', 'YT_id': 'eEswP_HSFV4'}",1,1,290,290,1
197,Motorist kills man beating wounded cop,"{'views': 2029098, 'by': 'CNN', 'date': '13 Jan 2017', 'YT_id': '6wWlKx2DMcM'}",1,2,290,580,1
198,Triple homicide suspect threatens judge in court,"{'views': 7977046, 'by': 'Fox News', 'date': '28 Sep 2016', 'YT_id': 'dhT72PWhqh4'}",0,2,0,580,1
199,Good Samaritan thwarts robbery with kick to the face,"{'views': 1763766, 'by': 'CBSN', 'date': '12 Mar 2014', 'YT_id': 'NBQAAq-T10s'}",0,1,0,290,1
200,Surveillance Video Shows Gang Shooting in Brooklyn,"{'views': 1626256, 'by': 'Wall Street Journal', 'date': '4 Feb 2016', 'YT_id': 'BLRXWePK9Gk'}",1,0,290,0,1
201,WATCH: Armed thieves attack cash-in-transit guards in Boksburg,"{'views': 395786, 'by': 'News24', 'date': '17 Sep 2018', 'YT_id': '67cg_Ng-8FY'}",0,0,0,0,1
202,Be prepared to die – Joburg’s Toughest Cop,"{'views': 1702254, 'by': 'Eyewitness News', 'date': '12 Dec 2018', 'YT_id': 'lcE0NaatQlg'}",3,1,870,290,1
203,PORTLAND THUG VS. AMERICAN SLAV,"{'views': 8723721, 'by': 'James Allsup', 'date': '4 Jun 2017', 'YT_id': 'pawEXwLjTlo'}",3,2,870,580,1
204,"ROAD RAGE IN NORTH AMERICA | LATEST NEWS, BREAKING STORIES and COMMENTS","{'views': 4166288, 'by': 'Fury Road', 'date': '16 Oct 2018', 'YT_id': 'vgfEVD4ktPw'}",4,1,1160,290,1
205,SHIP AND CRUISES ACCIDENT/CRASH COMPILATION,"{'views': 5480764, 'by': 'AkkarinTube Compilations', 'date': '19 Nov 2016', 'YT_id': '2G1vZgRJFGU'}",5,0,1450,0,1
206,Funny Boat Fails to get you through your week.,"{'views': 976688, 'by': 'Rex Videos', 'date': '20 Nov 2018', 'YT_id': 'LuHnsPpzKtw'}",4,0,1160,0,1
207,10 Shocking Fishing Moments Caught On Camera!,"{'views': 3256737, 'by': 'THE MAGNUM', 'date': '5 Jan 2019', 'YT_id': '5HjmSjv0Vfw'}",5,1,1450,290,1
208,6 Minutes Of Unbelievable Moments CAUGHT ON VIDEO!,"{'views': 1313421, 'by': 'Heart Of Champions', 'date': '5 Feb 2019', 'YT_id': 'KR-sgV-aq_U'}",4,2,1160,580,1
209,NEAR DEATH CAPTURED by GoPro and camera pt.55 [FailForceOne],"{'views': 1575374, 'by': 'Fail Force One', 'date': '5 Jan 2019', 'YT_id': 'w0yauhz8PGg'}",5,2,1450,580,1
210,Hunters Attacked by Animals Compilation,"{'views': 1493469, 'by': 'Southern Fishing Nation', 'date': '19 Jan 2018', 'YT_id': 'QitBrzzh4tA'}",0,2,0,580,1
211,Top 10 Slow Motion Shots ever | Wild Boar Hunting,"{'views': 6295317, 'by': '9anas Arabe Pro', 'date': '29 Nov 2017', 'YT_id': 'E3h_fxBbj9M'}",1,2,290,580,1
212,Unexpected Moments-didn't see that coming #2,"{'views': 986543, 'by': 'All The Amazing', 'date': '3 Mar 2019', 'YT_id': 'YT1TfZtaFwo'}",2,2,580,580,1
213,70 Times Shit Hit the Fan,"{'views': 55527, 'by': 'NewSong', 'date': '4 Mar 2019', 'YT_id': 'i-kFiuNfCaY'}",1,1,290,290,1
214,Top 10 Most Biggest Things Caught On Camera | Scary Mysterious Monster Catches Ever,"{'views': 1937, 'by': 'Top10 videosworld', 'date': '7 Mar 2019', 'YT_id': '6V2-JU2IdwY'}",2,0,580,0,1
215,7 Minutes Of Unbelievable Moments CAUGHT ON VIDEO!,"{'views': 1025310, 'by': 'Heart Of Champions', 'date': '9 Feb 2019', 'YT_id': 'AVC1W7ogbJ0'}",3,1,870,290,1
216,6 Minutes Of Unbelievable Moments CAUGHT ON VIDEO!,"{'views': 1313421, 'by': 'Heart Of Champions', 'date': '5 Feb 2019', 'YT_id': 'KR-sgV-aq_U'}",4,0,1160,0,1
217,Die besten Videos 2018 (Teil 14) || ✪ Stern DuTube,"{'views': 45082, 'by': 'Stern DuTube', 'date': '6 Mar 2019', 'YT_id': 'LBEX2dpAuT4'}",4,1,1160,290,1
218,Random Acts of Kindness - Restoring Faith in Humanity #3,"{'views': 345674, 'by': 'All The Amazing', 'date': '13 Jan 2019', 'YT_id': '6ece_K0aePI'}",4,2,1160,580,1
219,why humans are amazing Random Acts of Kindness videos,"{'views': 88000, 'by': 'wonder worlds', 'date': '18 Jul 2017', 'YT_id': 'CUSD4tSyzhM'}",3,2,870,580,1
220,🔴 SUPERMAN DAD ❤ !! Father Saves Their Children at The last Minute,"{'views': 52782911, 'by': 'SDAM PLAY', 'date': '7 Sep 2017', 'YT_id': 'KDs-FCiar7M'}",2,1,580,290,1
221,top 5 brave owners defends their dogs against attack,"{'views': 12938121, 'by': 'best pets', 'date': '19 Sep 2017', 'YT_id': '6gHtiw1riPQ'}",1,0,290,0,1
222,Momentos incriveis capturados por Câmeras,"{'views': 3484437, 'by': 'Ligado no Desconhecido', 'date': '19 Dec 2018', 'YT_id': 'VLc1fqWT1Ok'}",0,1,0,290,1
223,AS PESSOAS MAIS IDIOTAS DO MUNDO,"{'views': 937980, 'by': 'CLUELESS', 'date': '7 Jun 2017', 'YT_id': 'l7OVjX77los'}",1,2,290,580,1
224,LIKE A BOSS COMPILATION 😎😊🤣#27,"{'views': 5272551, 'by': 'White Star Show', 'date': '26 Oct 2018', 'YT_id': 'qh8Dvusjo5I'}",0,2,0,580,1
225,Funny Monkeys Doing Stupid Things - Funniest Animals Videos 2018,"{'views': 1231402, 'by': 'Funny Animals', 'date': '27 Feb 2019', 'YT_id': '70Tlujj7tYk'}",1,1,290,290,1
226,NEAR DEATH EXPERIENCES best of 2018 [FailForceOne],"{'views': 11492355, 'by': 'Fail Force One', 'date': '30 Dec 2018', 'YT_id': '7dROYEyPN44'}",0,0,0,0,1
227,"(US ONLY) CAR CRASHES, INSTANT KARMA, ROAD RAGE COMPILATION! #3","{'views': 1850583, 'by': 'American Crash Compilations', 'date': '10 Nov 2018', 'YT_id': '0EUdSrcB5Ys'}",3,0,870,0,1
228,"CAR CRASHES IN AMERICA #19 BAD DRIVERS USA, CANADA","{'views': 247731, 'by': 'SZ Best - Car Crashes &amp; Driving Fails', 'date': '4 Apr 2018', 'YT_id': 'UGiW8oKQEQw'}",4,0,1160,0,1
229,27 EXAMPLES OF HOW NOT TO DRIVE IN THE SNOW,"{'views': 702707, 'by': 'Go Big Or Go Home', 'date': '18 Jan 2018', 'YT_id': 'XeH9Fgsg_oU'}",5,1,1450,290,1
230,Hilarious Trucks and Off-Road Fails and Wins [Ep.#1] | 2019,"{'views': 255205, 'by': 'Badass Diesels Club', 'date': '31 Jan 2019', 'YT_id': '5v_Lz1HOSPU'}",5,2,1450,580,1
231,Best of European Dashcam 2018,"{'views': 1644076, 'by': 'BEST OF DASHCAM EUROPE', 'date': '1 Feb 2019', 'YT_id': '5P7zzivYbik'}",4,1,1160,290,1
232,Unexpected Moments-didn't see that coming #2,"{'views': 986543, 'by': 'All The Amazing', 'date': '3 Mar 2019', 'YT_id': 'YT1TfZtaFwo'}",5,0,1450,0,1
233,7 Minutes Of Unbelievable Moments CAUGHT ON VIDEO!,"{'views': 1025310, 'by': 'Heart Of Champions', 'date': '9 Feb 2019', 'YT_id': 'AVC1W7ogbJ0'}",3,1,870,290,1
234,TV Naughtiest Blunders 4 with Steve Penk - Part 2,"{'views': 131099, 'by': 'penkyify', 'date': '18 Oct 2014', 'YT_id': 'xMSEuc-MaTE'}",2,0,580,0,1
235,🤭🤭THE FUNNIEST BLONDE MOMENTS IN GAME SHOW HISTORY!🤭🤭(PART 12)🤭🤭,"{'views': 239058, 'by': ""GRIM'S CHANNEL"", 'date': '27 Sep 2018', 'YT_id': 'lsYyEvZZUiw'}",2,1,580,290,1
236,Bloopers That Got These Reporters Fired,"{'views': 6863438, 'by': 'Grunge', 'date': '20 Aug 2017', 'YT_id': 'gcfmlcf7_zY'}",1,0,290,0,1
237,10 Deleted Scenes From The Big Bang Theory You Need To See!,"{'views': 3296972, 'by': 'Film Focus', 'date': '31 May 2018', 'YT_id': 'Ybb2yYPxyx4'}",0,0,0,0,1
238,"ROAD RAGE IN NORTH AMERICA | LATEST NEWS, BREAKING STORIES and COMMENTS","{'views': 4166288, 'by': 'Fury Road', 'date': '16 Oct 2018', 'YT_id': 'vgfEVD4ktPw'}",1,1,290,290,1
239,"ROAD RAGE IN AMERICA (BEST OF THE YEAR) | BAD DRIVERS USA, CANADA","{'views': 9093686, 'by': 'Fury Road', 'date': '25 Dec 2017', 'YT_id': '6VtAnvH1mwQ'}",0,2,0,580,1
240,*PUBLIC FREAKOUT & CRINGE COMPILATION* AUGUST 2018,"{'views': 1748225, 'by': 'Social Fails Youtube', 'date': '17 Aug 2018', 'YT_id': 'eYk5ss-2wKU'}",1,2,290,580,1
241,COP MESSES WITH THE WRONG LAMBORGHINI OWNER!!,"{'views': 17626924, 'by': ""Stig's Persian Cousin"", 'date': '8 Jan 2019', 'YT_id': 'Q1DCda5Cabo'}",0,1,0,290,1
242,Tech Support Scammer Reacts To MEMZ Virus!(Destructive Virus),"{'views': 692434, 'by': 'Styles', 'date': '15 Jul 2017', 'YT_id': 'xB-rY2LowPE'}",2,2,580,580,1
243,Making life hell for refund scammers,"{'views': 733576, 'by': 'Jim Browning', 'date': '24 Sep 2018', 'YT_id': 'AXCcCulORbQ'}",3,2,870,580,1
244,Connecting IRS Scammers In The Same Call Center To Each Other! - The Hoax Hotel,"{'views': 1341184, 'by': 'The Hoax Hotel', 'date': '3 Nov 2016', 'YT_id': 'oWLfnFBsgLE'}",4,1,1160,290,1
245,Top 5 Moments Package Thieves GOT OWNED!,"{'views': 835400, 'by': 'Public Freakout Videos', 'date': '22 Dec 2018', 'YT_id': 'SyY6VtSB35Q'}",3,1,870,290,1
246,HERE ARE THE BEST 20 MOMENTS WHEN KARMA WAS SERVED,"{'views': 2195872, 'by': 'Go Big Or Go Home', 'date': '11 Jan 2018', 'YT_id': 'SauBGOb72sw'}",4,0,1160,0,1
247,BEST ROAD RAGE COMPILATION 2019 - INSTANT KARMA,"{'views': 204562, 'by': 'Only Jokez', 'date': '12 Feb 2019', 'YT_id': 'Er8_0v7TVqk'}",3,0,870,0,1
248,TOP OF INSTANT KARMA AND JUSTICE BEING SERVED AUGUST 2018,"{'views': 219639, 'by': 'Go Big Or Go Home', 'date': '20 Aug 2018', 'YT_id': '2u2nJap_3Cw'}",2,0,580,0,1
249,Unexpected Moments-didn't see that coming #2,"{'views': 986543, 'by': 'All The Amazing', 'date': '3 Mar 2019', 'YT_id': 'YT1TfZtaFwo'}",2,1,580,290,1
250,IDIOTS AT WORK  - JANUARY 2019,"{'views': 3458498, 'by': 'REAL TUBE', 'date': '10 Jan 2019', 'YT_id': 'cYk4yC7hJ0g'}",1,0,290,0,1
251,Bad Day at Work - Best Funny Work Fails - Ultimate Compilation 2018,"{'views': 3710076, 'by': 'Forfuntv', 'date': '23 Dec 2018', 'YT_id': 'CQw5k5kHK5U'}",1,1,290,290,1
252,Fatal accidents with large ships(ship sinking? human error?),"{'views': 1122311, 'by': 'X-MarcosTitanic', 'date': '22 Jan 2019', 'YT_id': 'aRI845IC4KQ'}",0,2,0,580,1
253,Funny Boat Fails to get you through your week.,"{'views': 976688, 'by': 'Rex Videos', 'date': '20 Nov 2018', 'YT_id': 'LuHnsPpzKtw'}",1,2,290,580,1
254,Fatal accidents with large ships(ship sinking? human error?),"{'views': 1122311, 'by': 'X-MarcosTitanic', 'date': '22 Jan 2019', 'YT_id': 'aRI845IC4KQ'}",2,2,580,580,1
255,Best of Idiotik Car Drivers - Welcome in Russia,"{'views': 565800, 'by': 'Caught on Camera', 'date': '16 Dec 2018', 'YT_id': 'StqwHXEIaTs'}",3,2,870,580,1
256,Horror!! the storm Waves of the sea beat up 5 ships,"{'views': 359925, 'by': 'Military Colonel Grub', 'date': '22 Dec 2018', 'YT_id': 'iN9pSV-Vok8'}",4,1,1160,290,1
257,Boats Caught Inside Massive Waves 2,"{'views': 6931681, 'by': 'SuRf, GaMe &amp; Action', 'date': '20 Sep 2018', 'YT_id': 'JNSmjNsCe8M'}",5,0,1450,0,1
258,10 Minutes Of Unbelievable Moments CAUGHT ON VIDEO 2019!,"{'views': 2442922, 'by': 'sameJos', 'date': '22 Feb 2019', 'YT_id': 'tssE26SLbHI'}",4,0,1160,0,1
259,2018 NEW!!Best Fail Videos / Super Funny Video collection,"{'views': 2988595, 'by': 'Ocean MeDia', 'date': '17 Jun 2018', 'YT_id': 'o4-jbq4JYyo'}",3,1,870,290,1
260,Funny Girl And Monkey and other fails! || Best fails and funny videos of the week! || February 2019!,"{'views': 761733, 'by': 'OWF', 'date': '8 Feb 2019', 'YT_id': 'bFKDXxypB8A'}",3,0,870,0,1
261,Thanda Impi lions don`t share food with anybody,"{'views': 1319770, 'by': 'james rabbit', 'date': '7 Feb 2019', 'YT_id': '-jbJUdfQo4A'}",2,0,580,0,1
262,BEST Lion vs Hyena Real Fight! Hyena Lion Attack Hunting Fight!,"{'views': 3878676, 'by': 'Kids Wild Animals', 'date': '24 Jan 2019', 'YT_id': 'eGKAqLHVbrs'}",1,0,290,0,1
263,Los Angeles police tackle pursuit suspect before jumping from freeway overpass,"{'views': 3911274, 'by': 'FOX 11 Los Angeles', 'date': '26 Sep 2016', 'YT_id': '0geElNgUNcU'}",0,0,0,0,1
264,Scary EARTHQUAKE Footage Compilation From Around The World,"{'views': 7244886, 'by': 'Wisdom Land', 'date': '4 Jul 2017', 'YT_id': '_hUGhoB2FnM'}",0,1,0,290,1
265,Box Truck stops Highspeed Police Pursuit! (18. Jan 2019) - TheBestOf,"{'views': 6718727, 'by': 'TheBestOf', 'date': '18 Jan 2019', 'YT_id': 'Mv-VQ1f5n5o'}",0,2,0,580,1
266,Incredible Police Videos - SWAT Detective Intoxicated with Machine Gun,"{'views': 728638, 'by': 'Ed', 'date': '11 Feb 2019', 'YT_id': 'Xi9v4H0q40k'}",1,1,290,290,1
267,Alaska State Troopers S07E07 | Alaska's Most Wanted,"{'views': 513046, 'by': 'The Best of', 'date': '28 Apr 2018', 'YT_id': 'i65R14pu4nA'}",2,2,580,580,1
268,The Hunt for the Texas 7 (English)(MSNBC Documentary 2008),"{'views': 893782, 'by': 'Television Clips', 'date': '26 Mar 2018', 'YT_id': 'wDrRlqrq340'}",2,1,580,290,1
269,Serial Killer Andrew Urdiales,"{'views': 430067, 'by': 'Kill &amp; Chill', 'date': '5 Feb 2019', 'YT_id': 'OhnX2ardiRE'}",3,2,870,580,1
270,The Murder of Danielle Jennings,"{'views': 157177, 'by': 'Kill &amp; Chill', 'date': '30 Jan 2019', 'YT_id': 'MYnoOguai4k'}",4,1,1160,290,1
271,"Forensic Files - Season 7, Ep 18: A Bitter Pill to Swallow","{'views': 804919, 'by': 'FilmRise', 'date': '18 Jul 2016', 'YT_id': 'qzKy7SWeKzs'}",5,1,1450,290,1
272,"Forensic Files - Season 10, Ep 14: A Leg Up On Crime","{'views': 168262, 'by': 'Forensic Files', 'date': '16 Oct 2014', 'YT_id': 'd88bTwMV2JQ'}",5,0,1450,0,1
273,"Forensic Files - Season 13, Ep 3: Shoot to Thrill","{'views': 214748, 'by': 'FilmRise', 'date': '24 Mar 2016', 'YT_id': 'W1jm6ZR7Hnk'}",4,0,1160,0,1
274,"The FBI Files: Season 3 - Ep 8 ""Millionaire Murder""","{'views': 812068, 'by': 'FilmRise True Crime', 'date': '3 Dec 2014', 'YT_id': 'xewwiNU5Prc'}",3,0,870,0,1
275,"The FBI Files: Season 4 - Ep 13 ""The Coffee Shop Murders""","{'views': 218689, 'by': 'FilmRise Documentaries', 'date': '13 May 2015', 'YT_id': 'YuhZNAC_z-Y'}",3,1,870,290,1
276,"The FBI Files: Season 2 - Ep 1 ""A Model Killer""","{'views': 945441, 'by': 'FilmRise True Crime', 'date': '27 Nov 2014', 'YT_id': 'altImFk9vSE'}",4,2,1160,580,1
277,"Unsolved Mysteries with Dennis Farina, Season 7 Episode 4","{'views': 63354, 'by': 'FilmRise True Crime', 'date': '8 Mar 2017', 'YT_id': 'aa3oGJU7YIM'}",5,2,1450,580,1
278,FBI Criminal Files Documentary- Jehovah Witness Family,"{'views': 1168548, 'by': 'Kim Mikey', 'date': '17 Sep 2015', 'YT_id': 'wNgRSOerj3U'}",0,1,0,290,1
279,"Forensic Files - Season 7, Ep 18: A Bitter Pill to Swallow","{'views': 804919, 'by': 'FilmRise', 'date': '18 Jul 2016', 'YT_id': 'qzKy7SWeKzs'}",1,0,290,0,1
280,Dateline 2017 Solved Poison By Love (NEW STORY),"{'views': 600676, 'by': 'Sells Deon', 'date': '12 Sep 2017', 'YT_id': 'S6Z69od5Ynw'}",1,1,290,290,1
281,Dateline 2017 Solved  Life and Death (NEW DATELINE),"{'views': 454886, 'by': 'Sells Deon', 'date': '13 Sep 2017', 'YT_id': 'z02F7fjjtvE'}",0,0,0,0,1
282,The Murder Of Amanda Brown Willie Crain Crime Documentary 2017,"{'views': 75055, 'by': 'Charity Lon', 'date': '9 Mar 2018', 'YT_id': 'xvlZ_QjxIYI'}",5,0,1450,0,1
283,Serial Killer William Lindsey,"{'views': 167840, 'by': 'Crime Watch', 'date': '24 Feb 2019', 'YT_id': 'RxWKBAxCVPE'}",4,0,1160,0,1
284,The Murder of Yvonne Oulton,"{'views': 88861, 'by': 'Kill &amp; Chill', 'date': '24 Feb 2019', 'YT_id': 'QX3W0KR6N74'}",3,0,870,0,1
285,Living with the Devil,"{'views': 397419, 'by': 'Is this one new?', 'date': '20 Oct 2018', 'YT_id': 'YJn2VYk-Z5U'}",2,0,580,0,1
286,The Murder of Levi Karlsen,"{'views': 97607, 'by': 'Crime Watch', 'date': '17 Feb 2019', 'YT_id': 'c8LW6TRd1qU'}",2,1,580,290,1
287,The Murders of Krystal Mitchell and Rashawn Jackson,"{'views': 60365, 'by': 'Kill &amp; Chill', 'date': '31 Jan 2019', 'YT_id': 'cQCAyMAw2sM'}",2,2,580,580,1
288,Living with the Devil,"{'views': 397419, 'by': 'Is this one new?', 'date': '20 Oct 2018', 'YT_id': 'YJn2VYk-Z5U'}",1,2,290,580,1
289,The Murder of Levi Karlsen,"{'views': 97607, 'by': 'Crime Watch', 'date': '17 Feb 2019', 'YT_id': 'c8LW6TRd1qU'}",0,1,0,290,1
290,Nowhere to Hide ~ Three Doctors One Wife,"{'views': 287572, 'by': 'SK Documentaries', 'date': '7 Aug 2014', 'YT_id': 'PRWgxMDm-AU'}",1,0,290,0,1
291,Evil Lives Here - Home Sweet Nightmare,"{'views': 309788, 'by': 'First Documentary', 'date': '18 Sep 2018', 'YT_id': 'QwCHELk5yQs'}",0,0,0,0,1
292,Oh Mother Where Art Thou E03,"{'views': 203556, 'by': 'Is this one new?', 'date': '25 May 2018', 'YT_id': 'wSTwktdY88Y'}",1,1,290,290,1
293,Nowhere to Hide ~ Three Doctors One Wife,"{'views': 287572, 'by': 'SK Documentaries', 'date': '7 Aug 2014', 'YT_id': 'PRWgxMDm-AU'}",0,2,0,580,1
294,The Perfect Murder - Vanishing Act,"{'views': 643287, 'by': 'Addicted To Documentary', 'date': '14 Mar 2018', 'YT_id': 'Wvht0GIAkTk'}",4,0,1160,0,1
295,Nowhere to Hide ~ Three Doctors One Wife,"{'views': 287572, 'by': 'SK Documentaries', 'date': '7 Aug 2014', 'YT_id': 'PRWgxMDm-AU'}",3,1,870,290,1
296,"""( hear no evil.EP06)  Dead and Deleted","{'views': 1145623, 'by': 'toni montana', 'date': '5 Jun 2018', 'YT_id': 'fgucCvtC-jA'}",2,1,580,290,1
297,Nowhere to Hide ~ Three Doctors One Wife,"{'views': 287572, 'by': 'SK Documentaries', 'date': '7 Aug 2014', 'YT_id': 'PRWgxMDm-AU'}",2,2,580,580,1
298,Evil Lives Here - Home Sweet Nightmare,"{'views': 309788, 'by': 'First Documentary', 'date': '18 Sep 2018', 'YT_id': 'QwCHELk5yQs'}",1,2,290,580,1
299,"Evil Lives Here - First Love, Forever Evil","{'views': 217671, 'by': 'First Documentary', 'date': '18 Sep 2018', 'YT_id': '9O9MGMMDu-Y'}",0,1,0,290,1
300,A Very Bad Day,"{'views': 171589, 'by': 'Is this one new?', 'date': '6 Dec 2018', 'YT_id': '9_nQgS8yI9Y'}",1,0,290,0,1
301,Welcome to Santa Claus,"{'views': 161131, 'by': 'Is this one new?', 'date': '29 Nov 2018', 'YT_id': 'ALBE-SSYjtY'}",2,0,580,0,1
302,THE BRUTAL MURDER OF 9 YR OLD GIRL SHARIN 'MORNINGSTAR' KEENAN - FULL DOCUMENTARY !,"{'views': 350199, 'by': 'Missing Kids Rescued Kids 2', 'date': '14 Apr 2017', 'YT_id': 'y06NuIttgLg'}",1,1,290,290,1
303,DOCS: I Gave Birth To My Killer Brother’s Baby - Britain’s Darkest Taboos #1,"{'views': 2736263, 'by': 'Barcroft TV', 'date': '22 Nov 2016', 'YT_id': 'J5eT_fV_Kd8'}",0,0,0,0,1
304,Their father believed in arranged marriage - and he was willing to end their lives for it,"{'views': 2667495, 'by': 'True Crime Daily', 'date': '12 Dec 2018', 'YT_id': 'MsPb5fWY_Q4'}",0,2,0,580,1
305,What happened to Alexis Murphy? Virginia teen remains missing,"{'views': 2741428, 'by': 'True Crime Daily', 'date': '19 Dec 2018', 'YT_id': 'yVe1GfJmWXA'}",5,2,1450,580,1
306,Pt. 1: Lake Trip With Friends Ends Tragically - Crime Watch Daily with Chris Hansen,"{'views': 599877, 'by': 'True Crime Daily', 'date': '6 Mar 2018', 'YT_id': 'tE8ul5Ndn2g'}",5,1,1450,290,1
307,"Nightmare Next Door: The Presti Murders - Woburn, Massachusetts","{'views': 1130540, 'by': 'thevideo guy', 'date': '13 Mar 2012', 'YT_id': 'nPd_wO8gEyo'}",4,0,1160,0,1
308,THE BRUTAL MURDER OF 9 YR OLD GIRL SHARIN 'MORNINGSTAR' KEENAN - FULL DOCUMENTARY !,"{'views': 350199, 'by': 'Missing Kids Rescued Kids 2', 'date': '14 Apr 2017', 'YT_id': 'y06NuIttgLg'}",3,0,870,0,1
309,American Justice Full Episodes The Susan Smith Story   A Mothers Confession,"{'views': 220012, 'by': 'tvshows', 'date': '20 Apr 2015', 'YT_id': 'rRmqemVDoKI'}",3,1,870,290,1
310,American Justice Full Episodes Murder And Mrs B,"{'views': 186300, 'by': 'tvshows', 'date': '20 Apr 2015', 'YT_id': '48Cy7e2cWJM'}",2,1,580,290,1
311,American Justice Full Episodes A Mothers Betrayal,"{'views': 51486, 'by': 'tvshows', 'date': '20 Apr 2015', 'YT_id': 'R5Xj6FXRYJs'}",3,2,870,580,1
312,American Justice Full Episodes It's Not My Fault Strange Defenses,"{'views': 117282, 'by': 'tvshows', 'date': '20 Apr 2015', 'YT_id': 'WLLTsjochYg'}",4,2,1160,580,1
313,"Forensic Files - Season 7, Ep 18: A Bitter Pill to Swallow","{'views': 804919, 'by': 'FilmRise', 'date': '18 Jul 2016', 'YT_id': 'qzKy7SWeKzs'}",4,1,1160,290,1
314,Forensic Files   06x05   Death Play,"{'views': 697410, 'by': 'Forensic Spider', 'date': '14 Feb 2015', 'YT_id': 'tq5LdcaEZuc'}",5,0,1450,0,1
315,"Forensic Files - Season 7, Ep 20: Telltale Tracks","{'views': 248725, 'by': 'FilmRise True Crime', 'date': '8 Jul 2016', 'YT_id': 'xDrjRy0nbd8'}",0,0,0,0,1
316,"Forensic Files (Medical Detectives) Season 10, Ep 42: Enemy Within","{'views': 262010, 'by': 'Ford Scudder', 'date': '9 Jul 2015', 'YT_id': 'p9cflRzElVE'}",1,0,290,0,1
317,"Forensic Files - Season 5, Ep 12: Foundation of Lies","{'views': 381091, 'by': 'Forensic Files', 'date': '1 Feb 2016', 'YT_id': 'nDw0b9Y2ol0'}",1,1,290,290,1
318,"Forensic Files - Season 10, Ep 18: Oily in the Morning","{'views': 522712, 'by': 'FilmRise', 'date': '24 Mar 2016', 'YT_id': 'qqTpMcHOnnE'}",1,2,290,580,1
319,"Forensic Files - Season 9, Ep 10: Head Games","{'views': 428050, 'by': 'FilmRise', 'date': '2 Feb 2016', 'YT_id': 'by31P4IGDLo'}",0,2,0,580,1
320,Forensic Files   Crimes of Passion   Web of Seduction,"{'views': 364059, 'by': 'Forensic Spider', 'date': '17 Jan 2015', 'YT_id': 'jfCmfDMqtNk'}",0,1,0,290,1
321,Snowtown: Bodies In The Barrels - Crime Investigation Australia | Murders Documentary | True Crime,"{'views': 220772, 'by': 'Reel Truth Crime - True Crime', 'date': '14 Nov 2018', 'YT_id': 'qeHL0bQVIfU'}",2,0,580,0,1
322,"Forensic Files - Season 7, Ep 18: A Bitter Pill to Swallow","{'views': 804919, 'by': 'FilmRise', 'date': '18 Jul 2016', 'YT_id': 'qzKy7SWeKzs'}",3,1,870,290,1
323,THE BRUTAL MURDER OF 9 YR OLD GIRL SHARIN 'MORNINGSTAR' KEENAN - FULL DOCUMENTARY !,"{'views': 350199, 'by': 'Missing Kids Rescued Kids 2', 'date': '14 Apr 2017', 'YT_id': 'y06NuIttgLg'}",4,1,1160,290,1
324,MIKELLE BIGGS ABDUCTION - KIDNAPPED WHILE WAITING FOR ICE-CREAM ! - FULL DOCUMENTARY - PT 1 OF 3,"{'views': 214919, 'by': 'Missing Kids Rescued Kids 2', 'date': '24 Jan 2016', 'YT_id': 'IDQUyBTe9VU'}",4,0,1160,0,1
325,ELIZABETH SHOAF ABDUCTION - HELD CAPTIVE IN AN UNDERGROUND BUNKER ! - FULL DOCUMENTARY - PT 1 OF 6,"{'views': 223181, 'by': 'Missing Kids Rescued Kids 2', 'date': '31 Jul 2016', 'YT_id': 'dnxp2_f1mAo'}",5,1,1450,290,1
326,ELIZABETH SHOAF ABDUCTION - HELD CAPTIVE IN AN UNDERGROUND BUNKER ! - FULL DOCUMENTARY - PT 2 OF 6,"{'views': 133263, 'by': 'Missing Kids Rescued Kids 2', 'date': '31 Jul 2016', 'YT_id': '_cIQ2dQll_s'}",4,2,1160,580,1
327,Chris Watts Prison Interview Part Three,"{'views': 20518, 'by': 'Scott Reisch.com', 'date': '7 Mar 2019', 'YT_id': '4Xboj-xfvxc'}",3,2,870,580,1
328,Chris Watts confesses to killing his pregnant wife and two young daughters,"{'views': 41631, 'by': '9NEWS', 'date': '7 Mar 2019', 'YT_id': 'HXWTwOKD2QM'}",2,2,580,580,1
329,Crocodile Tears | When murderers lie to the cameras | Sunday Night,"{'views': 218670, 'by': 'Sunday Night', 'date': '3 Mar 2019', 'YT_id': 'hFbf9JMU9vw'}",1,1,290,290,1
330,Dad gets life for targeting son for insurance payout,"{'views': 681074, 'by': 'True Crime Daily', 'date': '19 Feb 2019', 'YT_id': 'sfsZkWQTwoA'}",0,1,0,290,1
331,Anxiang Du - The Family Slayer - A Killer's Mistake,"{'views': 534530, 'by': 'Tony Noakes17', 'date': '3 Feb 2019', 'YT_id': '2Q8DjyxE5DM'}",1,2,290,580,1
332,"Forensic Files - Season 7, Ep 18: A Bitter Pill to Swallow","{'views': 804919, 'by': 'FilmRise', 'date': '18 Jul 2016', 'YT_id': 'qzKy7SWeKzs'}",0,2,0,580,1
333,Serial Killer William Lindsey,"{'views': 167840, 'by': 'Crime Watch', 'date': '24 Feb 2019', 'YT_id': 'RxWKBAxCVPE'}",3,1,870,290,1
334,A Killer Among Us,"{'views': 61926, 'by': 'Is this one new?', 'date': '18 Feb 2019', 'YT_id': 'SK4lCbmN1sw'}",3,0,870,0,1
335,The Murder of Kristy Ray,"{'views': 94526, 'by': 'Kill &amp; Chill', 'date': '24 Feb 2019', 'YT_id': 'MZR9rbvH2kI'}",4,0,1160,0,1
336,Crimes That Shook Australia  S03E06  Morgan Huxley,"{'views': 72543, 'by': 'David Groves', 'date': '9 Feb 2019', 'YT_id': 'z6AxFwXNuRM'}",4,1,1160,290,1
337,Mother and Son Murderers | A Current Affair,"{'views': 174097, 'by': 'A Current Affair', 'date': '22 Feb 2019', 'YT_id': 'ywLSAfFFFVc'}",5,0,1450,0,1
338,Investigating Russian Women Dating Foreign Men in Ukraine,"{'views': 526918, 'by': 'LoveMe.com', 'date': '8 Jan 2019', 'YT_id': 'XLb7DPxl7ME'}",5,1,1450,290,1
339,Hidden crime affecting hundreds of women  | 60 Minutes Australia,"{'views': 1097637, 'by': '60 Minutes Australia', 'date': '14 May 2018', 'YT_id': 'eX_ILFHQtcQ'}",4,2,1160,580,1
340,The Price of Freedom (2006) | 60 Minutes Australia,"{'views': 273052, 'by': '60 Minutes Australia', 'date': '26 Apr 2017', 'YT_id': 'gNdbTYUCixQ'}",3,2,870,580,1
341,60 Minutes BOMBSHELL interview Jenna Miscavige speaks out,"{'views': 1195351, 'by': 'SurvivingScientology', 'date': '23 Jul 2013', 'YT_id': 'decYgnNq1wo'}",2,1,580,290,1
342,"A millionaire, a bizarre 911 call, and a dubious story","{'views': 1442271, 'by': 'True Crime Daily', 'date': '11 Jan 2019', 'YT_id': 'cXfdzhSFPBc'}",2,2,580,580,1
343,The Cult That Makes Your Debts Disappear,"{'views': 961001, 'by': 'VICE Asia', 'date': '22 Nov 2018', 'YT_id': 'o0ms_dmY6V8'}",1,1,290,290,1
344,W5: Investigation of money laundering at B.C. casinos,"{'views': 100145, 'by': 'Official W5', 'date': '9 Feb 2019', 'YT_id': 'ddsGyJ-7Zw0'}",0,1,0,290,1
345,Stock Frauds : Dan and Carol Get Busted - the fifth estate,"{'views': 126361, 'by': 'The Fifth Estate', 'date': '25 Nov 2016', 'YT_id': '4PIHI--96F8'}",0,0,0,0,1
346,Traitors Within - Spies Who Sold Out America,"{'views': 2534003, 'by': 'Dune Buggy', 'date': '15 Aug 2016', 'YT_id': 'xfi8FIh7tsU'}",1,0,290,0,1
347,What You're Not Supposed to Know About America's Founding,"{'views': 2034169, 'by': 'TheJohnBirchSociety', 'date': '19 Oct 2016', 'YT_id': '364cxeR5EAg'}",2,0,580,0,1
348,Is the Zionist Movement Leading Global Dominance?,"{'views': 62382, 'by': 'TruNews', 'date': '21 Feb 2019', 'YT_id': 'xzedJAG0Mpo'}",3,0,870,0,1
349,What They SECRETLY Told You At The Prophetic Oscars 2019,"{'views': 185139, 'by': 'TruthUnveiled777', 'date': '28 Feb 2019', 'YT_id': '7KAY9NmKaio'}",4,1,1160,290,1
350,VERY PROPHETIC! BLACK HISTORY MONTH 2019 EXODUS REFERENCE! 400 YEARS!!,"{'views': 118922, 'by': 'TruthUnveiled777', 'date': '31 Jan 2019', 'YT_id': '-mSZdAnEFOU'}",5,2,1450,580,1
351,"SerialBrain2: Bye Crooked Hillary, [-21] and mysterious tests. Can you solve?","{'views': 194026, 'by': 'And We Know', 'date': '6 Mar 2019', 'YT_id': 'qp98xZqeJ24'}",4,2,1160,580,1
352,Tom Fitton Delivers Remarks on the Clinton Foundation & Uranium One Scandals (12/13/18),"{'views': 29201, 'by': 'Judicial Watch', 'date': '7 Mar 2019', 'YT_id': '1uVCFRqTUhM'}",5,1,1450,290,1
353,MAJOR CATASTROPHE COMING TO AMERICA!! YOU'VE BEEN WARNED..,"{'views': 138782, 'by': 'AMTV', 'date': '7 Mar 2019', 'YT_id': '2ynIkyq4oqI'}",5,0,1450,0,1
354,Setting Fire to Satans' Harvest,"{'views': 18309, 'by': 'A &amp; Ω Productions', 'date': '7 Mar 2019', 'YT_id': 'vuXgci3ayxQ'}",4,0,1160,0,1
355,This is Just the Beginning 2019 || Abortion Rights Until Birth!!,"{'views': 66968, 'by': 'A &amp; Ω Productions', 'date': '27 Jan 2019', 'YT_id': 'vZL7tYEAFHo'}",3,1,870,290,1
356,How To Have Victory Over Satan in Your Life,"{'views': 306929, 'by': 'A &amp; Ω Productions', 'date': '22 Jan 2019', 'YT_id': 'tJ4dU7i6Kik'}",3,2,870,580,1
357,End of the World - The Day of Rapture - Must Watch,"{'views': 324057, 'by': 'OTG Ministry', 'date': '27 Jan 2019', 'YT_id': 'K2UZdby_emU'}",2,2,580,580,1
358,Angels are Real: A Video for the Skeptics Pt 2,"{'views': 615758, 'by': 'Shattered Paradise', 'date': '8 Mar 2017', 'YT_id': 'w6xZqxIN2bs'}",2,1,580,290,1
359,3 Kinds of Hell (The Devil Never Wanted Christians To Watch This Video),"{'views': 120985, 'by': 'Grace Digital Network', 'date': '29 Jan 2019', 'YT_id': 'ykcYMuV6wsI'}",1,0,290,0,1
360,"jehovah's witnesses is taken  to hell,saw dr luther","{'views': 129517, 'by': 'peniel ngonde', 'date': '1 Dec 2018', 'YT_id': 'ZIu8EAqjFaU'}",0,0,0,0,1
361,JOEL OSTEEN DENIES JESUS CHRIST & OPRAH WINFREY EXPOSED! Joel Osteen hoax parody,"{'views': 4970227, 'by': 'KSISKproductions', 'date': '8 Apr 2012', 'YT_id': 'weEWl52wevI'}",1,1,290,290,1
362,Certified Goon  Judge Joe Brown Gets Cussed The Hell Out! Im Leaving. F ck You,"{'views': 13965817, 'by': 'sakem tranquillo', 'date': '14 Feb 2010', 'YT_id': 'kWkDOS4073Q'}",1,2,290,580,1
363,CHEATERS Reverend's Wife Goes 180 on Her Husband,"{'views': 435258, 'by': 'mikey abram', 'date': '13 Aug 2017', 'YT_id': 'H-0NdmsdooU'}",0,1,0,290,1
364,"Cheaters Desmond Hainsey, Joseph Tyler","{'views': 51870, 'by': 'GAME CHEAT', 'date': '15 Feb 2018', 'YT_id': 'rjrVQT-94ws'}",0,2,0,580,1
365,JUDGE JOE BROWN SET HER ASS UP NICE!!!....,"{'views': 86515, 'by': 'Ole Swag', 'date': '8 Feb 2019', 'YT_id': 'qJ-dt4By1CY'}",4,0,1160,0,1
366,Jerry Springer - Surprise I'm A Transsexual! Part  1,"{'views': 46520, 'by': 'jsb sebrgh', 'date': '15 Feb 2019', 'YT_id': 'j4JVjsNpKOY'}",3,0,870,0,1
367,Church Scandal! Bishop Denies Paternity Of Younger Woman's Child (Full Episode) | Paternity Court,"{'views': 461217, 'by': 'Paternity Court', 'date': '1 Mar 2019', 'YT_id': 'rbDg5M5N9UE'}",2,0,580,0,1
368,Late Night Massage Resulted in Pregnancy (Full Episode) | Paternity Court,"{'views': 372969, 'by': 'Paternity Court', 'date': '27 Nov 2018', 'YT_id': 'oO-xwD4mz74'}",3,1,870,290,1
369,Man Moved Into Woman's House 3 Weeks After They Met (Full Episode) | Paternity Court,"{'views': 402764, 'by': 'Paternity Court', 'date': '21 Nov 2018', 'YT_id': 'WBwrgZN8Gvw'}",2,1,580,290,1
370,Fiancé or Current Husband May Be True Father (Full Episode) | Paternity Court,"{'views': 572687, 'by': 'Paternity Court', 'date': '16 Nov 2018', 'YT_id': 'yqutFzGQICU'}",1,0,290,0,1
371,"Woman Claims She Is A ""Fast Breeder"" (Full Episode) | Paternity Court","{'views': 789608, 'by': 'Paternity Court', 'date': '14 Nov 2018', 'YT_id': '6pTnmS6u9Cw'}",1,1,290,290,1
372,Church Scandal! Bishop Denies Paternity Of Younger Woman's Child (Full Episode) | Paternity Court,"{'views': 461217, 'by': 'Paternity Court', 'date': '1 Mar 2019', 'YT_id': 'rbDg5M5N9UE'}",2,2,580,580,1
373,"Paternity Court March 07, 2019 Full Episode│Lauren Lake's Paternity","{'views': 81491, 'by': 'Paul Mazzotta', 'date': '7 Mar 2019', 'YT_id': 'm-O4YTEjjOE'}",1,2,290,580,1
374,Judge Judy Season 2019 Best Case #245,"{'views': 856, 'by': 'Kenny Morris', 'date': '6 Mar 2019', 'YT_id': '1w7xCcm6FNQ'}",0,2,0,580,1
375,Judge Judy Season 2019 Best Case #238,"{'views': 12404, 'by': 'Kenny Morris', 'date': '2 Mar 2019', 'YT_id': 'BUmiZRnOvJ4'}",0,1,0,290,1
376,Judge Judy Season 2019 Episode 244,"{'views': 673, 'by': 'Jennifer Field', 'date': '2 Mar 2019', 'YT_id': 'ia_Uiz7HeN8'}",0,0,0,0,1
377,Judge Judy Season 2019 Best Case #235,"{'views': 3519, 'by': 'Kenny Morris', 'date': '2 Mar 2019', 'YT_id': 'N5sm4rBLA3k'}",4,2,1160,580,1
378,Judge Judy Season 2019 Episode 246,"{'views': 4906, 'by': 'Jennifer Field', 'date': '2 Mar 2019', 'YT_id': 'GVN62KaWdiE'}",5,1,1450,290,1
379,Judge Judy Season 2019 Best Cases Episodes 406,"{'views': 93825, 'by': 'Reqqas Nadir Gence', 'date': '2 Mar 2019', 'YT_id': '2dmA5AEgrnU'}",4,0,1160,0,1
380,Judge Judy Season 2019 Best Episodes 444,"{'views': 3561, 'by': 'Gary C. Roberts', 'date': '7 Mar 2019', 'YT_id': 'SlswtDH3v8A'}",4,1,1160,290,1
381,Judge Judy Season 2019 Best Cases 330,"{'views': 10415, 'by': 'DJ Thái Hoàng', 'date': '1 Mar 2019', 'YT_id': 'o6Bv3ttx0Ps'}",3,0,870,0,1
382,Judge Judy Season 2019 Best Cases 324,"{'views': 32455, 'by': 'DJ Thái Hoàng', 'date': '26 Feb 2019', 'YT_id': 'sEp0RCVT9Rg'}",2,0,580,0,1
383,Judge Judy Season 2019 Best Cases Episodes 410,"{'views': 49755, 'by': 'Reqqas Nadir Gence', 'date': '5 Mar 2019', 'YT_id': 'iyGVqJ4RRhQ'}",2,1,580,290,1
384,Judge Judy Season 2019 Episode 312,"{'views': 16327, 'by': 'DJ Thái Hoàng', 'date': '18 Feb 2019', 'YT_id': '3h7QVzY3zlg'}",1,2,290,580,1
