id,text,properties,mx,my,x,y,age
0,Boyka vs Iceman (Chamber) - Undisputed 2,"{'views': 5055400, 'by': 'Shayan Abeed', 'date': '16 feb. 2019', 'YT_id': 'iKi14ypD4Co'}",0,0,0,0,0
0,Boyka vs Iceman (Chamber) - Undisputed 2,"{'views': 5055400, 'by': 'Shayan Abeed', 'date': '16 feb. 2019', 'YT_id': 'iKi14ypD4Co'}",0,0,0,0,1
1,Юрий Бойка против Игоря Казимира. Бой с чемпионом Зураба. Неоспоримый 4,"{'views': 36809757, 'by': 'КиноМоменты', 'date': '20 jun. 2017', 'YT_id': 'RNMS8TBuK3k'}",1,1,290,290,1
2,Melhor capoeirista do mundo,"{'views': 3661605, 'by': 'waffles tv z', 'date': '18 okt. 2017', 'YT_id': 'wh37te8NsZQ'}",0,2,0,580,1
3,Garoto de 19 anos destrói super lutador,"{'views': 3647442, 'by': 'MMA e Artes Marciais', 'date': '25 okt. 2018', 'YT_id': 'yKteDl71SZw'}",1,2,290,580,1
4,Spectacular attacks of wild animals. Fight for survival. Fighting animals,"{'views': 4546709, 'by': 'Hunting Wild hunt TV', 'date': '10 okt. 2016', 'YT_id': 'id_AiCaLavo'}",0,1,0,290,1
5,Hot Coyote Double.,"{'views': 2034727, 'by': 'Decoy Doggers', 'date': '30 sep. 2018', 'YT_id': 'e59jvf9O_Fs'}",1,0,290,0,1
6,STREETBEEFS REMATCH!! HEATHEN VS EL DIABLO,"{'views': 5320134, 'by': 'STREETBEEFS FIGHTS', 'date': '28 okt. 2017', 'YT_id': '6JesJOWgZ5I'}",2,0,580,0,1
7,5 Shocking Fishing Moments Caught On Camera 2018! #2,"{'views': 10673367, 'by': 'TruthRevolutionNet', 'date': '12 nov. 2018', 'YT_id': '2dQKbhDKjLc'}",2,1,580,290,1
8,WHAT COULD GO WRONG Compilation,"{'views': 204016, 'by': 'LOFE', 'date': '29 dec. 2018', 'YT_id': 'ybhAwXOoA7w'}",2,2,580,580,1
