id,text,properties,mx,my,x,y,age
0,Tina WALKS OUT After A Bad Joke | Come Dine With Me,"{'views': 823150, 'by': 'Come Dine With Me', 'date': '31 Dec 2018', 'YT_id': '23q7Z3yCIhA'}",0,0,0,0,0
0,Tina WALKS OUT After A Bad Joke | Come Dine With Me,"{'views': 823150, 'by': 'Come Dine With Me', 'date': '31 Dec 2018', 'YT_id': '23q7Z3yCIhA'}",0,0,0,0,1
1,"Man brings pizza to teen’s house, meets Chris Hansen instead","{'views': 17573556, 'by': 'True Crime Daily', 'date': '10 Nov 2018', 'YT_id': 'zJIlftta6fk'}",1,0,290,0,1
2,lying cops owned by an uber driver who was actually a lawyer,"{'views': 2915905, 'by': 'itsHim', 'date': '24 Oct 2017', 'YT_id': '89hWthT4Qck'}",1,1,290,290,1
3,"Lady Lawyer Owns Male Cop in Bensalem, PA","{'views': 5522523, 'by': 'SHARK', 'date': '28 Jan 2017', 'YT_id': 'e4TexGoL6tQ'}",0,1,0,290,1
4,"(Stupid) Officer doesn’t know the law! Woman puts him in check, eloquently.","{'views': 1285567, 'by': 'San Joaquin Valley Transparency', 'date': '17 Aug 2018', 'YT_id': '-rkUf8FqXX8'}",1,2,290,580,1
5,Michigan Cops Lose It Over Silent Photography PT.2,"{'views': 930194, 'by': 'Freedom News Now', 'date': '8 May 2017', 'YT_id': 'L9jOcoNDPDs'}",2,2,580,580,1
6,"Houston,Tx.-Police Dept.-Officer Orr=Liars & Tyrants found- Pt1","{'views': 1376547, 'by': 'News Now Houston', 'date': '23 Nov 2016', 'YT_id': 'LrZ4UYwf30A'}",2,1,580,290,1
7,This Ex Cop Owns These Cops When They Try to Harass Him,"{'views': 113285, 'by': 'SNN', 'date': '5 Mar 2019', 'YT_id': 'BLEBYc3oNsA'}",1,0,290,0,1
8,THE ID CHALLENGE,"{'views': 125529, 'by': 'TXSHEEPDOG72', 'date': '3 Mar 2019', 'YT_id': 'e7g9t_0CL9U'}",0,0,0,0,1
9,DHS detains and batters Cameraman JC Playford,"{'views': 859434, 'by': 'NewsNowSanDiego', 'date': '14 Jul 2014', 'YT_id': 'H3h-PZ0RIQk'}",0,1,0,290,1
10,Glenpool Oklahoma Is that something you learned on YouTube unlawful detainment,"{'views': 299295, 'by': 'Not Now Maybe Later', 'date': '25 Oct 2018', 'YT_id': 'Fit2_9Cb3dA'}",1,2,290,580,1
11,Okmulgee Oklahoma leave or be arrested,"{'views': 30148, 'by': 'Not Now Maybe Later', 'date': '6 Nov 2018', 'YT_id': 'fjncyEWh_U4'}",2,2,580,580,1
12,City of Okmulgee,"{'views': 17376, 'by': 'Not Now Maybe Later', 'date': '14 Feb 2019', 'YT_id': 'ORlZh_x_rBg'}",2,1,580,290,1
13,"SJW TwiLightZone/Monty Python ""Prophecy"" Compilation Vol 1.","{'views': 20911, 'by': 'HighImpactFlix', 'date': '', 'YT_id': 'FjiWZZB92YA'}",1,1,290,290,1
14,"Kurt Vonnegut, Shape of Stories (subtitulos castellano)","{'views': 108745, 'by': 'Eva Collins', 'date': '14 Jul 2018', 'YT_id': 'GOGru_4z1Vc'}",0,2,0,580,1
15,Kurt Vonnegut interview on 90 Minutes Live - 1978,"{'views': 41851, 'by': 'DB', 'date': '7 May 2017', 'YT_id': 'kIqQZHJHPwY'}",0,1,0,290,1
16,No Country For Old Men — Dissecting A Collaborative Masterpiece,"{'views': 135918, 'by': 'Tyler Mowery', 'date': '28 Mar 2017', 'YT_id': 'N9SF4mXi49o'}",1,0,290,0,1
17,Holding Long and Cutting Short: 2 Brilliant Moments in Editing,"{'views': 1122349, 'by': 'CineFix', 'date': '1 Aug 2016', 'YT_id': 'f78muH3MG7M'}",2,0,580,0,1
18,Jean-Claude Van Damme Reveals Why He Left ‘Predator’ | Heat Vision,"{'views': 371746, 'by': 'The Hollywood Reporter', 'date': '1 Mar 2019', 'YT_id': 'bqYh3dlKTOY'}",2,1,580,290,1
19,Mike Myers Salutes Sean Connery In A Kilt at the AFI Life Achievement Award,"{'views': 2819269, 'by': 'American Film Institute', 'date': '6 Jan 2009', 'YT_id': 'KQYp8xJ4kpo'}",1,2,290,580,1
20,Parkinson Billy Connolly Tom Cruise part1.flv,"{'views': 2928576, 'by': 'abozoz1', 'date': '15 Mar 2012', 'YT_id': 'u6fq4jHEuhc'}",1,1,290,290,1
21,Tommy Cooper Variety Club Speech,"{'views': 760641, 'by': 'KillianM2', 'date': '20 May 2015', 'YT_id': 'dz3xbDrVWik'}",0,0,0,0,1
22,Heroes of Comedy: Bernard Manning (Part 2/4),"{'views': 242016, 'by': 'Cadaver2014', 'date': '17 Jun 2014', 'YT_id': 'kZ05k4UKovc'}",1,0,290,0,1
