,source,target,target_url
0,start,She Thinks Eminem Is Her Father... then Eminem walks out...!,https://www.youtube.com/watch?v=cg_n6yChXhU
1,She Thinks Eminem Is Her Father... then Eminem walks out...!,"15 YEAR OLD CRIES OVER NOT GETTING $231,000 - DR PHIL #1",https://www.youtube.com/watch?v=w5gbHSfbiK4
2,She Thinks Eminem Is Her Father... then Eminem walks out...!,Angry Acts: Top 5 Angriest Contestants from The X Factor UK,https://www.youtube.com/watch?v=RWn6AjDc_hI
3,She Thinks Eminem Is Her Father... then Eminem walks out...!,#TANAFORPRISON,https://www.youtube.com/watch?v=5TU-lm1TtWg
4,She Thinks Eminem Is Her Father... then Eminem walks out...!,Top 10 Creepiest Things Found in the Woods,https://www.youtube.com/watch?v=HnPcnu-I9Uk
5,She Thinks Eminem Is Her Father... then Eminem walks out...!,GIRL SAYS SHES PREG WITH BABY JESUS,https://www.youtube.com/watch?v=DJKMbyFXjgs
6,She Thinks Eminem Is Her Father... then Eminem walks out...!,I Tried Escaping A SWAT Team,https://www.youtube.com/watch?v=YGcWcsajSDQ
7,She Thinks Eminem Is Her Father... then Eminem walks out...!,YOU LAUGH YOU SAD,https://www.youtube.com/watch?v=v-Olc9_Imhs
8,She Thinks Eminem Is Her Father... then Eminem walks out...!,Top 10 Cringiest Dr. Phil Moments,https://www.youtube.com/watch?v=Z8mteKF72-U
9,She Thinks Eminem Is Her Father... then Eminem walks out...!,WHO'S MORE LIKELY TO...?,https://www.youtube.com/watch?v=jA0xR2Ho9UU
10,She Thinks Eminem Is Her Father... then Eminem walks out...!,The Try Guys Diet Like Pregnant Women For A Week,https://www.youtube.com/watch?v=JzWtoP1Xhc0
11,She Thinks Eminem Is Her Father... then Eminem walks out...!,REACTING TO LOGAN PAUL FAN CRINGE,https://www.youtube.com/watch?v=QMWfH8CuL4c
12,She Thinks Eminem Is Her Father... then Eminem walks out...!,Botchamania 370,https://www.youtube.com/watch?v=y7IMI0wMxbI
13,She Thinks Eminem Is Her Father... then Eminem walks out...!,THIS KID IS GETTING SUED *and you'll never guess why*,https://www.youtube.com/watch?v=QcrPSWnozmk
14,She Thinks Eminem Is Her Father... then Eminem walks out...!,92% WONT GET THIS JOKE. ARE YOU THE 9%?,https://www.youtube.com/watch?v=z9nyvWE60Tk
15,She Thinks Eminem Is Her Father... then Eminem walks out...!,vines 2 distract you from life's pressures,https://www.youtube.com/watch?v=rP_pQdkU3N0
16,She Thinks Eminem Is Her Father... then Eminem walks out...!,YOUTUBER GOES ON DR PHIL.,https://www.youtube.com/watch?v=RCVT8Vp6Dp0
17,She Thinks Eminem Is Her Father... then Eminem walks out...!,LEARN SWEDISH SWEARWORDS,https://www.youtube.com/watch?v=jRC-UlucmRU
18,She Thinks Eminem Is Her Father... then Eminem walks out...!,She's angry because I made fun of her...,https://www.youtube.com/watch?v=jJI2qJmDLAQ
19,She Thinks Eminem Is Her Father... then Eminem walks out...!,"Top 5 Youtubers WHO GOT ROASTED ON LIVE TV! (Logan Paul, KSI & More)",https://www.youtube.com/watch?v=1KSr1TN-Pkc
20,She Thinks Eminem Is Her Father... then Eminem walks out...!,THE MOST INSANE UNO GAME EVER! (UNO Funny Moments),https://www.youtube.com/watch?v=DXH6wbqW5Bs
21,start,JUDGE REMOVES STAN LEE'S PROTECTION & HE SAYS HE'S GIVING UP ON LIFE,https://www.youtube.com/watch?v=zNYSSpxmG6w
22,start,UFC 226: Daniel Cormier and Brock Lesnar Octagon Interviews,https://www.youtube.com/watch?v=sQpTaBuMa44
23,UFC 226: Daniel Cormier and Brock Lesnar Octagon Interviews,Fight Night Boise Free Fight: Junior Dos Santos vs Mark Hunt,https://www.youtube.com/watch?v=z_6smjFoFc8
24,start,Wood Turning the World Cup Ball - Telstar 18,https://www.youtube.com/watch?v=wa43K5w1DcU
25,start,Out of Bounds Discoveries | Crash Bandicoot N. Sane Trilogy  - Boundary Break,https://www.youtube.com/watch?v=_n2iQcNlr9w
26,Out of Bounds Discoveries | Crash Bandicoot N. Sane Trilogy  - Boundary Break,Off Camera Secrets | Breath of the Wild  - Boundary Break,https://www.youtube.com/watch?v=geVgWMtbZNo
27,start,"Tiësto, Dzeko - ft. Preme & Post Malone – Jackie Chan (Official Music Video)",https://www.youtube.com/watch?v=OWz3rQQaf_Q
28,start,Controlling Man Makes His Girlfriend Kiss His Feet | Jeremy Kyle USA,https://www.youtube.com/watch?v=qMBeKMm0oxA
29,Controlling Man Makes His Girlfriend Kiss His Feet | Jeremy Kyle USA,"Rudest, Most Offensive Guests Ever 2 | The Jeremy Kyle Show",https://www.youtube.com/watch?v=dyW7yB9FDHs
30,Controlling Man Makes His Girlfriend Kiss His Feet | Jeremy Kyle USA,An Enraged Jeremy Kicks an Abusive Guest Off His Stage | Jeremy Kyle USA,https://www.youtube.com/watch?v=CZT-1_BNtfs
31,Controlling Man Makes His Girlfriend Kiss His Feet | Jeremy Kyle USA,The Iceman Tapes   Richard Kuklinski Inside the Mind of A Mafia Hitman,https://www.youtube.com/watch?v=mmY3qhlCshY
32,Controlling Man Makes His Girlfriend Kiss His Feet | Jeremy Kyle USA,Dr. Phil Embarrasses Spoiled Rich Girl,https://www.youtube.com/watch?v=LAjZSwa4DCQ
33,Controlling Man Makes His Girlfriend Kiss His Feet | Jeremy Kyle USA,Top 25 Punches That Will Never Be Forgotten... Pt3,https://www.youtube.com/watch?v=KQMkWKmToEY
34,Controlling Man Makes His Girlfriend Kiss His Feet | Jeremy Kyle USA,"Strangest, Most Bizarre Guests Ever! | The Jeremy Kyle Show",https://www.youtube.com/watch?v=nQaKyX00Bxw
35,Controlling Man Makes His Girlfriend Kiss His Feet | Jeremy Kyle USA,Inside The Gangsters Code - The 18th Street 🔵🔵🔵🔵 New Channel,https://www.youtube.com/watch?v=STxvI0b6-KY
36,Controlling Man Makes His Girlfriend Kiss His Feet | Jeremy Kyle USA,5 Disturbing 911/999 Calls Made By Killers,https://www.youtube.com/watch?v=dXLYCzknDf0
37,Controlling Man Makes His Girlfriend Kiss His Feet | Jeremy Kyle USA,Angriest Acts: X Factor UK 'The Early Years',https://www.youtube.com/watch?v=iYnPAf3xFes
38,Controlling Man Makes His Girlfriend Kiss His Feet | Jeremy Kyle USA,Father Sees His Child With Bruises On Her Arm | Jeremy Kyle USA,https://www.youtube.com/watch?v=uvlhfzxIjrA
39,Controlling Man Makes His Girlfriend Kiss His Feet | Jeremy Kyle USA,The Destruction of Jeremy's Set | The Jeremy Kyle Show,https://www.youtube.com/watch?v=xEOjeORu4Ss
40,Controlling Man Makes His Girlfriend Kiss His Feet | Jeremy Kyle USA,ALEX ERNST FUNNY MOMENTS *ALL IN ONE*,https://www.youtube.com/watch?v=rzzy5cmgIts
41,Controlling Man Makes His Girlfriend Kiss His Feet | Jeremy Kyle USA,Most Aggressive Guest Ever Calls Himself the Ultimate Ladies Man | The Jeremy Kyle Show,https://www.youtube.com/watch?v=KSjKA5sDJb8
42,Controlling Man Makes His Girlfriend Kiss His Feet | Jeremy Kyle USA,Romantic Relationship Is Destroyed by Shocking Lie Detector Results | The Jeremy Kyle Show,https://www.youtube.com/watch?v=BdqMG4hDoto
43,Controlling Man Makes His Girlfriend Kiss His Feet | Jeremy Kyle USA,Hysterical Woman Loses Control After Failing Her Lie Detector Test | The Jeremy Kyle Show,https://www.youtube.com/watch?v=Oxvc0c3SeKA
44,Controlling Man Makes His Girlfriend Kiss His Feet | Jeremy Kyle USA,Viral Lie Detectors Special Compilation! | The Jeremy Kyle Show,https://www.youtube.com/watch?v=aVtSfQ_3iHw
45,Controlling Man Makes His Girlfriend Kiss His Feet | Jeremy Kyle USA,"""Disgusting"" Grinning Mother BODY SHAMES Her Own Daughter | Jeremy Kyle USA",https://www.youtube.com/watch?v=3_yJk3sZ_iE
46,Controlling Man Makes His Girlfriend Kiss His Feet | Jeremy Kyle USA,Jeremy Encounters One of His Most Aggressive Guests Ever | The Jeremy Kyle Show,https://www.youtube.com/watch?v=apBlPL24PRk
47,Controlling Man Makes His Girlfriend Kiss His Feet | Jeremy Kyle USA,Man Dumps Pregnant 16-Year-Old In the Cruelest Way Possible | The Jeremy Kyle Show,https://www.youtube.com/watch?v=9IoqS3rqbj4
48,Controlling Man Makes His Girlfriend Kiss His Feet | Jeremy Kyle USA,Jeremy Mocks a Man's 'Gangster' Persona | The Jeremy Kyle Show,https://www.youtube.com/watch?v=W3Up8ijl9fU
49,start,Grandma Celebrates Killing Son-In-Law - Crime Watch Daily With Chris Hansen (Pt 1),https://www.youtube.com/watch?v=fP3IxeywIn4
50,Grandma Celebrates Killing Son-In-Law - Crime Watch Daily With Chris Hansen (Pt 1),Grandma Celebrates Killing Son-In-Law - Crime Watch Daily With Chris Hansen (Pt 2),https://www.youtube.com/watch?v=2R8ojKBbNfA
51,start,"The rarest funniest 'Two Ronnies' Sketch ever made: ""Tickle your botty with a feather tonight""""",https://www.youtube.com/watch?v=MknJkRGErwY
52,"The rarest funniest 'Two Ronnies' Sketch ever made: ""Tickle your botty with a feather tonight""""",The Two Ronnies - Colditz,https://www.youtube.com/watch?v=q856uDZEhgM
53,start,Holly and Phillip Meet Samantha the Sex Robot | This Morning,https://www.youtube.com/watch?v=AqokkXoa7uE
54,Holly and Phillip Meet Samantha the Sex Robot | This Morning,I Gave Up Men to Have Sex With Ghosts | This Morning,https://www.youtube.com/watch?v=1sWDCz5v1Vg
55,Holly and Phillip Meet Samantha the Sex Robot | This Morning,Graham Norton Funniest Moments (Compilation 1),https://www.youtube.com/watch?v=iyqZErxk3Rw
56,Holly and Phillip Meet Samantha the Sex Robot | This Morning,10 Gold Diggers Who Got What They Deserved!,https://www.youtube.com/watch?v=mFekhU0LjSs
57,Holly and Phillip Meet Samantha the Sex Robot | This Morning,"My Girlfriend Tortured, Stabbed and Starved Me | This Morning",https://www.youtube.com/watch?v=KeGVpMPAwuw
58,start,Should You Sunbathe Naked In Your Own Garden? | This Morning,https://www.youtube.com/watch?v=fzZoNTe0vjI
59,start,Love Island's Adam Has Already Met Zara's Parents! | This Morning,https://www.youtube.com/watch?v=eAEAYHdC9HA
60,start,Funniest Staredowns in MMA and Boxing,https://www.youtube.com/watch?v=Xz3GcQu4tic
61,Funniest Staredowns in MMA and Boxing,"Exclusive MMA and Boxing, FUNNIEST Moments",https://www.youtube.com/watch?v=Hnu2qrAM-fE
62,start,EL TITAN de la MMA y el Kick boxing,https://www.youtube.com/watch?v=rzA8aCl9ZJk
63,EL TITAN de la MMA y el Kick boxing,MMA LEGEND VS JAPANESE GiANT - SUPER FiGHT WiTHOUT RULES,https://www.youtube.com/watch?v=iu5B2esR0-4
64,start,Funniest Accidents & Mistakes in Sports History,https://www.youtube.com/watch?v=0m3vMZlNyw0
65,Funniest Accidents & Mistakes in Sports History,Most Biggest Accidents and Mistakes in Winter Sports,https://www.youtube.com/watch?v=yWnMtSQ0xEg
66,Funniest Accidents & Mistakes in Sports History,Extreme idiots of the internet fails caught on camera of 2012 2013 2014 2015 2016,https://www.youtube.com/watch?v=1sYhwTYDn9E
67,start,A RUGBY PLAYER vs TWO MMA FIGHTERS !!! CRAZY !!!!,https://www.youtube.com/watch?v=2JmLX9y62uE
68,start,Charlie Hits Everyone Then Karma Hits Charlie,https://www.youtube.com/watch?v=iCz-FGTMu0k
69,Charlie Hits Everyone Then Karma Hits Charlie,Top 5 Charlie Zelenoff Losses (MUST SEE)!,https://www.youtube.com/watch?v=ux_kUo9OLsc
70,start,HUMILITY vs ARROGANCE (Highlightsᴴᴰ) ● UFC MMA,https://www.youtube.com/watch?v=85vVENjRELI
71,HUMILITY vs ARROGANCE (Highlightsᴴᴰ) ● UFC MMA,WHEN COCKY FIGHTERS GET DESTROYED PART 1,https://www.youtube.com/watch?v=TBUQtfeICaE
72,HUMILITY vs ARROGANCE (Highlightsᴴᴰ) ● UFC MMA,INSTANT KARMA IN MMA (Cocky Fighters Getting Knocked Out),https://www.youtube.com/watch?v=tJwO6KGeCVI
73,start,Theresa May's new-look cabinet meets amid Brexit turmoil - BBC News,https://www.youtube.com/watch?v=XM1T3u3kcGQ
74,Theresa May's new-look cabinet meets amid Brexit turmoil - BBC News,Thailand Cave rescue: Waiting for four rescue divers to emerge - BBC News,https://www.youtube.com/watch?v=RH_eizl2scY
75,Theresa May's new-look cabinet meets amid Brexit turmoil - BBC News,Jeremy Corbyn tells government to 'get its act together' or 'make way' - Daily Mail,https://www.youtube.com/watch?v=RVjDN29vg4Y
76,Theresa May's new-look cabinet meets amid Brexit turmoil - BBC News,Brexit crisis amid U.K. cabinet resignations,https://www.youtube.com/watch?v=iMIhVqkUyEU
77,Theresa May's new-look cabinet meets amid Brexit turmoil - BBC News,Theresa May addresses David Davis and Boris Johnson resignations - Daily Mail,https://www.youtube.com/watch?v=CGO8ZoLLr5M
78,Theresa May's new-look cabinet meets amid Brexit turmoil - BBC News,Boris Johnson resigns as UK Foreign Secretary,https://www.youtube.com/watch?v=GYGB1DlOmE8
79,Theresa May's new-look cabinet meets amid Brexit turmoil - BBC News,Thailand cave rescue has successful first phase,https://www.youtube.com/watch?v=CNQaprmjqGY
80,Theresa May's new-look cabinet meets amid Brexit turmoil - BBC News,The Leaning Tower of Lire,https://www.youtube.com/watch?v=pBYPXsGka74
81,Theresa May's new-look cabinet meets amid Brexit turmoil - BBC News,The Secret Society You've (Probably) Never Heard Of,https://www.youtube.com/watch?v=Ub-OP8NFPGM
82,Theresa May's new-look cabinet meets amid Brexit turmoil - BBC News,Kay Burley meets Jacob Rees-Mogg,https://www.youtube.com/watch?v=Xb02qLbBKxQ
83,Theresa May's new-look cabinet meets amid Brexit turmoil - BBC News,Benedict Cumberbatch Can't Say 'Penguins' - The Graham Norton Show on BBC America,https://www.youtube.com/watch?v=9GHPNKUMf70
84,Theresa May's new-look cabinet meets amid Brexit turmoil - BBC News,Trump says North Korea 'no longer a nuclear threat'; Not everyone agrees,https://www.youtube.com/watch?v=D0VzDahlmLA
85,start,Michael Gove is '100 percent' behind Theresa May's Brexit plan - Daily Mail,https://www.youtube.com/watch?v=hbsgr0aVJrQ
86,start,Labour Deputy Leader Tom Watson Responds to Brexit Cabinet Chaos | Good Morning Britain,https://www.youtube.com/watch?v=C-6e4f84EfQ
87,Labour Deputy Leader Tom Watson Responds to Brexit Cabinet Chaos | Good Morning Britain,Andrew Bridgen on How There Will Be More Resignations Because of Brexit | Good Morning Britain,https://www.youtube.com/watch?v=wYwYBz0RAiY
88,Labour Deputy Leader Tom Watson Responds to Brexit Cabinet Chaos | Good Morning Britain,Jeremy Corbyn tells government to 'get its act together' or 'make way' - Daily Mail,https://www.youtube.com/watch?v=RVjDN29vg4Y
89,Labour Deputy Leader Tom Watson Responds to Brexit Cabinet Chaos | Good Morning Britain,To Brexit or not to Brexit: uncut interviews with Tony Blair and Nigel Farage,https://www.youtube.com/watch?v=1aENJgYu3Ao
90,Labour Deputy Leader Tom Watson Responds to Brexit Cabinet Chaos | Good Morning Britain,Brexit crisis amid U.K. cabinet resignations,https://www.youtube.com/watch?v=iMIhVqkUyEU
91,Labour Deputy Leader Tom Watson Responds to Brexit Cabinet Chaos | Good Morning Britain,Trade War: China Levies Tarrifs on US in Retaliation,https://www.youtube.com/watch?v=pRxEV8jkdpk
92,Labour Deputy Leader Tom Watson Responds to Brexit Cabinet Chaos | Good Morning Britain,"Amy Walter and Susan Page on Congress’ Supreme Court fight, Trump’s NATO tensions",https://www.youtube.com/watch?v=wFRXhDNMrCs
93,Labour Deputy Leader Tom Watson Responds to Brexit Cabinet Chaos | Good Morning Britain,Boris Johnson resigns as UK Foreign Secretary,https://www.youtube.com/watch?v=GYGB1DlOmE8
94,Labour Deputy Leader Tom Watson Responds to Brexit Cabinet Chaos | Good Morning Britain,"Gerard Batten on UKIP, Farage, Brexit and Britishness",https://www.youtube.com/watch?v=VRY0LqFlcE8
95,Labour Deputy Leader Tom Watson Responds to Brexit Cabinet Chaos | Good Morning Britain,Brexit Turmoil: EU leaders react to latest fallout,https://www.youtube.com/watch?v=WZN1LNWf554
96,Labour Deputy Leader Tom Watson Responds to Brexit Cabinet Chaos | Good Morning Britain,Inside Brexit: How Britain lost Europe,https://www.youtube.com/watch?v=oqT1lneQ28Q
97,Labour Deputy Leader Tom Watson Responds to Brexit Cabinet Chaos | Good Morning Britain,Two key pro-Brexit ministers resign from May’s cabinet | In The News,https://www.youtube.com/watch?v=cewOQpEFvws
98,Labour Deputy Leader Tom Watson Responds to Brexit Cabinet Chaos | Good Morning Britain,Sadiq Khan is Challenged on Knife Crime in London | Good Morning Britain,https://www.youtube.com/watch?v=pBdwr2WqY6g
99,Labour Deputy Leader Tom Watson Responds to Brexit Cabinet Chaos | Good Morning Britain,"Brexit minister was marginalized in EU negotiations, academic says | In The News",https://www.youtube.com/watch?v=_nymNc272rQ
100,Labour Deputy Leader Tom Watson Responds to Brexit Cabinet Chaos | Good Morning Britain,#TheCube | Brexit secretary David Davis steps down.,https://www.youtube.com/watch?v=YZSIrrRyaf0
101,Labour Deputy Leader Tom Watson Responds to Brexit Cabinet Chaos | Good Morning Britain,British Government in crisis after Boris Johnson resigns,https://www.youtube.com/watch?v=EAedeq3Vvnk
102,Labour Deputy Leader Tom Watson Responds to Brexit Cabinet Chaos | Good Morning Britain,Brexit Turmoil: resignations leave May fighting for survival,https://www.youtube.com/watch?v=pvXLiS63R9Q
103,Labour Deputy Leader Tom Watson Responds to Brexit Cabinet Chaos | Good Morning Britain,Boris Johnson resigns as Britain’s Foreign Secretary,https://www.youtube.com/watch?v=Kqmpn1Ef3o4
104,Labour Deputy Leader Tom Watson Responds to Brexit Cabinet Chaos | Good Morning Britain,Tory civil war amid plot to bring down PM over Brexit policy,https://www.youtube.com/watch?v=9lZ8a5WIWzI
105,Labour Deputy Leader Tom Watson Responds to Brexit Cabinet Chaos | Good Morning Britain,Can Cabinet unity last through Brexit negotiations?,https://www.youtube.com/watch?v=i3ddkreHIsg
106,Labour Deputy Leader Tom Watson Responds to Brexit Cabinet Chaos | Good Morning Britain,Len McCluskey's attack on Tom Watson,https://www.youtube.com/watch?v=Um22dM8eOoE
107,start,Jeremy Hunt appointed UK foreign secretary,https://www.youtube.com/watch?v=2-OrIBbj1xU
108,Jeremy Hunt appointed UK foreign secretary,Floods and landslides wreak havoc in Japan,https://www.youtube.com/watch?v=xoUkhhcJnqk
109,Jeremy Hunt appointed UK foreign secretary,Jeremy Corbyn tells government to 'get its act together' or 'make way' - Daily Mail,https://www.youtube.com/watch?v=RVjDN29vg4Y
110,Jeremy Hunt appointed UK foreign secretary,"‘You are not laughing now, are you?’ Nigel Farage at European Parliament (FULL SPEECH)",https://www.youtube.com/watch?v=SJzRa7HWVqs
111,Jeremy Hunt appointed UK foreign secretary,Boris Johnson resigns as UK Foreign Secretary,https://www.youtube.com/watch?v=GYGB1DlOmE8
112,Jeremy Hunt appointed UK foreign secretary,Bercow goes beast mode,https://www.youtube.com/watch?v=6X5F7jhQZd8
113,Jeremy Hunt appointed UK foreign secretary,'Who the Hell You Think You Are?' Nigel Farage throws egg in Eurocrat faces,https://www.youtube.com/watch?v=2gm9q8uabTs
114,Jeremy Hunt appointed UK foreign secretary,Theresa May addresses David Davis and Boris Johnson resignations - Daily Mail,https://www.youtube.com/watch?v=CGO8ZoLLr5M
115,Jeremy Hunt appointed UK foreign secretary,Kay Burley meets Jacob Rees-Mogg,https://www.youtube.com/watch?v=Xb02qLbBKxQ
116,Jeremy Hunt appointed UK foreign secretary,Boris Johnson resigns as Britain’s Foreign Secretary,https://www.youtube.com/watch?v=Kqmpn1Ef3o4
117,Jeremy Hunt appointed UK foreign secretary,British Government in crisis after Boris Johnson resigns,https://www.youtube.com/watch?v=EAedeq3Vvnk
118,Jeremy Hunt appointed UK foreign secretary,President Trump Announces His Supreme Court Pick And Democrats Say 'No Way',https://www.youtube.com/watch?v=rGla9iuVJyY
119,Jeremy Hunt appointed UK foreign secretary,The Secret Society You've (Probably) Never Heard Of,https://www.youtube.com/watch?v=Ub-OP8NFPGM
120,Jeremy Hunt appointed UK foreign secretary,England is going to be sorry for how they treat Trump: John Browne,https://www.youtube.com/watch?v=783YaVDP-4U
121,Jeremy Hunt appointed UK foreign secretary,China bridges the gap to Hong Kong,https://www.youtube.com/watch?v=nf6PXdNvv3Q
122,Jeremy Hunt appointed UK foreign secretary,U.K. Foreign Minister Boris Johnson resigns amid Brexit cabinet rift,https://www.youtube.com/watch?v=iYFuV3W8Z9k
123,Jeremy Hunt appointed UK foreign secretary,"Foreign minister, Brexit secretary resign amid row over Brexit policy",https://www.youtube.com/watch?v=6XuzvKLxpgg
124,Jeremy Hunt appointed UK foreign secretary,Prime Minister's Questions: 4 July 2018,https://www.youtube.com/watch?v=w7B_nepK_4U
125,Jeremy Hunt appointed UK foreign secretary,'Absolute chaos': BoJo is third minister to resign as foreign secretary within 24 hours,https://www.youtube.com/watch?v=S090DTKM-MU
126,Jeremy Hunt appointed UK foreign secretary,Tory civil war amid plot to bring down PM over Brexit policy,https://www.youtube.com/watch?v=9lZ8a5WIWzI
127,Jeremy Hunt appointed UK foreign secretary,Timeline of Thai cave rescue (June 23-July 9),https://www.youtube.com/watch?v=TnbSkPXDEP0
128,start,Boris Johnson quits: Profile of ex-foreign secretary - BBC News,https://www.youtube.com/watch?v=nkWwbJxCG4E
129,Boris Johnson quits: Profile of ex-foreign secretary - BBC News,Thailand Cave rescue: Waiting for four rescue divers to emerge - BBC News,https://www.youtube.com/watch?v=RH_eizl2scY
130,Boris Johnson quits: Profile of ex-foreign secretary - BBC News,Jeremy Corbyn tells government to 'get its act together' or 'make way' - Daily Mail,https://www.youtube.com/watch?v=RVjDN29vg4Y
131,Boris Johnson quits: Profile of ex-foreign secretary - BBC News,Boris Johnson resigns as UK Foreign Secretary,https://www.youtube.com/watch?v=GYGB1DlOmE8
132,Boris Johnson quits: Profile of ex-foreign secretary - BBC News,Brexit crisis amid U.K. cabinet resignations,https://www.youtube.com/watch?v=iMIhVqkUyEU
133,Boris Johnson quits: Profile of ex-foreign secretary - BBC News,Thailand cave rescue has successful first phase,https://www.youtube.com/watch?v=CNQaprmjqGY
134,Boris Johnson quits: Profile of ex-foreign secretary - BBC News,Theresa May addresses David Davis and Boris Johnson resignations - Daily Mail,https://www.youtube.com/watch?v=CGO8ZoLLr5M
135,start,Dr Liam Fox MP was questioned on Tuesday morning about Brexit - Daily Mail,https://www.youtube.com/watch?v=jIUtdpNhkhU
136,start,Best Fails/Wins of May 2017,https://www.youtube.com/watch?v=yelu3TsWa2A
137,start,11 Illegal Things You Do Every Day,https://www.youtube.com/watch?v=9H2jhigE2Tw
138,start,"People react to being called Beautiful (Brussels, Belgium)",https://www.youtube.com/watch?v=RZP6uJtgM34
139,start,How to make air conditioner at home using Plastic Bottle - Easy life hacks,https://www.youtube.com/watch?v=Y2XU2uAxYYM
140,start,"If You See This In a Public Bathroom, Call the Police Immediately!",https://www.youtube.com/watch?v=p4hMMmnANSM
141,start,"Port Of Trelleborg, Sweden. Live 2",https://www.youtube.com/watch?v=DmN6sxTjXdY
142,"Port Of Trelleborg, Sweden. Live 2","Port Of Trelleborg, Sweden. Live 3",https://www.youtube.com/watch?v=8w9lCzW0DEo
143,"Port Of Trelleborg, Sweden. Live 2",Discovery Mega Rigs: Heerema Special,https://www.youtube.com/watch?v=HPOWBB7fOqY
144,"Port Of Trelleborg, Sweden. Live 2",Over the Top. To the North Pole by Icebreaker.,https://www.youtube.com/watch?v=FdtAH-RqFH0
145,"Port Of Trelleborg, Sweden. Live 2","Airport Live - Online HD Streaming Webcam from Lanzarote (Canary Islands, Spain)",https://www.youtube.com/watch?v=7DtRPJ2crTA
146,"Port Of Trelleborg, Sweden. Live 2",Megastructures: Queen Mary 2 [ENG][DOC],https://www.youtube.com/watch?v=4GpuTjbU5ak
147,"Port Of Trelleborg, Sweden. Live 2",Top 10 Biggest / Largest RC Airplanes In The World [VIDEOS],https://www.youtube.com/watch?v=s8k1W1UakvU
148,"Port Of Trelleborg, Sweden. Live 2",Mud Fight in Lyme Bay (salvage of the MSC NAPOLI),https://www.youtube.com/watch?v=pa7IjWGoWOA
149,"Port Of Trelleborg, Sweden. Live 2",EMERGENCY LANDING IN A CESSNA 210 (KCGF to KBKW),https://www.youtube.com/watch?v=DpbNJTkEbL8
150,"Port Of Trelleborg, Sweden. Live 2",China,https://www.youtube.com/watch?v=Eey_e7fwCLY
151,"Port Of Trelleborg, Sweden. Live 2",Big Yacht RePower - Full Length,https://www.youtube.com/watch?v=EqQPlavvD5I
152,"Port Of Trelleborg, Sweden. Live 2","TNT Tony & Ray Call for July 9, 2018",https://www.youtube.com/watch?v=44v1qhk_Z0E
153,"Port Of Trelleborg, Sweden. Live 2",Hamptons.com Shelter Island South Ferry Cam LIVE!,https://www.youtube.com/watch?v=UmsfUJ8dF3U
154,"Port Of Trelleborg, Sweden. Live 2",Paratroopers Static Line Jump From C-17,https://www.youtube.com/watch?v=R-2puqqmycM
155,"Port Of Trelleborg, Sweden. Live 2","Pro řidiče autobusu/ Dover - autobusem nájezd na trajekt s lidmi, co a jak? ,",https://www.youtube.com/watch?v=twmr4KiPLnM
156,"Port Of Trelleborg, Sweden. Live 2",Sinking MV Twin Capes  - Cape May Ferry,https://www.youtube.com/watch?v=rm1R-TYAZHU
157,"Port Of Trelleborg, Sweden. Live 2",",,Rikardo & Mirem"" - Restorant 1- 26.06.2018 Gazda Johan-Kamera Master M",https://www.youtube.com/watch?v=qw8voD4d64s
158,"Port Of Trelleborg, Sweden. Live 2",ANY JOB ANY SEA,https://www.youtube.com/watch?v=vtKm8T2IeuU
159,"Port Of Trelleborg, Sweden. Live 2","Pizza Mizza Nový Háj, Bratislava, Slovakia",https://www.youtube.com/watch?v=oKpkKoe41u4
160,"Port Of Trelleborg, Sweden. Live 2",Panama Canal: Post Panamax,https://www.youtube.com/watch?v=YzCULxAmkRU
161,"Port Of Trelleborg, Sweden. Live 2",penlee lifeboat diaster - cruel sea,https://www.youtube.com/watch?v=yeIX0VnUMKo
