,source,target,target_url
0,start,UFC 226: Daniel Cormier and Brock Lesnar Octagon Interviews,https://www.youtube.com/watch?v=sQpTaBuMa44
1,start,JUDGE REMOVES STAN LEE'S PROTECTION & HE SAYS HE'S GIVING UP ON LIFE,https://www.youtube.com/watch?v=zNYSSpxmG6w
2,JUDGE REMOVES STAN LEE'S PROTECTION & HE SAYS HE'S GIVING UP ON LIFE,SJW COMICS PUBLISHER FOR HASBRO LOSING MILLIONS,https://www.youtube.com/watch?v=FFZZrkCU1Ek
3,start,Orange is the New Black: Season 6 | Official Trailer [HD] | Netflix,https://www.youtube.com/watch?v=MtW-WNfM3r8
4,Orange is the New Black: Season 6 | Official Trailer [HD] | Netflix,What The Orange Is The New Black Stars Look Like In Real Life,https://www.youtube.com/watch?v=wosTs9jAL5o
5,start,FIRST LOOK: Sick Of It - Coming Soon,https://www.youtube.com/watch?v=MgjRdSm_qmI
6,start,"Khalid - OTW (Official Video) ft. 6LACK, Ty Dolla $ign",https://www.youtube.com/watch?v=2e9diL0xTN4
7,"Khalid - OTW (Official Video) ft. 6LACK, Ty Dolla $ign",Tyga - Taste (Official Video) ft. Offset,https://www.youtube.com/watch?v=LjxulQ1bEWg
8,"Khalid - OTW (Official Video) ft. 6LACK, Ty Dolla $ign",Khalid & Normani - Love Lies (Official Video),https://www.youtube.com/watch?v=xYtsL9znopI
9,"Khalid - OTW (Official Video) ft. 6LACK, Ty Dolla $ign","Elijah Connor: ""Diddy"" Tests Confident Artist With EPIC STAREDOWN! | S2E3 | The Four",https://www.youtube.com/watch?v=VCZP4rPstnk
10,"Khalid - OTW (Official Video) ft. 6LACK, Ty Dolla $ign",Post Malone - Psycho ft. Ty Dolla $ign,https://www.youtube.com/watch?v=au2n7VVGv_c
11,"Khalid - OTW (Official Video) ft. 6LACK, Ty Dolla $ign",10 Famous Child Celebs Who Ruined Their Careers,https://www.youtube.com/watch?v=ipz5h6kO7Jc
12,"Khalid - OTW (Official Video) ft. 6LACK, Ty Dolla $ign",Maroon 5 - Girls Like You ft. Cardi B,https://www.youtube.com/watch?v=aJOTlE1K90k
13,"Khalid - OTW (Official Video) ft. 6LACK, Ty Dolla $ign",XXXTENTACION - SAD!,https://www.youtube.com/watch?v=pgN-vvVVxMA
14,"Khalid - OTW (Official Video) ft. 6LACK, Ty Dolla $ign","Swae Lee, Slim Jxmmi, Rae Sremmurd - Guatemala",https://www.youtube.com/watch?v=8CKuWPRq2Ps
15,"Khalid - OTW (Official Video) ft. 6LACK, Ty Dolla $ign","Top 50 Songs Of The Week - July 7, 2018",https://www.youtube.com/watch?v=tLoBwS5fG_s
16,"Khalid - OTW (Official Video) ft. 6LACK, Ty Dolla $ign",Drake - I'm Upset,https://www.youtube.com/watch?v=rIhx2wZ8jnA
17,"Khalid - OTW (Official Video) ft. 6LACK, Ty Dolla $ign",Lil Dicky  - Freaky Friday feat. Chris Brown (Official Music Video),https://www.youtube.com/watch?v=aZla1ttZHaw
18,"Khalid - OTW (Official Video) ft. 6LACK, Ty Dolla $ign",LYRIC PRANK ON GIRLFRIEND GONE WRONG!!!,https://www.youtube.com/watch?v=n8YHw3LluIs
19,start,Out of Bounds Discoveries | Crash Bandicoot N. Sane Trilogy  - Boundary Break,https://www.youtube.com/watch?v=_n2iQcNlr9w
20,Out of Bounds Discoveries | Crash Bandicoot N. Sane Trilogy  - Boundary Break,Off Camera Secrets | Breath of the Wild  - Boundary Break,https://www.youtube.com/watch?v=geVgWMtbZNo
21,Out of Bounds Discoveries | Crash Bandicoot N. Sane Trilogy  - Boundary Break,Off Camera Secrets | Dark Souls III - Boundary Break,https://www.youtube.com/watch?v=VbaA6_84gyY
22,Out of Bounds Discoveries | Crash Bandicoot N. Sane Trilogy  - Boundary Break,Crash Bandicoot N.Sane Trilogy Glitches -  Son of a Glitch - Episode 75,https://www.youtube.com/watch?v=5i8E5hmObVU
23,Out of Bounds Discoveries | Crash Bandicoot N. Sane Trilogy  - Boundary Break,Super Smash Bros. Melee LOST BITS | Unused Content & Debug Mode [TetraBitGaming],https://www.youtube.com/watch?v=mW4lhbnQIII
24,Out of Bounds Discoveries | Crash Bandicoot N. Sane Trilogy  - Boundary Break,Off Camera Secrets | Team Fortress 2 - Boundary Break,https://www.youtube.com/watch?v=03OpG2vr5JA
25,start,10 Warning Body Signs You Shouldn't Ignore,https://www.youtube.com/watch?v=tMG5O61K2-s
26,10 Warning Body Signs You Shouldn't Ignore,6 Riddles Only 2% Extraordinary Thinkers Can Solve,https://www.youtube.com/watch?v=-TyJlHVGeJ0
27,start,13 Unbelievable Coincidences That Will Leave You Confused,https://www.youtube.com/watch?v=Lz9OSmVuNHw
28,13 Unbelievable Coincidences That Will Leave You Confused,10 Mysterious Photos That Can't Be Explained,https://www.youtube.com/watch?v=RB1cnwMg7Z0
29,start,"If You See This In a Public Bathroom, Call the Police Immediately!",https://www.youtube.com/watch?v=p4hMMmnANSM
30,start,15 Puzzles That Will Keep You Up All Night,https://www.youtube.com/watch?v=ugAUMbceVNU
31,15 Puzzles That Will Keep You Up All Night,See If You Can Solve These 7 Riddles with a Twist,https://www.youtube.com/watch?v=vRKf9jFZsIY
32,15 Puzzles That Will Keep You Up All Night,Common Sense Test That 90% of People Fail,https://www.youtube.com/watch?v=mJVWX0vud-g
33,15 Puzzles That Will Keep You Up All Night,The Ocean is Way Deeper Than You Think,https://www.youtube.com/watch?v=GE-lAftuQgc
34,15 Puzzles That Will Keep You Up All Night,5 Riddles You Must Solve to Stay Alive,https://www.youtube.com/watch?v=OXHMdEv0ikI
35,start,10 Warning Signs Your Heart Isn't Working Properly,https://www.youtube.com/watch?v=tWSBCiZY-Mo
36,10 Warning Signs Your Heart Isn't Working Properly,12 Things Your Stool Says About Your Health,https://www.youtube.com/watch?v=-9LTXO00aYY
37,start,Keith Lemon Causes a Shock in the Studio | Good Morning Britain,https://www.youtube.com/watch?v=nfIdG6D_XUk
38,Keith Lemon Causes a Shock in the Studio | Good Morning Britain,Keith Lemon Has Holly And Phillip In Stitches! | This Morning,https://www.youtube.com/watch?v=CxGoNEWWK_Q
39,Keith Lemon Causes a Shock in the Studio | Good Morning Britain,Piers Morgan Clashes With Guest During Heated National Anthem Debate | Good Morning Britain,https://www.youtube.com/watch?v=l0H-BykoktI
40,Keith Lemon Causes a Shock in the Studio | Good Morning Britain,Celebrity Juice Too juicy For TV 2  Unseen,https://www.youtube.com/watch?v=3ORBWWb3Kh4
41,start,Piers Clashes With Guest Over Banning Skirts Debate | Good Morning Britain,https://www.youtube.com/watch?v=WGu6kyp4mmQ
42,Piers Clashes With Guest Over Banning Skirts Debate | Good Morning Britain,Is Milk Murder for Cows? | Good Morning Britain,https://www.youtube.com/watch?v=5uqh_LNpay4
43,start,Black Henna Tattoo Scars Girl's Arm | Good Morning Britain,https://www.youtube.com/watch?v=_m5c2l3R67I
44,Black Henna Tattoo Scars Girl's Arm | Good Morning Britain,Giving Each Other Henna Tattoos For The First Time • Saf & Michelle,https://www.youtube.com/watch?v=Mvy9MgLYrb0
45,Black Henna Tattoo Scars Girl's Arm | Good Morning Britain,Judges BUZZ TOO EARLY On Britain's Got Talent! | Top Talent,https://www.youtube.com/watch?v=W64c3L8N0aw
46,Black Henna Tattoo Scars Girl's Arm | Good Morning Britain,Kids Design Tattoos for Their Parents | Kids Draw | Cut,https://www.youtube.com/watch?v=giMo5avTyLM
47,Black Henna Tattoo Scars Girl's Arm | Good Morning Britain,My Haunted Doll Attacked My Husband | This Morning,https://www.youtube.com/watch?v=f8nN-KG0UtM
48,start,Piers Claims He Can Take on WWE Royalty Triple H | Good Morning Britain,https://www.youtube.com/watch?v=TjX2Xi3tnno
49,Piers Claims He Can Take on WWE Royalty Triple H | Good Morning Britain,"Weakest Link - WWF Edition #1 (Kurt, Lita, Booker T, Triple H, Regal, Stephanie, Trish, Big Show)",https://www.youtube.com/watch?v=AJI-ZgYyUhk
50,Piers Claims He Can Take on WWE Royalty Triple H | Good Morning Britain,Piers Clashes With Guest Over Banning Skirts Debate | Good Morning Britain,https://www.youtube.com/watch?v=WGu6kyp4mmQ
51,Piers Claims He Can Take on WWE Royalty Triple H | Good Morning Britain,Paul McCartney Carpool Karaoke,https://www.youtube.com/watch?v=QjvzCTqkBDQ
52,start,Is This the Strictest School in Britain? | Good Morning Britain,https://www.youtube.com/watch?v=mgvXySv1l4M
53,start,Ross Kemp's Motivational Speech for the England Team | Good Morning Britain,https://www.youtube.com/watch?v=5mGCM778JZ0
54,start,Simon Cowell PULLS a Girl From Her Band To Join NEW Girl Band | The X Factor UK 2017,https://www.youtube.com/watch?v=7kZR_0nUdgM
55,start,"Rudest Auditions...EVER? | X Factor, Got Talent & Idols | Crazy Talents",https://www.youtube.com/watch?v=zEvMQZremFo
56,start,TOP 3 EMOTIONAL AUDITIONS From X Factor UK | X Factor Global,https://www.youtube.com/watch?v=WhJdOB7Wv0s
57,TOP 3 EMOTIONAL AUDITIONS From X Factor UK | X Factor Global,INCREDIBLE UNEXPECTED SINGERS on Got Talent | Top Talent,https://www.youtube.com/watch?v=S7NKxadiZxo
58,start,ACTS Return for SECOND Auditions on The X Factor UK! | X Factor Global,https://www.youtube.com/watch?v=Ctce6o1t73U
59,start,When JUDGES AUDITION! | X Factor Global,https://www.youtube.com/watch?v=JM9Pv1-aND4
60,When JUDGES AUDITION! | X Factor Global,BRILLIANTLY BIZARRE Auditions on X Factor UK! | X Factor Global,https://www.youtube.com/watch?v=1mq7F2FKy3E
61,When JUDGES AUDITION! | X Factor Global,XFactor Try Not to Laugh/Cringe #1,https://www.youtube.com/watch?v=s_3qEGBo-FA
62,When JUDGES AUDITION! | X Factor Global,Top 10 performance Surprised coaches in The voice USA Auditions 2018,https://www.youtube.com/watch?v=1LJgmCzXxrU
63,When JUDGES AUDITION! | X Factor Global,When Judges Get The Giggles | X Factor UK,https://www.youtube.com/watch?v=vE2M0QqjecE
64,When JUDGES AUDITION! | X Factor Global,STANDING OVATIONS On Got Talent & X Factor | Top Talent,https://www.youtube.com/watch?v=B8r3WmA309c
65,When JUDGES AUDITION! | X Factor Global,ACTS Return for SECOND Auditions on The X Factor UK! | X Factor Global,https://www.youtube.com/watch?v=Ctce6o1t73U
66,When JUDGES AUDITION! | X Factor Global,BRITNEY Fan Won't Leave After Audition Goes Wrong! | X Factor Global,https://www.youtube.com/watch?v=lGwXtmcIsYQ
67,When JUDGES AUDITION! | X Factor Global,TOP 4 GOLDEN BUZZER America's Got Talent 2018,https://www.youtube.com/watch?v=z9b6G2S6Jdc
68,start,"Ashwin Abinashi's Auditions from The X Factor UK (2008, 2009, 2012, 2013) ᴴᴰ",https://www.youtube.com/watch?v=6mkoowhBVgk
69,start,THE PREDATOR Trailer 2 (2018),https://www.youtube.com/watch?v=12-wsx1fjcg
70,THE PREDATOR Trailer 2 (2018),Top 15 Upcoming Action Movies (2018) Full Trailers HD,https://www.youtube.com/watch?v=Xt7E8MxWGlM
71,THE PREDATOR Trailer 2 (2018),10 MYSTERIOUS EVIDENCE OF TIME TRAVEL,https://www.youtube.com/watch?v=PpovdEuStqs
72,THE PREDATOR Trailer 2 (2018),25 Deadpool 2 Easter Eggs And References You Totally Missed,https://www.youtube.com/watch?v=r_6-OdaDAvs
73,THE PREDATOR Trailer 2 (2018),7 Things You (Probably) Didn't Know About Predator,https://www.youtube.com/watch?v=0il3ysn4z-M
74,THE PREDATOR Trailer 2 (2018),PREDATOR: HIERARCHY EXPLAINED - THE YAUTJA CODE OF HONOR EXPLAINED - WHY DO PREDATORS HUNT?,https://www.youtube.com/watch?v=EmMOxQQ5N1A
75,THE PREDATOR Trailer 2 (2018),Orochimaru vs Nine-Tails (Jinchuriki) | Full Fight (Best Version) | NARUTO SHIPPUDEN [HD],https://www.youtube.com/watch?v=DMvLVKSApv4
76,THE PREDATOR Trailer 2 (2018),Untitled Predator Fan Film,https://www.youtube.com/watch?v=dFbGV9UNSPw
77,THE PREDATOR Trailer 2 (2018),10 DRÓNNAL FELVETT IJESZTŐ JELENSÉG | Soha Nem Láttál Még Ilyet!,https://www.youtube.com/watch?v=cXwczV3UcsY
78,THE PREDATOR Trailer 2 (2018),God of War 4 - Final Boss Fight (God of War 2018) PS4 Pro,https://www.youtube.com/watch?v=m0pZv48JXoo
79,THE PREDATOR Trailer 2 (2018),THE MEG Extended Trailer (2018),https://www.youtube.com/watch?v=aDCWRdS1olw
80,THE PREDATOR Trailer 2 (2018),TOP 10 LARGEST CROCODILES In The World,https://www.youtube.com/watch?v=ULP7hs0gYRU
81,THE PREDATOR Trailer 2 (2018),Best Shot Archery Scene - The Great Wall,https://www.youtube.com/watch?v=gZi0_CrJ8s0
82,THE PREDATOR Trailer 2 (2018),John Wick Changed Action Movies And You Barely Noticed,https://www.youtube.com/watch?v=GPTQlfPQo6o
83,THE PREDATOR Trailer 2 (2018),NEW MOVIE TRAILERS 2018 | Weekly #23,https://www.youtube.com/watch?v=UG8D2mJHlq4
84,THE PREDATOR Trailer 2 (2018),Sci-fi Short Film: Remnant,https://www.youtube.com/watch?v=W8GGfJInPcY
85,THE PREDATOR Trailer 2 (2018),Top Upcoming Movies 2018 (June) Full Trailers HD,https://www.youtube.com/watch?v=hF_Me-43kf0
86,THE PREDATOR Trailer 2 (2018),The Yautja (Predators Explained),https://www.youtube.com/watch?v=7Up9XZVKWHw
87,THE PREDATOR Trailer 2 (2018),Top 10 Scientific Inaccuracies in Jurassic Park,https://www.youtube.com/watch?v=gGxtJY2Q6vA
88,THE PREDATOR Trailer 2 (2018),VENOM Trailer 2 (Extended) 2018,https://www.youtube.com/watch?v=ytNDe__x0Hs
89,THE PREDATOR Trailer 2 (2018),Halo 2 Anniversary Remastered THE MOVIE All Cutscenes 1080p 60FPS,https://www.youtube.com/watch?v=kqBX-3aXpUY
90,start,Top Upcoming Movies 2018 (June) Full Trailers HD,https://www.youtube.com/watch?v=hF_Me-43kf0
91,Top Upcoming Movies 2018 (June) Full Trailers HD,Top 15 Upcoming Action Movies (2018) Full Trailers HD,https://www.youtube.com/watch?v=Xt7E8MxWGlM
92,Top Upcoming Movies 2018 (June) Full Trailers HD,Every Superhero Confirmed For Avengers 4,https://www.youtube.com/watch?v=ttKazCRoxWM
93,Top Upcoming Movies 2018 (June) Full Trailers HD,75 RARE HISTORIAL IMAGES YOU HAVE TO SEE BEFORE YOU DIE,https://www.youtube.com/watch?v=LFiT6xlFr3c
94,Top Upcoming Movies 2018 (June) Full Trailers HD,"""GIANTS"" ON VIDEO: Strange Things Are Happening Worldwide! (2018)",https://www.youtube.com/watch?v=UoxnR8nUaPU
95,Top Upcoming Movies 2018 (June) Full Trailers HD,"TOP 20 BEST Upcoming Games of 2018 & 2019 (PS4, XBOX ONE, PC) Cinematics Trailers",https://www.youtube.com/watch?v=AZBSvrin1JM
96,Top Upcoming Movies 2018 (June) Full Trailers HD,Best Kung Fu Martial Arts Movies Of All Times - Chinese Action Martial Arts Movies,https://www.youtube.com/watch?v=Q59uiQe4HWg
97,Top Upcoming Movies 2018 (June) Full Trailers HD,15 Most Anticipated Upcoming Movies 2018,https://www.youtube.com/watch?v=pfKI3ZSqF8Q
98,Top Upcoming Movies 2018 (June) Full Trailers HD,Action & Adventure / Fantasy Movie,https://www.youtube.com/watch?v=_SiSBP1mfW8
99,Top Upcoming Movies 2018 (June) Full Trailers HD,What's Inside the Moon Documentary Most Shocking Secret Ever Discovered,https://www.youtube.com/watch?v=YXjdGI33qrE
100,start,Karenjit Kaur: The Untold Story of Sunny Leone | Uncut Trailer | Premieres 16th July on ZEE5,https://www.youtube.com/watch?v=edJ6DnPXh8o
101,start,Avengers Infinity War Thanos Deleted Scenes and Bonus Features Explained,https://www.youtube.com/watch?v=HVglpqFs7D0
102,start,"UFO Official Trailer (2018) Gillian Anderson, Sci-Fi Alien Movie HD",https://www.youtube.com/watch?v=gxUcHrPhewY
103,start,The Festival Trailer (2018) Comedy Movie,https://www.youtube.com/watch?v=8Q68SPIHPdo
104,The Festival Trailer (2018) Comedy Movie,TOP UPCOMING COMEDY MOVIES Trailer (2018) Part 2,https://www.youtube.com/watch?v=v9Z1jbruDtY
