sesh_id: 2018-09-10 19:37:02
sesh_ip: 89.238.139.52
sesh_isp: M247 Ltd
sesh_loc: England
sesh_type: digger
--------------------

Start: BAD DAY AT WORK? Watch This 😻😜😂 - 7AJJapDlApA
0 recommendations
